EESchema Schematic File Version 4
EELAYER 30 0
EELAYER END
$Descr A3 16535 11693
encoding utf-8
Sheet 1 4
Title ""
Date ""
Rev ""
Comp ""
Comment1 ""
Comment2 ""
Comment3 ""
Comment4 ""
$EndDescr
$Comp
L Memory_Flash:SST39SF040 U4
U 1 1 60315A47
P 11350 3800
F 0 "U4" H 11350 5281 50  0000 C CNN
F 1 "SST39SF040" H 11350 5190 50  0000 C CNN
F 2 "Package_LCC:PLCC-32_11.4x14.0mm_P1.27mm" H 11350 4100 50  0001 C CNN
F 3 "http://ww1.microchip.com/downloads/en/DeviceDoc/25022B.pdf" H 11350 4100 50  0001 C CNN
	1    11350 3800
	1    0    0    -1  
$EndComp
Text Label 7000 3800 2    50   ~ 0
~CSBOOT
Text Label 10200 4800 0    50   ~ 0
~CSBOOT
Wire Wire Line
	10750 4600 10200 4600
Wire Wire Line
	10750 4400 10200 4400
Text Label 10200 4400 0    50   ~ 0
A18
Wire Wire Line
	10750 4300 10200 4300
Text Label 10200 4300 0    50   ~ 0
A17
Wire Wire Line
	10750 4200 10200 4200
Text Label 10200 4200 0    50   ~ 0
A16
Wire Wire Line
	10750 4100 10200 4100
Text Label 10200 4100 0    50   ~ 0
A15
Wire Wire Line
	10750 4000 10200 4000
Text Label 10200 4000 0    50   ~ 0
A14
Wire Wire Line
	10750 3900 10200 3900
Text Label 10200 3900 0    50   ~ 0
A13
Wire Wire Line
	10750 3800 10200 3800
Text Label 10200 3800 0    50   ~ 0
A12
Wire Wire Line
	10750 3700 10200 3700
Text Label 10200 3700 0    50   ~ 0
A11
Wire Wire Line
	10750 3600 10200 3600
Text Label 10200 3600 0    50   ~ 0
A10
Wire Wire Line
	10750 3500 10200 3500
Text Label 10200 3500 0    50   ~ 0
A9
Wire Wire Line
	10750 3400 10200 3400
Text Label 10200 3400 0    50   ~ 0
A8
Wire Wire Line
	10750 3300 10200 3300
Text Label 10200 3300 0    50   ~ 0
A7
Wire Wire Line
	10750 3200 10200 3200
Text Label 10200 3200 0    50   ~ 0
A6
Wire Wire Line
	10750 3100 10200 3100
Text Label 10200 3100 0    50   ~ 0
A5
Wire Wire Line
	10750 3000 10200 3000
Text Label 10200 3000 0    50   ~ 0
A4
Wire Wire Line
	10750 2900 10200 2900
Text Label 10200 2900 0    50   ~ 0
A3
Wire Wire Line
	10750 2800 10200 2800
Text Label 10200 2800 0    50   ~ 0
A2
Wire Wire Line
	10750 2700 10200 2700
Text Label 10200 2700 0    50   ~ 0
A1
Wire Wire Line
	10750 2600 10200 2600
Text Label 10200 2600 0    50   ~ 0
A0
Wire Wire Line
	3850 4600 3300 4600
Wire Wire Line
	6450 6700 7000 6700
Text Label 7000 6700 2    50   ~ 0
D7
Wire Wire Line
	6450 6600 7000 6600
Text Label 7000 6600 2    50   ~ 0
D6
Wire Wire Line
	6450 6500 7000 6500
Text Label 7000 6500 2    50   ~ 0
D5
Wire Wire Line
	6450 6400 7000 6400
Text Label 7000 6400 2    50   ~ 0
D4
Wire Wire Line
	6450 6300 7000 6300
Text Label 7000 6300 2    50   ~ 0
D3
Wire Wire Line
	6450 6200 7000 6200
Text Label 7000 6200 2    50   ~ 0
D2
Wire Wire Line
	6450 6100 7000 6100
Text Label 7000 6100 2    50   ~ 0
D1
Wire Wire Line
	6450 6000 7000 6000
Text Label 7000 6000 2    50   ~ 0
D0
Wire Wire Line
	6450 7500 7000 7500
Text Label 7000 7500 2    50   ~ 0
D15
Wire Wire Line
	6450 7400 7000 7400
Text Label 7000 7400 2    50   ~ 0
D14
Wire Wire Line
	6450 7300 7000 7300
Text Label 7000 7300 2    50   ~ 0
D13
Wire Wire Line
	6450 7200 7000 7200
Text Label 7000 7200 2    50   ~ 0
D12
Wire Wire Line
	6450 7100 7000 7100
Text Label 7000 7100 2    50   ~ 0
D11
Wire Wire Line
	6450 7000 7000 7000
Text Label 7000 7000 2    50   ~ 0
D10
Wire Wire Line
	6450 6900 7000 6900
Text Label 7000 6900 2    50   ~ 0
D9
Wire Wire Line
	6450 6800 7000 6800
Text Label 7000 6800 2    50   ~ 0
D8
Wire Wire Line
	6450 3800 7000 3800
Wire Wire Line
	6450 4000 7000 4000
Text Label 7000 4000 2    50   ~ 0
A18
Wire Wire Line
	6450 4100 7000 4100
Text Label 7000 4100 2    50   ~ 0
A17
Wire Wire Line
	6450 4200 7000 4200
Text Label 7000 4200 2    50   ~ 0
A16
Wire Wire Line
	6450 4300 7000 4300
Text Label 7000 4300 2    50   ~ 0
A15
Wire Wire Line
	6450 4400 7000 4400
Text Label 7000 4400 2    50   ~ 0
A14
Wire Wire Line
	6450 4500 7000 4500
Text Label 7000 4500 2    50   ~ 0
A13
Wire Wire Line
	6450 4600 7000 4600
Text Label 7000 4600 2    50   ~ 0
A12
Wire Wire Line
	6450 4700 7000 4700
Text Label 7000 4700 2    50   ~ 0
A11
Wire Wire Line
	6450 4800 7000 4800
Text Label 7000 4800 2    50   ~ 0
A10
Wire Wire Line
	6450 4900 7000 4900
Text Label 7000 4900 2    50   ~ 0
A9
Wire Wire Line
	6450 5000 7000 5000
Text Label 7000 5000 2    50   ~ 0
A8
Wire Wire Line
	6450 5100 7000 5100
Text Label 7000 5100 2    50   ~ 0
A7
Wire Wire Line
	6450 5200 7000 5200
Text Label 7000 5200 2    50   ~ 0
A6
Wire Wire Line
	6450 5300 7000 5300
Text Label 7000 5300 2    50   ~ 0
A5
Wire Wire Line
	6450 5400 7000 5400
Text Label 7000 5400 2    50   ~ 0
A4
Wire Wire Line
	6450 5500 7000 5500
Text Label 7000 5500 2    50   ~ 0
A3
Wire Wire Line
	6450 5600 7000 5600
Text Label 7000 5600 2    50   ~ 0
A2
Wire Wire Line
	6450 5700 7000 5700
Text Label 7000 5700 2    50   ~ 0
A1
Wire Wire Line
	6450 5800 7000 5800
Text Label 7000 5800 2    50   ~ 0
A0
Wire Wire Line
	8600 1650 8050 1650
Text Label 9700 1650 2    50   ~ 0
~RD
Wire Wire Line
	10850 8450 10300 8450
Wire Wire Line
	10850 8350 10300 8350
Text Label 10300 8350 0    50   ~ 0
~RD
$Comp
L Memory_RAM:IS61C5128AL-10KLI U5
U 1 1 603C9B58
P 11450 7350
F 0 "U5" H 11600 8650 50  0000 C CNN
F 1 "IS61C5128AL-10KLI" H 11900 6050 50  0000 C CNN
F 2 "Package_SO:SOJ-36_10.16x23.49mm_P1.27mm" H 10950 8500 50  0001 C CNN
F 3 "http://www.issi.com/WW/pdf/61-64C5128AL.pdf" H 11450 7350 50  0001 C CNN
	1    11450 7350
	1    0    0    -1  
$EndComp
Wire Wire Line
	6450 3000 7000 3000
Text Label 7000 3000 2    50   ~ 0
A19
Wire Wire Line
	10850 7950 10300 7950
Text Label 10300 7950 0    50   ~ 0
A18
Wire Wire Line
	10850 7850 10300 7850
Text Label 10300 7850 0    50   ~ 0
A17
Wire Wire Line
	10850 7750 10300 7750
Text Label 10300 7750 0    50   ~ 0
A16
Wire Wire Line
	10850 7650 10300 7650
Text Label 10300 7650 0    50   ~ 0
A15
Wire Wire Line
	10850 7550 10300 7550
Text Label 10300 7550 0    50   ~ 0
A14
Wire Wire Line
	10850 7450 10300 7450
Text Label 10300 7450 0    50   ~ 0
A13
Wire Wire Line
	10850 7350 10300 7350
Text Label 10300 7350 0    50   ~ 0
A12
Wire Wire Line
	10850 7250 10300 7250
Text Label 10300 7250 0    50   ~ 0
A11
Wire Wire Line
	10850 7150 10300 7150
Text Label 10300 7150 0    50   ~ 0
A10
Wire Wire Line
	10850 7050 10300 7050
Text Label 10300 7050 0    50   ~ 0
A9
Wire Wire Line
	10850 6950 10300 6950
Text Label 10300 6950 0    50   ~ 0
A8
Wire Wire Line
	10850 6850 10300 6850
Text Label 10300 6850 0    50   ~ 0
A7
Wire Wire Line
	10850 6750 10300 6750
Text Label 10300 6750 0    50   ~ 0
A6
Wire Wire Line
	10850 6650 10300 6650
Text Label 10300 6650 0    50   ~ 0
A5
Wire Wire Line
	10850 6550 10300 6550
Text Label 10300 6550 0    50   ~ 0
A4
Wire Wire Line
	10850 6450 10300 6450
Text Label 10300 6450 0    50   ~ 0
A3
Wire Wire Line
	10850 6350 10300 6350
Text Label 10300 6350 0    50   ~ 0
A2
Wire Wire Line
	10850 6250 10300 6250
Text Label 10300 6250 0    50   ~ 0
A1
Wire Wire Line
	10850 8050 10300 8050
Text Label 10300 8050 0    50   ~ 0
A19
Wire Wire Line
	12050 6950 12600 6950
Text Label 12600 6950 2    50   ~ 0
D7
Wire Wire Line
	12050 6850 12600 6850
Text Label 12600 6850 2    50   ~ 0
D6
Wire Wire Line
	12050 6750 12600 6750
Text Label 12600 6750 2    50   ~ 0
D5
Wire Wire Line
	12050 6650 12600 6650
Text Label 12600 6650 2    50   ~ 0
D4
Wire Wire Line
	12050 6550 12600 6550
Text Label 12600 6550 2    50   ~ 0
D3
Wire Wire Line
	12050 6450 12600 6450
Text Label 12600 6450 2    50   ~ 0
D2
Wire Wire Line
	12050 6350 12600 6350
Text Label 12600 6350 2    50   ~ 0
D1
Wire Wire Line
	12050 6250 12600 6250
Text Label 12600 6250 2    50   ~ 0
D0
$Comp
L power:VCC #PWR026
U 1 1 6040C2ED
P 11450 5950
F 0 "#PWR026" H 11450 5800 50  0001 C CNN
F 1 "VCC" H 11465 6123 50  0000 C CNN
F 2 "" H 11450 5950 50  0001 C CNN
F 3 "" H 11450 5950 50  0001 C CNN
	1    11450 5950
	1    0    0    -1  
$EndComp
Wire Wire Line
	11450 5950 11450 6050
$Comp
L power:GND #PWR027
U 1 1 60412A56
P 11450 8750
F 0 "#PWR027" H 11450 8500 50  0001 C CNN
F 1 "GND" H 11455 8577 50  0000 C CNN
F 2 "" H 11450 8750 50  0001 C CNN
F 3 "" H 11450 8750 50  0001 C CNN
	1    11450 8750
	1    0    0    -1  
$EndComp
Wire Wire Line
	11450 8750 11450 8650
Wire Wire Line
	10300 8250 10850 8250
Text Label 10300 8250 0    50   ~ 0
~CS0
Wire Wire Line
	13550 8450 13000 8450
Wire Wire Line
	13550 8350 13000 8350
Text Label 13000 8350 0    50   ~ 0
~RD
$Comp
L Memory_RAM:IS61C5128AL-10KLI U6
U 1 1 604290D3
P 14150 7350
F 0 "U6" H 14300 8650 50  0000 C CNN
F 1 "IS61C5128AL-10KLI" H 14600 6050 50  0000 C CNN
F 2 "Package_SO:SOJ-36_10.16x23.49mm_P1.27mm" H 13650 8500 50  0001 C CNN
F 3 "http://www.issi.com/WW/pdf/61-64C5128AL.pdf" H 14150 7350 50  0001 C CNN
	1    14150 7350
	1    0    0    -1  
$EndComp
Wire Wire Line
	13550 7950 13000 7950
Text Label 13000 7950 0    50   ~ 0
A18
Wire Wire Line
	13550 7850 13000 7850
Text Label 13000 7850 0    50   ~ 0
A17
Wire Wire Line
	13550 7750 13000 7750
Text Label 13000 7750 0    50   ~ 0
A16
Wire Wire Line
	13550 7650 13000 7650
Text Label 13000 7650 0    50   ~ 0
A15
Wire Wire Line
	13550 7550 13000 7550
Text Label 13000 7550 0    50   ~ 0
A14
Wire Wire Line
	13550 7450 13000 7450
Text Label 13000 7450 0    50   ~ 0
A13
Wire Wire Line
	13550 7350 13000 7350
Text Label 13000 7350 0    50   ~ 0
A12
Wire Wire Line
	13550 7250 13000 7250
Text Label 13000 7250 0    50   ~ 0
A11
Wire Wire Line
	13550 7150 13000 7150
Text Label 13000 7150 0    50   ~ 0
A10
Wire Wire Line
	13550 7050 13000 7050
Text Label 13000 7050 0    50   ~ 0
A9
Wire Wire Line
	13550 6950 13000 6950
Text Label 13000 6950 0    50   ~ 0
A8
Wire Wire Line
	13550 6850 13000 6850
Text Label 13000 6850 0    50   ~ 0
A7
Wire Wire Line
	13550 6750 13000 6750
Text Label 13000 6750 0    50   ~ 0
A6
Wire Wire Line
	13550 6650 13000 6650
Text Label 13000 6650 0    50   ~ 0
A5
Wire Wire Line
	13550 6550 13000 6550
Text Label 13000 6550 0    50   ~ 0
A4
Wire Wire Line
	13550 6450 13000 6450
Text Label 13000 6450 0    50   ~ 0
A3
Wire Wire Line
	13550 6350 13000 6350
Text Label 13000 6350 0    50   ~ 0
A2
Wire Wire Line
	13550 6250 13000 6250
Text Label 13000 6250 0    50   ~ 0
A1
Wire Wire Line
	13550 8050 13000 8050
Text Label 13000 8050 0    50   ~ 0
A19
$Comp
L power:VCC #PWR028
U 1 1 60429113
P 14150 5950
F 0 "#PWR028" H 14150 5800 50  0001 C CNN
F 1 "VCC" H 14165 6123 50  0000 C CNN
F 2 "" H 14150 5950 50  0001 C CNN
F 3 "" H 14150 5950 50  0001 C CNN
	1    14150 5950
	1    0    0    -1  
$EndComp
Wire Wire Line
	14150 5950 14150 6050
$Comp
L power:GND #PWR029
U 1 1 6042911E
P 14150 8750
F 0 "#PWR029" H 14150 8500 50  0001 C CNN
F 1 "GND" H 14155 8577 50  0000 C CNN
F 2 "" H 14150 8750 50  0001 C CNN
F 3 "" H 14150 8750 50  0001 C CNN
	1    14150 8750
	1    0    0    -1  
$EndComp
Wire Wire Line
	14150 8750 14150 8650
Wire Wire Line
	13000 8250 13550 8250
Text Label 13000 8250 0    50   ~ 0
~CS1
Wire Wire Line
	14750 6950 15300 6950
Text Label 15300 6950 2    50   ~ 0
D15
Wire Wire Line
	14750 6850 15300 6850
Text Label 15300 6850 2    50   ~ 0
D14
Wire Wire Line
	14750 6750 15300 6750
Text Label 15300 6750 2    50   ~ 0
D13
Wire Wire Line
	14750 6650 15300 6650
Text Label 15300 6650 2    50   ~ 0
D12
Wire Wire Line
	14750 6550 15300 6550
Text Label 15300 6550 2    50   ~ 0
D11
Wire Wire Line
	14750 6450 15300 6450
Text Label 15300 6450 2    50   ~ 0
D10
Wire Wire Line
	14750 6350 15300 6350
Text Label 15300 6350 2    50   ~ 0
D9
Wire Wire Line
	14750 6250 15300 6250
Text Label 15300 6250 2    50   ~ 0
D8
Wire Wire Line
	6450 3600 7000 3600
Wire Wire Line
	6450 3500 7000 3500
Text Label 7000 3600 2    50   ~ 0
~CS0
Text Label 7000 3500 2    50   ~ 0
~CS1
Wire Wire Line
	4550 2000 4550 1900
Wire Wire Line
	4550 1900 4650 1900
Wire Wire Line
	5750 1900 5750 2000
Wire Wire Line
	5650 2000 5650 1900
Connection ~ 5650 1900
Wire Wire Line
	5650 1900 5750 1900
Wire Wire Line
	5550 2000 5550 1900
Connection ~ 5550 1900
Wire Wire Line
	5550 1900 5650 1900
Wire Wire Line
	5450 2000 5450 1900
Connection ~ 5450 1900
Wire Wire Line
	5450 1900 5550 1900
Wire Wire Line
	5350 2000 5350 1900
Connection ~ 5350 1900
Wire Wire Line
	5350 1900 5450 1900
Wire Wire Line
	5250 2000 5250 1900
Connection ~ 5250 1900
Wire Wire Line
	5250 1900 5350 1900
Wire Wire Line
	5150 2000 5150 1900
Connection ~ 5150 1900
Wire Wire Line
	5150 1900 5250 1900
Wire Wire Line
	5050 2000 5050 1900
Connection ~ 5050 1900
Wire Wire Line
	5050 1900 5150 1900
Wire Wire Line
	4950 2000 4950 1900
Connection ~ 4950 1900
Wire Wire Line
	4950 1900 5050 1900
Wire Wire Line
	4850 2000 4850 1900
Connection ~ 4850 1900
Wire Wire Line
	4850 1900 4950 1900
Wire Wire Line
	4750 2000 4750 1900
Connection ~ 4750 1900
Wire Wire Line
	4750 1900 4850 1900
Wire Wire Line
	4650 2000 4650 1900
Connection ~ 4650 1900
Wire Wire Line
	4650 1900 4750 1900
Wire Wire Line
	5650 9000 5650 9100
Wire Wire Line
	5650 9100 5550 9100
Wire Wire Line
	4450 9100 4450 9000
Wire Wire Line
	4550 9000 4550 9100
Connection ~ 4550 9100
Wire Wire Line
	4550 9100 4450 9100
Wire Wire Line
	4650 9000 4650 9100
Connection ~ 4650 9100
Wire Wire Line
	4650 9100 4550 9100
Wire Wire Line
	4750 9000 4750 9100
Connection ~ 4750 9100
Wire Wire Line
	4750 9100 4650 9100
Wire Wire Line
	4850 9000 4850 9100
Connection ~ 4850 9100
Wire Wire Line
	4850 9100 4750 9100
Wire Wire Line
	4950 9000 4950 9100
Connection ~ 4950 9100
Wire Wire Line
	4950 9100 4850 9100
Wire Wire Line
	5050 9000 5050 9100
Connection ~ 5050 9100
Wire Wire Line
	5050 9100 4950 9100
Wire Wire Line
	5150 9000 5150 9100
Connection ~ 5150 9100
Wire Wire Line
	5150 9100 5050 9100
Wire Wire Line
	5250 9000 5250 9100
Connection ~ 5250 9100
Wire Wire Line
	5250 9100 5150 9100
Wire Wire Line
	5350 9000 5350 9100
Connection ~ 5350 9100
Wire Wire Line
	5350 9100 5250 9100
Wire Wire Line
	5450 9000 5450 9100
Connection ~ 5450 9100
Wire Wire Line
	5450 9100 5350 9100
Wire Wire Line
	5550 9000 5550 9100
Connection ~ 5550 9100
Wire Wire Line
	5550 9100 5450 9100
Wire Wire Line
	5650 9100 5750 9100
Wire Wire Line
	5750 9100 5750 9000
Connection ~ 5650 9100
Wire Wire Line
	5750 9100 5850 9100
Wire Wire Line
	5850 9100 5850 9000
Connection ~ 5750 9100
$Comp
L power:GND #PWR019
U 1 1 60515973
P 5150 9200
F 0 "#PWR019" H 5150 8950 50  0001 C CNN
F 1 "GND" H 5155 9027 50  0000 C CNN
F 2 "" H 5150 9200 50  0001 C CNN
F 3 "" H 5150 9200 50  0001 C CNN
	1    5150 9200
	1    0    0    -1  
$EndComp
Wire Wire Line
	5150 9200 5150 9100
$Comp
L power:VCC #PWR018
U 1 1 60527A6F
P 5150 1800
F 0 "#PWR018" H 5150 1650 50  0001 C CNN
F 1 "VCC" H 5165 1973 50  0000 C CNN
F 2 "" H 5150 1800 50  0001 C CNN
F 3 "" H 5150 1800 50  0001 C CNN
	1    5150 1800
	1    0    0    -1  
$EndComp
Wire Wire Line
	5150 1800 5150 1900
$Comp
L Connector_Generic:Conn_02x05_Odd_Even J2
U 1 1 6053D3DF
P 1550 10500
F 0 "J2" H 1600 10917 50  0000 C CNN
F 1 "BDM" H 1600 10826 50  0000 C CNN
F 2 "Connector_PinHeader_2.54mm:PinHeader_2x05_P2.54mm_Vertical" H 1550 10500 50  0001 C CNN
F 3 "~" H 1550 10500 50  0001 C CNN
	1    1550 10500
	1    0    0    -1  
$EndComp
Wire Wire Line
	1350 10400 1250 10400
Wire Wire Line
	1250 10400 1250 10500
Wire Wire Line
	1350 10500 1250 10500
Connection ~ 1250 10500
Wire Wire Line
	1250 10500 1250 10800
Wire Wire Line
	1150 10700 1150 10100
Wire Wire Line
	1150 10700 1350 10700
$Comp
L power:VCC #PWR03
U 1 1 6057F9F7
P 1150 10100
F 0 "#PWR03" H 1150 9950 50  0001 C CNN
F 1 "VCC" H 1165 10273 50  0000 C CNN
F 2 "" H 1150 10100 50  0001 C CNN
F 3 "" H 1150 10100 50  0001 C CNN
	1    1150 10100
	1    0    0    -1  
$EndComp
$Comp
L power:GND #PWR05
U 1 1 6057FEA4
P 1250 10800
F 0 "#PWR05" H 1250 10550 50  0001 C CNN
F 1 "GND" H 1255 10627 50  0000 C CNN
F 2 "" H 1250 10800 50  0001 C CNN
F 3 "" H 1250 10800 50  0001 C CNN
	1    1250 10800
	1    0    0    -1  
$EndComp
Wire Wire Line
	1350 10600 650  10600
Text Label 650  10600 0    50   ~ 0
~RST
Text Label 2900 10700 2    50   ~ 0
DSO
Text Label 2900 10500 2    50   ~ 0
FREEZE
Text Label 2900 10400 2    50   ~ 0
~BKPT
NoConn ~ 1350 10300
Wire Wire Line
	3850 7900 3200 7900
Wire Wire Line
	3850 7700 3300 7700
Text Label 3300 7700 0    50   ~ 0
~CS_disp
Wire Wire Line
	3850 7300 3300 7300
Text Label 3300 7300 0    50   ~ 0
TXD
Wire Wire Line
	3850 7200 3300 7200
Text Label 3300 7200 0    50   ~ 0
RXD
Wire Wire Line
	3850 7000 3300 7000
Text Label 3300 7000 0    50   ~ 0
DSO
Wire Wire Line
	3850 6900 3300 6900
Wire Wire Line
	3850 6800 3300 6800
Text Label 3300 6800 0    50   ~ 0
~BKPT
Wire Wire Line
	3850 6600 3300 6600
Text Label 3300 6600 0    50   ~ 0
FREEZE
Wire Wire Line
	3850 5800 3300 5800
Text Label 3300 5800 0    50   ~ 0
~RST
Wire Wire Line
	10200 4900 10750 4900
Wire Wire Line
	10200 4800 10750 4800
Text Label 10200 4900 0    50   ~ 0
~RD
Text Label 13000 8450 0    50   ~ 0
~WR
Text Label 8050 1650 0    50   ~ 0
~WR
Text Label 10300 8450 0    50   ~ 0
~WR
Text Label 3300 4600 0    50   ~ 0
~WR
Text Label 10200 4600 0    50   ~ 0
~WR
$Comp
L Device:Crystal_GND3 Y1
U 1 1 606ED1DA
P 1500 6550
F 0 "Y1" V 1454 6680 50  0000 L CNN
F 1 "32kiHz" V 1545 6680 50  0000 L CNN
F 2 "Crystal:Crystal_C26-LF_D2.1mm_L6.5mm_Horizontal_1EP_style2" H 1500 6550 50  0001 C CNN
F 3 "~" H 1500 6550 50  0001 C CNN
	1    1500 6550
	0    1    1    0   
$EndComp
$Comp
L Device:R R3
U 1 1 606EDB6A
P 2000 6550
F 0 "R3" H 2070 6596 50  0000 L CNN
F 1 "10M" H 2070 6505 50  0000 L CNN
F 2 "Resistor_SMD:R_0805_2012Metric" V 1930 6550 50  0001 C CNN
F 3 "~" H 2000 6550 50  0001 C CNN
	1    2000 6550
	1    0    0    -1  
$EndComp
$Comp
L Device:R R2
U 1 1 606EE8BB
P 1750 6300
F 0 "R2" V 1543 6300 50  0000 C CNN
F 1 "330k" V 1634 6300 50  0000 C CNN
F 2 "Resistor_SMD:R_0805_2012Metric" V 1680 6300 50  0001 C CNN
F 3 "~" H 1750 6300 50  0001 C CNN
	1    1750 6300
	0    1    1    0   
$EndComp
Wire Wire Line
	2000 6400 2000 6300
Connection ~ 2000 6300
Wire Wire Line
	2000 6300 1900 6300
Wire Wire Line
	2350 6800 2350 6400
Wire Wire Line
	2350 6400 3850 6400
Wire Wire Line
	2000 6700 2000 6800
Connection ~ 2000 6800
Wire Wire Line
	2000 6800 2350 6800
Wire Wire Line
	1500 6800 1500 6700
Wire Wire Line
	1500 6800 2000 6800
Wire Wire Line
	1600 6300 1500 6300
Wire Wire Line
	1500 6300 1500 6400
$Comp
L Device:C C2
U 1 1 607860D2
P 1150 6800
F 0 "C2" V 1310 6800 50  0000 C CNN
F 1 "22p" V 1401 6800 50  0000 C CNN
F 2 "Capacitor_SMD:C_0805_2012Metric" H 1188 6650 50  0001 C CNN
F 3 "~" H 1150 6800 50  0001 C CNN
	1    1150 6800
	0    1    1    0   
$EndComp
$Comp
L Device:C C1
U 1 1 60789B12
P 1150 6300
F 0 "C1" V 898 6300 50  0000 C CNN
F 1 "22p" V 989 6300 50  0000 C CNN
F 2 "Capacitor_SMD:C_0805_2012Metric" H 1188 6150 50  0001 C CNN
F 3 "~" H 1150 6300 50  0001 C CNN
	1    1150 6300
	0    1    1    0   
$EndComp
Wire Wire Line
	1300 6300 1500 6300
Connection ~ 1500 6300
Wire Wire Line
	1500 6800 1300 6800
Connection ~ 1500 6800
Wire Wire Line
	900  6300 1000 6300
Wire Wire Line
	1000 6800 900  6800
Connection ~ 900  6800
Wire Wire Line
	900  6800 900  6550
Wire Wire Line
	900  6800 900  6900
$Comp
L power:GND #PWR01
U 1 1 607FB7EF
P 900 6900
F 0 "#PWR01" H 900 6650 50  0001 C CNN
F 1 "GND" H 905 6727 50  0000 C CNN
F 2 "" H 900 6900 50  0001 C CNN
F 3 "" H 900 6900 50  0001 C CNN
	1    900  6900
	1    0    0    -1  
$EndComp
Wire Wire Line
	1300 6550 900  6550
Connection ~ 900  6550
Wire Wire Line
	900  6550 900  6300
$Comp
L Device:C C3
U 1 1 6081509F
P 1450 5450
F 0 "C3" H 1335 5404 50  0000 R CNN
F 1 "100n" H 1335 5495 50  0000 R CNN
F 2 "Capacitor_SMD:C_0805_2012Metric" H 1488 5300 50  0001 C CNN
F 3 "~" H 1450 5450 50  0001 C CNN
	1    1450 5450
	-1   0    0    1   
$EndComp
Wire Wire Line
	2000 6300 3850 6300
$Comp
L Device:R R1
U 1 1 6086507D
P 1200 5200
F 0 "R1" V 993 5200 50  0000 C CNN
F 1 "100" V 1084 5200 50  0000 C CNN
F 2 "Resistor_SMD:R_0805_2012Metric" V 1130 5200 50  0001 C CNN
F 3 "~" H 1200 5200 50  0001 C CNN
	1    1200 5200
	0    1    1    0   
$EndComp
$Comp
L power:VCC #PWR02
U 1 1 6086AB23
P 950 5100
F 0 "#PWR02" H 950 4950 50  0001 C CNN
F 1 "VCC" H 965 5273 50  0000 C CNN
F 2 "" H 950 5100 50  0001 C CNN
F 3 "" H 950 5100 50  0001 C CNN
	1    950  5100
	1    0    0    -1  
$EndComp
Wire Wire Line
	1050 5200 950  5200
Wire Wire Line
	950  5200 950  5100
$Comp
L power:GND #PWR07
U 1 1 6089DF73
P 1450 5700
F 0 "#PWR07" H 1450 5450 50  0001 C CNN
F 1 "GND" H 1455 5527 50  0000 C CNN
F 2 "" H 1450 5700 50  0001 C CNN
F 3 "" H 1450 5700 50  0001 C CNN
	1    1450 5700
	1    0    0    -1  
$EndComp
Wire Wire Line
	1450 5700 1450 5600
Wire Wire Line
	1350 5200 1450 5200
Wire Wire Line
	1450 5200 1450 5300
$Comp
L power:VCCQ #PWR06
U 1 1 608E80F3
P 1450 5100
F 0 "#PWR06" H 1450 4950 50  0001 C CNN
F 1 "VCCQ" H 1465 5273 50  0000 C CNN
F 2 "" H 1450 5100 50  0001 C CNN
F 3 "" H 1450 5100 50  0001 C CNN
	1    1450 5100
	1    0    0    -1  
$EndComp
Wire Wire Line
	1450 5100 1450 5200
Connection ~ 1450 5200
$Comp
L power:VCCQ #PWR013
U 1 1 60900699
P 3600 6100
F 0 "#PWR013" H 3600 5950 50  0001 C CNN
F 1 "VCCQ" V 3615 6227 50  0000 L CNN
F 2 "" H 3600 6100 50  0001 C CNN
F 3 "" H 3600 6100 50  0001 C CNN
	1    3600 6100
	0    -1   -1   0   
$EndComp
Wire Wire Line
	3600 6100 3850 6100
$Comp
L Device:C C4
U 1 1 60918F41
P 3050 6000
F 0 "C4" V 3302 6000 50  0000 C CNN
F 1 "100n" V 3211 6000 50  0000 C CNN
F 2 "Capacitor_SMD:C_0805_2012Metric" H 3088 5850 50  0001 C CNN
F 3 "~" H 3050 6000 50  0001 C CNN
	1    3050 6000
	0    -1   -1   0   
$EndComp
Wire Wire Line
	3200 6000 3850 6000
$Comp
L power:VCCQ #PWR010
U 1 1 60931FEF
P 2800 6000
F 0 "#PWR010" H 2800 5850 50  0001 C CNN
F 1 "VCCQ" V 2815 6127 50  0000 L CNN
F 2 "" H 2800 6000 50  0001 C CNN
F 3 "" H 2800 6000 50  0001 C CNN
	1    2800 6000
	0    -1   -1   0   
$EndComp
Wire Wire Line
	2900 6000 2800 6000
$Comp
L power:VCC #PWR09
U 1 1 6097B5A2
P 1950 9700
F 0 "#PWR09" H 1950 9550 50  0001 C CNN
F 1 "VCC" H 1965 9873 50  0000 C CNN
F 2 "" H 1950 9700 50  0001 C CNN
F 3 "" H 1950 9700 50  0001 C CNN
	1    1950 9700
	1    0    0    -1  
$EndComp
Wire Wire Line
	1950 9700 1950 9800
Wire Wire Line
	1850 10400 2250 10400
Wire Wire Line
	1850 10500 2150 10500
Wire Wire Line
	1850 10600 2050 10600
Wire Wire Line
	1850 10700 1950 10700
Wire Wire Line
	1950 10200 1950 10700
Connection ~ 1950 10700
Wire Wire Line
	1950 10700 2900 10700
Wire Wire Line
	2050 10200 2050 10600
Connection ~ 2050 10600
Wire Wire Line
	2050 10600 2900 10600
Wire Wire Line
	2150 10200 2150 10500
Connection ~ 2150 10500
Wire Wire Line
	2150 10500 2900 10500
Wire Wire Line
	2250 10200 2250 10400
Connection ~ 2250 10400
Wire Wire Line
	2250 10400 2900 10400
Wire Wire Line
	1850 10300 2350 10300
Wire Wire Line
	2350 10200 2350 10300
Connection ~ 2350 10300
Wire Wire Line
	2350 10300 2900 10300
Text Label 2900 10300 2    50   ~ 0
~BERR
Wire Wire Line
	3850 5600 3300 5600
Text Label 3300 5600 0    50   ~ 0
~BERR
$Comp
L Device:R_Network05 RN1
U 1 1 60B288A2
P 2150 10000
F 0 "RN1" H 2438 10046 50  0000 L CNN
F 1 "10k" H 2438 9955 50  0000 L CNN
F 2 "Resistor_THT:R_Array_SIP6" V 2525 10000 50  0001 C CNN
F 3 "http://www.vishay.com/docs/31509/csc.pdf" H 2150 10000 50  0001 C CNN
	1    2150 10000
	1    0    0    -1  
$EndComp
NoConn ~ 3850 5900
$Comp
L power:VCC #PWR012
U 1 1 60B4ECB4
P 3550 4400
F 0 "#PWR012" H 3550 4250 50  0001 C CNN
F 1 "VCC" V 3565 4527 50  0000 L CNN
F 2 "" H 3550 4400 50  0001 C CNN
F 3 "" H 3550 4400 50  0001 C CNN
	1    3550 4400
	0    -1   -1   0   
$EndComp
Wire Wire Line
	3550 4400 3850 4400
$Comp
L Device:R R4
U 1 1 60BC73F5
P 1950 8050
F 0 "R4" V 1743 8050 50  0000 C CNN
F 1 "1k" V 1834 8050 50  0000 C CNN
F 2 "Resistor_SMD:R_0805_2012Metric" V 1880 8050 50  0001 C CNN
F 3 "~" H 1950 8050 50  0001 C CNN
	1    1950 8050
	0    1    1    0   
$EndComp
Wire Wire Line
	1400 8050 1300 8050
Wire Wire Line
	1800 8050 1700 8050
Wire Wire Line
	2100 8050 2450 8050
Text Label 1100 8050 0    50   ~ 0
~RST
Text Label 2450 8050 2    50   ~ 0
D0
$Comp
L Diode:LL4148 D1
U 1 1 60C22567
P 1550 8050
F 0 "D1" H 1550 8267 50  0000 C CNN
F 1 "LL4148" H 1550 8176 50  0000 C CNN
F 2 "Diode_SMD:D_MiniMELF" H 1550 7875 50  0001 C CNN
F 3 "http://www.vishay.com/docs/85557/ll4148.pdf" H 1550 8050 50  0001 C CNN
	1    1550 8050
	1    0    0    -1  
$EndComp
Wire Wire Line
	13650 1650 13200 1650
Text Label 13200 1650 0    50   ~ 0
~CSBOOT
Wire Wire Line
	13650 1550 13200 1550
Wire Wire Line
	13650 1250 13200 1250
Wire Wire Line
	13650 1150 13200 1150
Text Label 13200 1250 0    50   ~ 0
~CS0
Text Label 13200 1550 0    50   ~ 0
~CS1
Text Label 13200 1150 0    50   ~ 0
MODCLK
Wire Wire Line
	3850 4700 3300 4700
Text Label 3300 4700 0    50   ~ 0
MODCLK
$Comp
L Device:R R5
U 1 1 60D5EE49
P 1950 8400
F 0 "R5" V 1743 8400 50  0000 C CNN
F 1 "1k" V 1834 8400 50  0000 C CNN
F 2 "Resistor_SMD:R_0805_2012Metric" V 1880 8400 50  0001 C CNN
F 3 "~" H 1950 8400 50  0001 C CNN
	1    1950 8400
	0    1    1    0   
$EndComp
Wire Wire Line
	1800 8400 1700 8400
Wire Wire Line
	2100 8400 2450 8400
Text Label 2450 8400 2    50   ~ 0
D8
$Comp
L Diode:LL4148 D2
U 1 1 60D5EE58
P 1550 8400
F 0 "D2" H 1550 8617 50  0000 C CNN
F 1 "LL4148" H 1550 8526 50  0000 C CNN
F 2 "Diode_SMD:D_MiniMELF" H 1550 8225 50  0001 C CNN
F 3 "http://www.vishay.com/docs/85557/ll4148.pdf" H 1550 8400 50  0001 C CNN
	1    1550 8400
	1    0    0    -1  
$EndComp
Wire Wire Line
	1400 8400 1300 8400
Wire Wire Line
	1300 8400 1300 8050
Connection ~ 1300 8050
Wire Wire Line
	1300 8050 1100 8050
$Comp
L Device:R R7
U 1 1 60DA7D3A
P 3050 6700
F 0 "R7" V 2843 6700 50  0000 C CNN
F 1 "1k" V 2934 6700 50  0000 C CNN
F 2 "Resistor_SMD:R_0805_2012Metric" V 2980 6700 50  0001 C CNN
F 3 "~" H 3050 6700 50  0001 C CNN
	1    3050 6700
	0    1    1    0   
$EndComp
$Comp
L power:VCC #PWR011
U 1 1 60DA8627
P 2800 6700
F 0 "#PWR011" H 2800 6550 50  0001 C CNN
F 1 "VCC" V 2815 6827 50  0000 L CNN
F 2 "" H 2800 6700 50  0001 C CNN
F 3 "" H 2800 6700 50  0001 C CNN
	1    2800 6700
	0    -1   -1   0   
$EndComp
Wire Wire Line
	2800 6700 2900 6700
Wire Wire Line
	3200 6700 3850 6700
Text Label 3300 6700 0    50   ~ 0
~TSC
$Comp
L Connector_Generic:Conn_02x10_Odd_Even J3
U 1 1 60E36256
P 1500 3200
F 0 "J3" H 1550 3725 50  0000 C CNN
F 1 "Conn_02x10_Odd_Even" H 1550 3726 50  0001 C CNN
F 2 "Connector_IDC:IDC-Header_2x10_P2.54mm_Vertical" H 1500 3200 50  0001 C CNN
F 3 "~" H 1500 3200 50  0001 C CNN
	1    1500 3200
	1    0    0    -1  
$EndComp
Wire Wire Line
	1300 2800 1000 2800
Text Label 1000 2800 0    50   ~ 0
TP0
Wire Wire Line
	1300 2900 1000 2900
Text Label 1000 2900 0    50   ~ 0
TP2
Wire Wire Line
	1300 3000 1000 3000
Text Label 1000 3000 0    50   ~ 0
TP4
Wire Wire Line
	1300 3100 1000 3100
Text Label 1000 3100 0    50   ~ 0
TP6
Wire Wire Line
	1300 3200 1000 3200
Text Label 1000 3200 0    50   ~ 0
TP8
Wire Wire Line
	1300 3300 1000 3300
Text Label 1000 3300 0    50   ~ 0
TP10
Wire Wire Line
	1300 3400 1000 3400
Text Label 1000 3400 0    50   ~ 0
TP12
Wire Wire Line
	1300 3500 1000 3500
Text Label 1000 3500 0    50   ~ 0
TP14
Wire Wire Line
	1800 2800 2100 2800
Text Label 2100 2800 2    50   ~ 0
TP1
Wire Wire Line
	1800 2900 2100 2900
Text Label 2100 2900 2    50   ~ 0
TP3
Wire Wire Line
	1800 3000 2100 3000
Text Label 2100 3000 2    50   ~ 0
TP5
Wire Wire Line
	1800 3100 2100 3100
Text Label 2100 3100 2    50   ~ 0
TP7
Wire Wire Line
	1800 3200 2100 3200
Text Label 2100 3200 2    50   ~ 0
TP9
Wire Wire Line
	1800 3300 2100 3300
Text Label 2100 3300 2    50   ~ 0
TP11
Wire Wire Line
	1800 3400 2100 3400
Text Label 2100 3400 2    50   ~ 0
TP13
Wire Wire Line
	1800 3500 2100 3500
Text Label 2100 3500 2    50   ~ 0
TP15
Wire Wire Line
	1300 3600 1200 3600
Wire Wire Line
	1200 3600 1200 3700
Wire Wire Line
	1300 3700 1200 3700
Connection ~ 1200 3700
Wire Wire Line
	1200 3700 1200 3850
$Comp
L power:VCC #PWR08
U 1 1 60F3109B
P 1900 3700
F 0 "#PWR08" H 1900 3550 50  0001 C CNN
F 1 "VCC" V 1915 3828 50  0000 L CNN
F 2 "" H 1900 3700 50  0001 C CNN
F 3 "" H 1900 3700 50  0001 C CNN
	1    1900 3700
	0    1    1    0   
$EndComp
Wire Wire Line
	1900 3700 1800 3700
$Comp
L power:GND #PWR04
U 1 1 60F574E9
P 1200 3850
F 0 "#PWR04" H 1200 3600 50  0001 C CNN
F 1 "GND" H 1205 3677 50  0000 C CNN
F 2 "" H 1200 3850 50  0001 C CNN
F 3 "" H 1200 3850 50  0001 C CNN
	1    1200 3850
	1    0    0    -1  
$EndComp
Wire Wire Line
	1800 3600 2100 3600
Text Label 2100 3600 2    50   ~ 0
T2CLK
Wire Wire Line
	3850 2700 3300 2700
Text Label 3300 2700 0    50   ~ 0
TP1
Wire Wire Line
	3850 2900 3300 2900
Text Label 3300 2900 0    50   ~ 0
TP3
Wire Wire Line
	3850 3100 3300 3100
Text Label 3300 3100 0    50   ~ 0
TP5
Wire Wire Line
	3850 3500 3300 3500
Text Label 3300 3500 0    50   ~ 0
TP9
Wire Wire Line
	3850 3700 3300 3700
Text Label 3300 3700 0    50   ~ 0
TP11
Wire Wire Line
	3850 3900 3300 3900
Text Label 3300 3900 0    50   ~ 0
TP13
Wire Wire Line
	3850 4100 3300 4100
Text Label 3300 4100 0    50   ~ 0
TP15
Wire Wire Line
	3850 4200 3300 4200
Text Label 3300 4200 0    50   ~ 0
T2CLK
Text Label 3300 3300 0    50   ~ 0
TP7
Wire Wire Line
	3850 3300 3300 3300
Wire Wire Line
	3850 2600 3300 2600
Text Label 3300 2600 0    50   ~ 0
TP0
Wire Wire Line
	3850 2800 3300 2800
Text Label 3300 2800 0    50   ~ 0
TP2
Wire Wire Line
	3850 3000 3300 3000
Text Label 3300 3000 0    50   ~ 0
TP4
Wire Wire Line
	3850 3200 3300 3200
Text Label 3300 3200 0    50   ~ 0
TP6
Wire Wire Line
	3850 3400 3300 3400
Text Label 3300 3400 0    50   ~ 0
TP8
Wire Wire Line
	3850 3600 3300 3600
Text Label 3300 3600 0    50   ~ 0
TP10
Wire Wire Line
	3850 3800 3300 3800
Text Label 3300 3800 0    50   ~ 0
TP12
Wire Wire Line
	3850 4000 3300 4000
Text Label 3300 4000 0    50   ~ 0
TP14
$Sheet
S 13750 2800 1100 650 
U 6131D3AD
F0 "Supply" 50
F1 "Supply.sch" 50
$EndSheet
Wire Wire Line
	3850 7600 3300 7600
Text Label 3300 7600 0    50   ~ 0
RS_disp
$Sheet
S 4600 10050 650  500 
U 607D8567
F0 "Serial" 50
F1 "Serial.sch" 50
F2 "TXD" I R 5250 10150 50 
F3 "RXD" O R 5250 10250 50 
F4 "RTS" I R 5250 10350 50 
F5 "CTS" O R 5250 10450 50 
$EndSheet
Wire Wire Line
	5250 10250 5700 10250
Wire Wire Line
	5250 10150 5700 10150
Wire Wire Line
	5250 10350 5700 10350
Wire Wire Line
	5250 10450 5700 10450
Wire Wire Line
	3850 7500 3300 7500
Wire Wire Line
	3850 7400 3300 7400
Text Label 3300 7400 0    50   ~ 0
CTS
Text Label 5700 10250 2    50   ~ 0
RXD
Text Label 5700 10150 2    50   ~ 0
TXD
Text Label 5700 10350 2    50   ~ 0
RTS
Text Label 5700 10450 2    50   ~ 0
CTS
$Comp
L power:VCC #PWR016
U 1 1 60959AC1
P 8350 9400
F 0 "#PWR016" H 8350 9250 50  0001 C CNN
F 1 "VCC" H 8365 9573 50  0000 C CNN
F 2 "" H 8350 9400 50  0001 C CNN
F 3 "" H 8350 9400 50  0001 C CNN
	1    8350 9400
	1    0    0    -1  
$EndComp
$Comp
L power:GND #PWR017
U 1 1 6095A15D
P 8350 10400
F 0 "#PWR017" H 8350 10150 50  0001 C CNN
F 1 "GND" H 8355 10227 50  0000 C CNN
F 2 "" H 8350 10400 50  0001 C CNN
F 3 "" H 8350 10400 50  0001 C CNN
	1    8350 10400
	1    0    0    -1  
$EndComp
Wire Wire Line
	8350 10400 8350 10300
Wire Wire Line
	8350 9700 8350 9400
Wire Wire Line
	8750 10000 8850 10000
Text Label 9250 10000 2    50   ~ 0
~RST
$Comp
L Device:R R8
U 1 1 60A5A050
P 8850 9650
F 0 "R8" H 8780 9604 50  0000 R CNN
F 1 "1k" H 8780 9695 50  0000 R CNN
F 2 "Resistor_SMD:R_0805_2012Metric" V 8780 9650 50  0001 C CNN
F 3 "~" H 8850 9650 50  0001 C CNN
	1    8850 9650
	-1   0    0    1   
$EndComp
$Comp
L power:VCC #PWR020
U 1 1 60A5B2FA
P 8850 9400
F 0 "#PWR020" H 8850 9250 50  0001 C CNN
F 1 "VCC" H 8865 9573 50  0000 C CNN
F 2 "" H 8850 9400 50  0001 C CNN
F 3 "" H 8850 9400 50  0001 C CNN
	1    8850 9400
	1    0    0    -1  
$EndComp
Wire Wire Line
	8850 9400 8850 9500
Connection ~ 8850 10000
Wire Wire Line
	8850 10000 9350 10000
NoConn ~ 6450 2600
NoConn ~ 6450 2700
NoConn ~ 6450 2800
NoConn ~ 6450 2900
NoConn ~ 6450 3100
NoConn ~ 6450 3200
NoConn ~ 6450 3300
NoConn ~ 6450 3400
$Comp
L Device:R R6
U 1 1 60DABD0E
P 1950 8750
F 0 "R6" V 1743 8750 50  0000 C CNN
F 1 "1k" V 1834 8750 50  0000 C CNN
F 2 "Resistor_SMD:R_0805_2012Metric" V 1880 8750 50  0001 C CNN
F 3 "~" H 1950 8750 50  0001 C CNN
	1    1950 8750
	0    1    1    0   
$EndComp
Wire Wire Line
	1800 8750 1700 8750
Wire Wire Line
	2100 8750 2450 8750
Text Label 2450 8750 2    50   ~ 0
D9
$Comp
L Diode:LL4148 D3
U 1 1 60DABFD3
P 1550 8750
F 0 "D3" H 1550 8967 50  0000 C CNN
F 1 "LL4148" H 1550 8876 50  0000 C CNN
F 2 "Diode_SMD:D_MiniMELF" H 1550 8575 50  0001 C CNN
F 3 "http://www.vishay.com/docs/85557/ll4148.pdf" H 1550 8750 50  0001 C CNN
	1    1550 8750
	1    0    0    -1  
$EndComp
Wire Wire Line
	1400 8750 1300 8750
Wire Wire Line
	1300 8750 1300 8400
Connection ~ 1300 8400
$Sheet
S 8250 6300 850  1200
U 60F870A1
F0 "HMI" 50
F1 "HMI.sch" 50
F2 "~CS_disp" I L 8250 6400 50 
F3 "RS_disp" I L 8250 6500 50 
F4 "~sw1" O R 9100 6700 50 
F5 "~sw2" O R 9100 6800 50 
F6 "~sw3" O R 9100 6900 50 
F7 "~sw4" O R 9100 7000 50 
F8 "~sw5" O R 9100 7100 50 
F9 "~IFETCH" I L 8250 7300 50 
F10 "led1" I L 8250 6700 50 
F11 "led2" I L 8250 6800 50 
F12 "led3" I L 8250 6900 50 
F13 "led4" I L 8250 7000 50 
F14 "led5" I L 8250 7100 50 
F15 "btn1" O R 9100 6400 50 
F16 "btn2" O R 9100 6500 50 
F17 "~err" I L 8250 7400 50 
$EndSheet
Text GLabel 3200 7800 0    50   Output ~ 0
SCK
Text GLabel 3200 7900 0    50   Output ~ 0
MOSI
Text GLabel 9350 10000 2    50   Output ~ 0
~RST
Wire Wire Line
	8250 6400 7750 6400
Wire Wire Line
	8250 6500 7750 6500
Text Label 7750 6500 0    50   ~ 0
RS_disp
Text Label 7750 6400 0    50   ~ 0
~CS_disp
NoConn ~ 3850 4900
Wire Wire Line
	6450 7700 7000 7700
Text Label 7000 7700 2    50   ~ 0
sw1
Wire Wire Line
	6450 7800 7000 7800
Text Label 7000 7800 2    50   ~ 0
sw2
Wire Wire Line
	6450 7900 7000 7900
Text Label 7000 7900 2    50   ~ 0
sw3
Wire Wire Line
	6450 8000 7000 8000
Text Label 7000 8000 2    50   ~ 0
sw4
Wire Wire Line
	6450 8100 7000 8100
Text Label 7000 8100 2    50   ~ 0
sw5
Wire Wire Line
	9100 6700 9600 6700
Wire Wire Line
	9100 6800 9600 6800
Text Label 9600 6700 2    50   ~ 0
sw1
Text Label 9600 6800 2    50   ~ 0
sw2
Wire Wire Line
	9100 6900 9600 6900
Wire Wire Line
	9100 7000 9600 7000
Text Label 9600 6900 2    50   ~ 0
sw3
Text Label 9600 7000 2    50   ~ 0
sw4
Wire Wire Line
	9100 7100 9600 7100
Text Label 9600 7100 2    50   ~ 0
sw5
$Comp
L Power_Supervisor:MIC811TUY U1
U 1 1 6151B203
P 8350 10000
F 0 "U1" H 8450 10300 50  0000 L CNN
F 1 "MIC6315-46D3UY" H 8450 9700 50  0000 L CNN
F 2 "Package_TO_SOT_SMD:SOT-143" H 8450 9700 50  0001 L CNN
F 3 "http://ww1.microchip.com/downloads/en/DeviceDoc/mic811.pdf" H 8000 9300 50  0001 C CNN
	1    8350 10000
	1    0    0    -1  
$EndComp
Wire Wire Line
	8850 9800 8850 10000
$Comp
L Switch:SW_MEC_5G SW2
U 1 1 6152EA54
P 7300 10000
F 0 "SW2" H 7300 10193 50  0000 C CNN
F 1 "SW_MEC_5G" H 7300 10194 50  0001 C CNN
F 2 "Button_Switch_THT:SW_TH_Tactile_Omron_B3F-10xx" H 7300 10200 50  0001 C CNN
F 3 "http://www.apem.com/int/index.php?controller=attachment&id_attachment=488" H 7300 10200 50  0001 C CNN
	1    7300 10000
	1    0    0    -1  
$EndComp
Wire Wire Line
	7950 10000 7500 10000
Wire Wire Line
	7100 10000 7000 10000
Wire Wire Line
	7000 10000 7000 10400
$Comp
L power:GND #PWR0101
U 1 1 6159996E
P 7000 10400
F 0 "#PWR0101" H 7000 10150 50  0001 C CNN
F 1 "GND" H 7005 10227 50  0000 C CNN
F 2 "" H 7000 10400 50  0001 C CNN
F 3 "" H 7000 10400 50  0001 C CNN
	1    7000 10400
	1    0    0    -1  
$EndComp
Wire Wire Line
	3300 5700 3850 5700
Text Label 3300 5700 0    50   ~ 0
~HALT
Wire Wire Line
	13650 1050 13200 1050
Text Label 13200 1050 0    50   ~ 0
~HALT
$Comp
L power:PWR_FLAG #FLG0103
U 1 1 6165B895
P 1800 5100
F 0 "#FLG0103" H 1800 5175 50  0001 C CNN
F 1 "PWR_FLAG" H 1800 5273 50  0000 C CNN
F 2 "" H 1800 5100 50  0001 C CNN
F 3 "~" H 1800 5100 50  0001 C CNN
	1    1800 5100
	1    0    0    -1  
$EndComp
Wire Wire Line
	1450 5200 1800 5200
Wire Wire Line
	1800 5200 1800 5100
$Comp
L 74xx:74HC04 U3
U 1 1 61A73606
P 8900 1650
F 0 "U3" H 8900 1967 50  0000 C CNN
F 1 "74HC04" H 8900 1876 50  0000 C CNN
F 2 "" H 8900 1650 50  0001 C CNN
F 3 "https://assets.nexperia.com/documents/data-sheet/74HC_HCT04.pdf" H 8900 1650 50  0001 C CNN
	1    8900 1650
	1    0    0    -1  
$EndComp
Wire Wire Line
	9200 1650 9700 1650
Text Label 3300 7800 0    50   ~ 0
SCK
Wire Wire Line
	3200 7800 3850 7800
Text Label 3300 7900 0    50   ~ 0
MOSI
Text Label 3300 8000 0    50   ~ 0
MISO
Wire Wire Line
	8250 7300 7750 7300
Wire Wire Line
	8250 7400 7750 7400
Text Label 7750 7300 0    50   ~ 0
~IFETCH~_DSI
Text Label 3300 6900 0    50   ~ 0
~IFETCH~_DSI
Text Label 2900 10600 2    50   ~ 0
~IFETCH~_DSI
$Comp
L Device:R_Network05_Split RN2
U 5 1 620559E3
P 13800 1250
F 0 "RN2" V 13800 1550 50  0000 C CNN
F 1 "10k" V 13900 1250 50  0000 C CNN
F 2 "Resistor_THT:R_Array_SIP6" V 14175 1250 50  0001 C CNN
F 3 "http://www.vishay.com/docs/31509/csc.pdf" H 13800 1250 50  0001 C CNN
	5    13800 1250
	0    1    1    0   
$EndComp
$Comp
L Device:R_Network05_Split RN2
U 4 1 62060AE7
P 13800 1150
F 0 "RN2" V 13800 1350 50  0000 L CNN
F 1 "10k" V 13859 1328 50  0001 L CNN
F 2 "Resistor_THT:R_Array_SIP6" V 14175 1150 50  0001 C CNN
F 3 "http://www.vishay.com/docs/31509/csc.pdf" H 13800 1150 50  0001 C CNN
	4    13800 1150
	0    1    1    0   
$EndComp
$Comp
L Device:R_Network05_Split RN2
U 3 1 620CF7AD
P 13800 1050
F 0 "RN2" V 13800 1250 50  0000 L CNN
F 1 "10k" V 13859 1228 50  0001 L CNN
F 2 "Resistor_THT:R_Array_SIP6" V 14175 1050 50  0001 C CNN
F 3 "http://www.vishay.com/docs/31509/csc.pdf" H 13800 1050 50  0001 C CNN
	3    13800 1050
	0    1    1    0   
$EndComp
$Comp
L Device:R_Network05_Split RN4
U 4 1 6215E6D2
P 13800 1550
F 0 "RN4" V 13800 1850 50  0000 C CNN
F 1 "10k" V 13684 1550 50  0001 C CNN
F 2 "Resistor_THT:R_Array_SIP6" V 14175 1550 50  0001 C CNN
F 3 "http://www.vishay.com/docs/31509/csc.pdf" H 13800 1550 50  0001 C CNN
	4    13800 1550
	0    1    1    0   
$EndComp
$Comp
L Device:R_Network05_Split RN4
U 5 1 621C9257
P 13800 1650
F 0 "RN4" V 13800 1950 50  0000 C CNN
F 1 "10k" V 13900 1650 50  0000 C CNN
F 2 "Resistor_THT:R_Array_SIP6" V 14175 1650 50  0001 C CNN
F 3 "http://www.vishay.com/docs/31509/csc.pdf" H 13800 1650 50  0001 C CNN
	5    13800 1650
	0    1    1    0   
$EndComp
Text Label 7600 10000 0    50   ~ 0
~rst_sw
Wire Wire Line
	3850 5000 3300 5000
Text Label 3300 5000 0    50   ~ 0
led1
Wire Wire Line
	3850 5100 3300 5100
Wire Wire Line
	3850 5200 3300 5200
Text Label 3300 5200 0    50   ~ 0
led3
Wire Wire Line
	3850 5300 3300 5300
Text Label 3300 5300 0    50   ~ 0
led4
Wire Wire Line
	3850 5400 3300 5400
Text Label 3300 5400 0    50   ~ 0
led5
Text Label 3300 5100 0    50   ~ 0
led2
Text Label 7750 7100 0    50   ~ 0
led5
Wire Wire Line
	8250 7100 7750 7100
Text Label 7750 7000 0    50   ~ 0
led4
Text Label 7750 6900 0    50   ~ 0
led3
Wire Wire Line
	8250 7000 7750 7000
Wire Wire Line
	8250 6900 7750 6900
Text Label 7750 6800 0    50   ~ 0
led2
Text Label 7750 6700 0    50   ~ 0
led1
Wire Wire Line
	8250 6800 7750 6800
Wire Wire Line
	8250 6700 7750 6700
Wire Wire Line
	9100 6400 9600 6400
Wire Wire Line
	9100 6500 9600 6500
Text Label 9600 6400 2    50   ~ 0
btn1
Text Label 9600 6500 2    50   ~ 0
btn2
Wire Wire Line
	6450 8300 7000 8300
Wire Wire Line
	6450 8400 7000 8400
Text Label 7000 8300 2    50   ~ 0
btn1
Text Label 7000 8400 2    50   ~ 0
btn2
Text Label 3300 6300 0    50   ~ 0
EXTAL
Text Label 3300 6400 0    50   ~ 0
XTAL
$Comp
L CPU_NXP_68000:MC68332 U2
U 1 1 6030F383
P 5150 5500
F 0 "U2" H 5850 8900 50  0000 C CNN
F 1 "MC68332GCEH20" H 6250 2100 50  0000 C CNN
F 2 "IC_Fixed:PQFP-132_24x24mm_P0.635mm_ofs" H 5150 1600 50  0001 C CNN
F 3 "http://pdf.datasheetcatalog.com/datasheet/motorola/SPAKMC332AVFC20.pdf" H 7250 7800 50  0001 C CNN
	1    5150 5500
	1    0    0    -1  
$EndComp
Text Label 3300 7500 0    50   ~ 0
RTS
NoConn ~ 6450 8200
Wire Wire Line
	3850 8000 3300 8000
NoConn ~ 3300 8000
Wire Wire Line
	11950 3300 12500 3300
Text Label 12500 3300 2    50   ~ 0
D15
Wire Wire Line
	11950 3200 12500 3200
Text Label 12500 3200 2    50   ~ 0
D14
Wire Wire Line
	11950 3100 12500 3100
Text Label 12500 3100 2    50   ~ 0
D13
Wire Wire Line
	11950 3000 12500 3000
Text Label 12500 3000 2    50   ~ 0
D12
Wire Wire Line
	11950 2900 12500 2900
Text Label 12500 2900 2    50   ~ 0
D11
Wire Wire Line
	11950 2800 12500 2800
Text Label 12500 2800 2    50   ~ 0
D10
Wire Wire Line
	11950 2700 12500 2700
Text Label 12500 2700 2    50   ~ 0
D9
Wire Wire Line
	11950 2600 12500 2600
Text Label 12500 2600 2    50   ~ 0
D8
Wire Wire Line
	3850 4800 3300 4800
Text Label 3300 4800 0    50   ~ 0
~err
Text Label 7750 7400 0    50   ~ 0
~err
$EndSCHEMATC
