EESchema Schematic File Version 4
EELAYER 30 0
EELAYER END
$Descr A4 11693 8268
encoding utf-8
Sheet 4 4
Title ""
Date ""
Rev ""
Comp ""
Comment1 ""
Comment2 ""
Comment3 ""
Comment4 ""
$EndDescr
$Comp
L power:VCC #PWR?
U 1 1 60FFE3F8
P 9200 1200
AR Path="/60FFE3F8" Ref="#PWR?"  Part="1" 
AR Path="/60F870A1/60FFE3F8" Ref="#PWR022"  Part="1" 
F 0 "#PWR022" H 9200 1050 50  0001 C CNN
F 1 "VCC" H 9215 1373 50  0000 C CNN
F 2 "" H 9200 1200 50  0001 C CNN
F 3 "" H 9200 1200 50  0001 C CNN
	1    9200 1200
	1    0    0    -1  
$EndComp
Wire Wire Line
	9300 1400 9200 1400
Wire Wire Line
	9200 1400 9200 1200
Wire Wire Line
	9300 1500 9200 1500
Wire Wire Line
	9200 1500 9200 1400
Connection ~ 9200 1400
Wire Wire Line
	9300 1700 8600 1700
Wire Wire Line
	9300 1900 8750 1900
Wire Wire Line
	9300 2100 8600 2100
Wire Wire Line
	9300 2200 8600 2200
$Comp
L power:GND #PWR?
U 1 1 60FFE40A
P 9200 2500
AR Path="/60FFE40A" Ref="#PWR?"  Part="1" 
AR Path="/60F870A1/60FFE40A" Ref="#PWR023"  Part="1" 
F 0 "#PWR023" H 9200 2250 50  0001 C CNN
F 1 "GND" H 9205 2327 50  0000 C CNN
F 2 "" H 9200 2500 50  0001 C CNN
F 3 "" H 9200 2500 50  0001 C CNN
	1    9200 2500
	1    0    0    -1  
$EndComp
$Comp
L power:GND #PWR?
U 1 1 60FFE410
P 10400 2500
AR Path="/60FFE410" Ref="#PWR?"  Part="1" 
AR Path="/60F870A1/60FFE410" Ref="#PWR025"  Part="1" 
F 0 "#PWR025" H 10400 2250 50  0001 C CNN
F 1 "GND" H 10405 2327 50  0000 C CNN
F 2 "" H 10400 2500 50  0001 C CNN
F 3 "" H 10400 2500 50  0001 C CNN
	1    10400 2500
	1    0    0    -1  
$EndComp
Wire Wire Line
	10300 2400 10400 2400
Wire Wire Line
	10400 2400 10400 2500
Wire Wire Line
	9300 2400 9200 2400
Wire Wire Line
	9200 2400 9200 2500
$Comp
L power:VCC #PWR?
U 1 1 60FFE41A
P 10400 2200
AR Path="/60FFE41A" Ref="#PWR?"  Part="1" 
AR Path="/60F870A1/60FFE41A" Ref="#PWR024"  Part="1" 
F 0 "#PWR024" H 10400 2050 50  0001 C CNN
F 1 "VCC" V 10415 2328 50  0000 L CNN
F 2 "" H 10400 2200 50  0001 C CNN
F 3 "" H 10400 2200 50  0001 C CNN
	1    10400 2200
	0    1    1    0   
$EndComp
Wire Wire Line
	10400 2200 10300 2200
NoConn ~ 10300 2100
NoConn ~ 10300 1400
$Comp
L HCMS:HCMS-2965 DS?
U 1 1 60FFE423
P 9200 1400
AR Path="/60FFE423" Ref="DS?"  Part="1" 
AR Path="/60F870A1/60FFE423" Ref="DS1"  Part="1" 
F 0 "DS1" H 9800 1665 50  0000 C CNN
F 1 "HCMS-2965" H 9800 1574 50  0000 C CNN
F 2 "HCMS:Broadcom-HCMS-2965-0-0-0" H 9200 1800 50  0001 L CNN
F 3 "https://docs.broadcom.com/docs/AV02-0699EN" H 9200 1900 50  0001 L CNN
	1    9200 1400
	1    0    0    -1  
$EndComp
Wire Wire Line
	8750 1600 8750 1900
Connection ~ 8750 1900
Wire Wire Line
	8750 1900 8600 1900
$Comp
L power:VCC #PWR?
U 1 1 60FFE432
P 1900 1300
AR Path="/60FFE432" Ref="#PWR?"  Part="1" 
AR Path="/60F870A1/60FFE432" Ref="#PWR021"  Part="1" 
F 0 "#PWR021" H 1900 1150 50  0001 C CNN
F 1 "VCC" H 1915 1473 50  0000 C CNN
F 2 "" H 1900 1300 50  0001 C CNN
F 3 "" H 1900 1300 50  0001 C CNN
	1    1900 1300
	1    0    0    -1  
$EndComp
Wire Wire Line
	1900 1300 1900 1400
Text GLabel 8600 2100 0    50   Input ~ 0
MOSI
Text GLabel 8600 2200 0    50   Input ~ 0
SCK
Text GLabel 8600 1700 0    50   Input ~ 0
~RST
Text HLabel 8600 1900 0    50   Input ~ 0
~CS_disp
Text HLabel 8600 2000 0    50   Input ~ 0
RS_disp
$Comp
L power:VCC #PWR?
U 1 1 61181AF0
P 9150 4150
AR Path="/61181AF0" Ref="#PWR?"  Part="1" 
AR Path="/60F870A1/61181AF0" Ref="#PWR044"  Part="1" 
F 0 "#PWR044" H 9150 4000 50  0001 C CNN
F 1 "VCC" H 9165 4323 50  0000 C CNN
F 2 "" H 9150 4150 50  0001 C CNN
F 3 "" H 9150 4150 50  0001 C CNN
	1    9150 4150
	1    0    0    -1  
$EndComp
Wire Wire Line
	9150 4150 9150 4250
$Comp
L Device:R_Network05 RN?
U 1 1 61181AF7
P 9350 4450
AR Path="/61181AF7" Ref="RN?"  Part="1" 
AR Path="/60F870A1/61181AF7" Ref="RN3"  Part="1" 
F 0 "RN3" H 9638 4496 50  0000 L CNN
F 1 "10k" H 9638 4405 50  0000 L CNN
F 2 "Resistor_THT:R_Array_SIP6" V 9725 4450 50  0001 C CNN
F 3 "http://www.vishay.com/docs/31509/csc.pdf" H 9350 4450 50  0001 C CNN
	1    9350 4450
	1    0    0    -1  
$EndComp
Wire Wire Line
	9050 4750 9150 4750
Wire Wire Line
	9150 4750 9150 4650
Wire Wire Line
	9050 4850 9250 4850
Wire Wire Line
	9250 4850 9250 4650
Wire Wire Line
	9050 4950 9350 4950
Wire Wire Line
	9350 4950 9350 4650
Wire Wire Line
	9050 5050 9450 5050
Wire Wire Line
	9450 5050 9450 4650
Wire Wire Line
	8450 4750 8350 4750
Wire Wire Line
	8350 4750 8350 4850
Wire Wire Line
	8450 5050 8350 5050
Connection ~ 8350 5050
Wire Wire Line
	8350 5050 8350 5150
Wire Wire Line
	8450 4950 8350 4950
Connection ~ 8350 4950
Wire Wire Line
	8350 4950 8350 5050
Wire Wire Line
	8350 4850 8450 4850
Connection ~ 8350 4850
Wire Wire Line
	8350 4850 8350 4950
$Comp
L power:GND #PWR?
U 1 1 6118520F
P 8350 5350
AR Path="/6118520F" Ref="#PWR?"  Part="1" 
AR Path="/60F870A1/6118520F" Ref="#PWR043"  Part="1" 
F 0 "#PWR043" H 8350 5100 50  0001 C CNN
F 1 "GND" H 8355 5177 50  0000 C CNN
F 2 "" H 8350 5350 50  0001 C CNN
F 3 "" H 8350 5350 50  0001 C CNN
	1    8350 5350
	1    0    0    -1  
$EndComp
Wire Wire Line
	8450 5150 8350 5150
Connection ~ 8350 5150
Wire Wire Line
	8350 5150 8350 5350
Wire Wire Line
	9550 5150 9550 4650
Wire Wire Line
	9150 4750 9950 4750
Connection ~ 9150 4750
Wire Wire Line
	9250 4850 9950 4850
Connection ~ 9250 4850
Wire Wire Line
	9350 4950 9950 4950
Connection ~ 9350 4950
Wire Wire Line
	9450 5050 9950 5050
Connection ~ 9450 5050
Wire Wire Line
	9050 5150 9550 5150
Connection ~ 9550 5150
Wire Wire Line
	9550 5150 9950 5150
Text HLabel 9950 5150 2    50   Output ~ 0
~sw1
Text HLabel 9950 5050 2    50   Output ~ 0
~sw2
Text HLabel 9950 4950 2    50   Output ~ 0
~sw3
Text HLabel 9950 4850 2    50   Output ~ 0
~sw4
Text HLabel 9950 4750 2    50   Output ~ 0
~sw5
$Comp
L Switch:SW_DIP_x05 SW1
U 1 1 61186116
P 8750 4950
F 0 "SW1" H 8750 5325 50  0000 C CNN
F 1 "SW_DIP_x05" H 8750 5326 50  0001 C CNN
F 2 "Button_Switch_THT:SW_DIP_SPSTx05_Slide_9.78x14.88mm_W7.62mm_P2.54mm" H 8750 4950 50  0001 C CNN
F 3 "~" H 8750 4950 50  0001 C CNN
	1    8750 4950
	1    0    0    -1  
$EndComp
$Comp
L 74xx:74HC04 U?
U 2 1 61A7AD28
P 5600 1400
AR Path="/61A7AD28" Ref="U?"  Part="1" 
AR Path="/60F870A1/61A7AD28" Ref="U3"  Part="2" 
F 0 "U3" H 5600 1717 50  0000 C CNN
F 1 "74HC04" H 5600 1626 50  0000 C CNN
F 2 "Package_SO:SO-14_3.9x8.65mm_P1.27mm" H 5600 1400 50  0001 C CNN
F 3 "https://assets.nexperia.com/documents/data-sheet/74HC_HCT04.pdf" H 5600 1400 50  0001 C CNN
	2    5600 1400
	1    0    0    -1  
$EndComp
$Comp
L 74xx:74HC04 U?
U 3 1 61A7B972
P 5600 1950
AR Path="/61A7B972" Ref="U?"  Part="1" 
AR Path="/60F870A1/61A7B972" Ref="U3"  Part="3" 
F 0 "U3" H 5600 2267 50  0000 C CNN
F 1 "74HC04" H 5600 2176 50  0000 C CNN
F 2 "Package_SO:SO-14_3.9x8.65mm_P1.27mm" H 5600 1950 50  0001 C CNN
F 3 "https://assets.nexperia.com/documents/data-sheet/74HC_HCT04.pdf" H 5600 1950 50  0001 C CNN
	3    5600 1950
	1    0    0    -1  
$EndComp
$Comp
L 74xx:74HC04 U?
U 6 1 61A7C1BF
P 5600 2500
AR Path="/61A7C1BF" Ref="U?"  Part="1" 
AR Path="/60F870A1/61A7C1BF" Ref="U3"  Part="6" 
F 0 "U3" H 5600 2817 50  0000 C CNN
F 1 "74HC04" H 5600 2726 50  0000 C CNN
F 2 "Package_SO:SO-14_3.9x8.65mm_P1.27mm" H 5600 2500 50  0001 C CNN
F 3 "https://assets.nexperia.com/documents/data-sheet/74HC_HCT04.pdf" H 5600 2500 50  0001 C CNN
	6    5600 2500
	1    0    0    -1  
$EndComp
$Comp
L 74xx:74HC04 U?
U 5 1 61A7EFE6
P 5600 3050
AR Path="/61A7EFE6" Ref="U?"  Part="1" 
AR Path="/60F870A1/61A7EFE6" Ref="U3"  Part="5" 
F 0 "U3" H 5600 3367 50  0000 C CNN
F 1 "74HC04" H 5600 3276 50  0000 C CNN
F 2 "Package_SO:SO-14_3.9x8.65mm_P1.27mm" H 5600 3050 50  0001 C CNN
F 3 "https://assets.nexperia.com/documents/data-sheet/74HC_HCT04.pdf" H 5600 3050 50  0001 C CNN
	5    5600 3050
	1    0    0    -1  
$EndComp
$Comp
L 74xx:74HC04 U?
U 4 1 61A7EFF0
P 5600 3600
AR Path="/61A7EFF0" Ref="U?"  Part="1" 
AR Path="/60F870A1/61A7EFF0" Ref="U3"  Part="4" 
F 0 "U3" H 5600 3917 50  0000 C CNN
F 1 "74HC04" H 5600 3826 50  0000 C CNN
F 2 "Package_SO:SO-14_3.9x8.65mm_P1.27mm" H 5600 3600 50  0001 C CNN
F 3 "https://assets.nexperia.com/documents/data-sheet/74HC_HCT04.pdf" H 5600 3600 50  0001 C CNN
	4    5600 3600
	1    0    0    -1  
$EndComp
$Comp
L Switch:SW_MEC_5G SW?
U 1 1 61B120E1
P 2850 6450
AR Path="/61B120E1" Ref="SW?"  Part="1" 
AR Path="/60F870A1/61B120E1" Ref="SW3"  Part="1" 
F 0 "SW3" H 2850 6643 50  0000 C CNN
F 1 "SW_MEC_5G" H 2850 6644 50  0001 C CNN
F 2 "Button_Switch_THT:SW_TH_Tactile_Omron_B3F-10xx" H 2850 6650 50  0001 C CNN
F 3 "http://www.apem.com/int/index.php?controller=attachment&id_attachment=488" H 2850 6650 50  0001 C CNN
	1    2850 6450
	1    0    0    -1  
$EndComp
Wire Wire Line
	2650 6450 2550 6450
Wire Wire Line
	2550 6450 2550 6750
$Comp
L power:GND #PWR?
U 1 1 61B120E9
P 2550 7250
AR Path="/61B120E9" Ref="#PWR?"  Part="1" 
AR Path="/60F870A1/61B120E9" Ref="#PWR045"  Part="1" 
F 0 "#PWR045" H 2550 7000 50  0001 C CNN
F 1 "GND" H 2555 7077 50  0000 C CNN
F 2 "" H 2550 7250 50  0001 C CNN
F 3 "" H 2550 7250 50  0001 C CNN
	1    2550 7250
	1    0    0    -1  
$EndComp
$Comp
L Switch:SW_MEC_5G SW?
U 1 1 61B171DD
P 2850 6750
AR Path="/61B171DD" Ref="SW?"  Part="1" 
AR Path="/60F870A1/61B171DD" Ref="SW4"  Part="1" 
F 0 "SW4" H 2850 6943 50  0000 C CNN
F 1 "SW_MEC_5G" H 2850 6944 50  0001 C CNN
F 2 "Button_Switch_THT:SW_TH_Tactile_Omron_B3F-10xx" H 2850 6950 50  0001 C CNN
F 3 "http://www.apem.com/int/index.php?controller=attachment&id_attachment=488" H 2850 6950 50  0001 C CNN
	1    2850 6750
	1    0    0    -1  
$EndComp
Wire Wire Line
	2650 6750 2550 6750
Connection ~ 2550 6750
Wire Wire Line
	2550 6750 2550 7250
Wire Wire Line
	3050 6450 3150 6450
Wire Wire Line
	3050 6750 3600 6750
Wire Wire Line
	3150 6350 3150 6450
Connection ~ 3150 6450
Wire Wire Line
	3150 6450 4000 6450
Wire Wire Line
	3600 6350 3600 6750
Connection ~ 3600 6750
Wire Wire Line
	3600 6750 4000 6750
$Comp
L Device:R_Network05_Split RN2
U 2 1 61B329FD
P 1900 3900
F 0 "RN2" H 1998 3938 50  0000 L CNN
F 1 "10k" H 1998 3847 50  0000 L CNN
F 2 "Resistor_THT:R_Array_SIP6" V 1820 3900 50  0001 C CNN
F 3 "http://www.vishay.com/docs/31509/csc.pdf" H 1900 3900 50  0001 C CNN
	2    1900 3900
	1    0    0    -1  
$EndComp
Wire Wire Line
	8600 2000 9300 2000
$Comp
L Device:R_Network05_Split RN4
U 3 1 61D58A2A
P 8750 1450
AR Path="/60F870A1/61D58A2A" Ref="RN4"  Part="3" 
AR Path="/61D58A2A" Ref="RN?"  Part="4" 
F 0 "RN4" H 8848 1488 50  0000 L CNN
F 1 "10k" H 8848 1397 50  0000 L CNN
F 2 "Resistor_THT:R_Array_SIP6" V 8670 1450 50  0001 C CNN
F 3 "http://www.vishay.com/docs/31509/csc.pdf" H 8750 1450 50  0001 C CNN
	3    8750 1450
	1    0    0    -1  
$EndComp
$Comp
L 74xx:74HC123 U9
U 1 1 61D5CF96
P 2500 4750
F 0 "U9" H 2500 5217 50  0000 C CNN
F 1 "74HC423" H 2500 5126 50  0000 C CNN
F 2 "Package_SO:SO-16_3.9x9.9mm_P1.27mm" H 2500 4750 50  0001 C CNN
F 3 "https://assets.nexperia.com/documents/data-sheet/74HC_HCT123.pdf" H 2500 4750 50  0001 C CNN
	1    2500 4750
	1    0    0    -1  
$EndComp
Wire Wire Line
	2500 3000 2500 3100
$Comp
L Device:R_Network05_Split RN4
U 2 1 61D58A30
P 3600 6200
AR Path="/60F870A1/61D58A30" Ref="RN4"  Part="2" 
AR Path="/61D58A30" Ref="RN?"  Part="5" 
F 0 "RN4" H 3698 6238 50  0000 L CNN
F 1 "10k" H 3698 6147 50  0000 L CNN
F 2 "Resistor_THT:R_Array_SIP6" V 3520 6200 50  0001 C CNN
F 3 "http://www.vishay.com/docs/31509/csc.pdf" H 3600 6200 50  0001 C CNN
	2    3600 6200
	1    0    0    -1  
$EndComp
$Comp
L Device:R_Network05_Split RN4
U 1 1 61B2940E
P 3150 6200
F 0 "RN4" H 3238 6246 50  0000 L CNN
F 1 "10k" H 3238 6155 50  0000 L CNN
F 2 "Resistor_THT:R_Array_SIP6" V 3070 6200 50  0001 C CNN
F 3 "http://www.vishay.com/docs/31509/csc.pdf" H 3150 6200 50  0001 C CNN
	1    3150 6200
	1    0    0    -1  
$EndComp
Wire Wire Line
	2000 4550 1900 4550
Wire Wire Line
	1900 4550 1900 4150
$Comp
L Device:CP C?
U 1 1 61DFD17E
P 1450 2050
AR Path="/6131D3AD/61DFD17E" Ref="C?"  Part="1" 
AR Path="/60F870A1/61DFD17E" Ref="C28"  Part="1" 
F 0 "C28" H 1568 2096 50  0000 L CNN
F 1 "10u" H 1568 2005 50  0000 L CNN
F 2 "Capacitor_Tantalum_SMD:CP_EIA-7343-31_Kemet-D" H 1488 1900 50  0001 C CNN
F 3 "~" H 1450 2050 50  0001 C CNN
	1    1450 2050
	1    0    0    -1  
$EndComp
$Comp
L Diode:LL4148 D?
U 1 1 61E04603
P 1450 1550
AR Path="/61E04603" Ref="D?"  Part="1" 
AR Path="/60F870A1/61E04603" Ref="D12"  Part="1" 
F 0 "D12" H 1450 1767 50  0000 C CNN
F 1 "LL4148" H 1450 1676 50  0000 C CNN
F 2 "Diode_SMD:D_MiniMELF" H 1450 1375 50  0001 C CNN
F 3 "http://www.vishay.com/docs/85557/ll4148.pdf" H 1450 1550 50  0001 C CNN
	1    1450 1550
	0    1    1    0   
$EndComp
$Comp
L power:GND #PWR?
U 1 1 61E0A1E5
P 1400 4650
AR Path="/6131D3AD/61E0A1E5" Ref="#PWR?"  Part="1" 
AR Path="/60F870A1/61E0A1E5" Ref="#PWR046"  Part="1" 
F 0 "#PWR046" H 1400 4400 50  0001 C CNN
F 1 "GND" V 1405 4522 50  0000 R CNN
F 2 "" H 1400 4650 50  0001 C CNN
F 3 "" H 1400 4650 50  0001 C CNN
	1    1400 4650
	0    1    1    0   
$EndComp
$Comp
L Device:C C?
U 1 1 61E19A03
P 1500 4400
AR Path="/6131D3AD/61E19A03" Ref="C?"  Part="1" 
AR Path="/60F870A1/61E19A03" Ref="C27"  Part="1" 
F 0 "C27" H 1615 4446 50  0000 L CNN
F 1 "100n" H 1615 4355 50  0000 L CNN
F 2 "Capacitor_SMD:C_0805_2012Metric" H 1538 4250 50  0001 C CNN
F 3 "~" H 1500 4400 50  0001 C CNN
	1    1500 4400
	1    0    0    -1  
$EndComp
Wire Wire Line
	1500 4250 1500 4150
Wire Wire Line
	1500 4150 1900 4150
Connection ~ 1900 4150
Wire Wire Line
	1900 4150 1900 4050
Wire Wire Line
	1400 4650 1500 4650
Wire Wire Line
	1500 4550 1500 4650
Connection ~ 1500 4650
Wire Wire Line
	1500 4650 2000 4650
Wire Wire Line
	2500 5350 2500 5250
$Comp
L 74xx:74HC123 U9
U 2 1 61D5DCDF
P 2500 2500
F 0 "U9" H 2500 2967 50  0000 C CNN
F 1 "74HC423" H 2500 2876 50  0000 C CNN
F 2 "Package_SO:SO-16_3.9x9.9mm_P1.27mm" H 2500 2500 50  0001 C CNN
F 3 "https://assets.nexperia.com/documents/data-sheet/74HC_HCT123.pdf" H 2500 2500 50  0001 C CNN
	2    2500 2500
	1    0    0    -1  
$EndComp
Wire Wire Line
	2000 2400 1900 2400
Wire Wire Line
	1900 2400 1900 1800
Wire Wire Line
	2000 2300 1450 2300
$Comp
L power:GND #PWR?
U 1 1 61E0CFD3
P 1300 2300
AR Path="/6131D3AD/61E0CFD3" Ref="#PWR?"  Part="1" 
AR Path="/60F870A1/61E0CFD3" Ref="#PWR047"  Part="1" 
F 0 "#PWR047" H 1300 2050 50  0001 C CNN
F 1 "GND" V 1305 2172 50  0000 R CNN
F 2 "" H 1300 2300 50  0001 C CNN
F 3 "" H 1300 2300 50  0001 C CNN
	1    1300 2300
	0    1    1    0   
$EndComp
Wire Wire Line
	1450 1900 1450 1800
Wire Wire Line
	1450 1800 1900 1800
Connection ~ 1900 1800
Wire Wire Line
	1900 1800 1900 1700
$Comp
L power:VCC #PWR?
U 1 1 61E7622E
P 1450 1300
AR Path="/61E7622E" Ref="#PWR?"  Part="1" 
AR Path="/60F870A1/61E7622E" Ref="#PWR048"  Part="1" 
F 0 "#PWR048" H 1450 1150 50  0001 C CNN
F 1 "VCC" H 1465 1473 50  0000 C CNN
F 2 "" H 1450 1300 50  0001 C CNN
F 3 "" H 1450 1300 50  0001 C CNN
	1    1450 1300
	1    0    0    -1  
$EndComp
Wire Wire Line
	1450 1300 1450 1400
Wire Wire Line
	1450 1700 1450 1800
Connection ~ 1450 1800
Wire Wire Line
	1450 2300 1450 2200
Connection ~ 1450 2300
Wire Wire Line
	1450 2300 1300 2300
Wire Wire Line
	2000 4850 1100 4850
Text HLabel 1100 4850 0    50   Input ~ 0
~IFETCH
Text HLabel 1100 2600 0    50   Input ~ 0
~err
Wire Wire Line
	2000 2600 1100 2600
$Comp
L power:VCC #PWR?
U 1 1 61F30DC4
P 1900 4950
AR Path="/61F30DC4" Ref="#PWR?"  Part="1" 
AR Path="/60F870A1/61F30DC4" Ref="#PWR049"  Part="1" 
F 0 "#PWR049" H 1900 4800 50  0001 C CNN
F 1 "VCC" V 1915 5077 50  0000 L CNN
F 2 "" H 1900 4950 50  0001 C CNN
F 3 "" H 1900 4950 50  0001 C CNN
	1    1900 4950
	0    -1   -1   0   
$EndComp
Wire Wire Line
	1900 4950 2000 4950
$Comp
L power:VCC #PWR?
U 1 1 61F341EB
P 1900 2700
AR Path="/61F341EB" Ref="#PWR?"  Part="1" 
AR Path="/60F870A1/61F341EB" Ref="#PWR050"  Part="1" 
F 0 "#PWR050" H 1900 2550 50  0001 C CNN
F 1 "VCC" V 1915 2827 50  0000 L CNN
F 2 "" H 1900 2700 50  0001 C CNN
F 3 "" H 1900 2700 50  0001 C CNN
	1    1900 2700
	0    -1   -1   0   
$EndComp
Wire Wire Line
	1900 2700 2000 2700
$Comp
L Device:R R?
U 1 1 61F4D823
P 3250 4550
AR Path="/6131D3AD/61F4D823" Ref="R?"  Part="1" 
AR Path="/60F870A1/61F4D823" Ref="R9"  Part="1" 
F 0 "R9" V 3043 4550 50  0000 C CNN
F 1 "1k" V 3134 4550 50  0000 C CNN
F 2 "Resistor_SMD:R_0805_2012Metric" V 3180 4550 50  0001 C CNN
F 3 "~" H 3250 4550 50  0001 C CNN
	1    3250 4550
	0    1    1    0   
$EndComp
$Comp
L Device:LED D?
U 1 1 61F4D829
P 3500 4800
AR Path="/6131D3AD/61F4D829" Ref="D?"  Part="1" 
AR Path="/60F870A1/61F4D829" Ref="D11"  Part="1" 
F 0 "D11" V 3539 4682 50  0000 R CNN
F 1 "green" V 3448 4682 50  0000 R CNN
F 2 "LED_SMD:LED_0805_2012Metric_Castellated" H 3500 4800 50  0001 C CNN
F 3 "~" H 3500 4800 50  0001 C CNN
	1    3500 4800
	0    -1   -1   0   
$EndComp
$Comp
L power:GND #PWR?
U 1 1 61F4D82F
P 3500 5050
AR Path="/6131D3AD/61F4D82F" Ref="#PWR?"  Part="1" 
AR Path="/60F870A1/61F4D82F" Ref="#PWR051"  Part="1" 
F 0 "#PWR051" H 3500 4800 50  0001 C CNN
F 1 "GND" H 3505 4877 50  0000 C CNN
F 2 "" H 3500 5050 50  0001 C CNN
F 3 "" H 3500 5050 50  0001 C CNN
	1    3500 5050
	1    0    0    -1  
$EndComp
Wire Wire Line
	3500 5050 3500 4950
Wire Wire Line
	3400 4550 3500 4550
Wire Wire Line
	3500 4550 3500 4650
Wire Wire Line
	3000 4550 3100 4550
$Comp
L Device:R R?
U 1 1 61F53E09
P 3250 2300
AR Path="/6131D3AD/61F53E09" Ref="R?"  Part="1" 
AR Path="/60F870A1/61F53E09" Ref="R11"  Part="1" 
F 0 "R11" V 3043 2300 50  0000 C CNN
F 1 "1k" V 3134 2300 50  0000 C CNN
F 2 "Resistor_SMD:R_0805_2012Metric" V 3180 2300 50  0001 C CNN
F 3 "~" H 3250 2300 50  0001 C CNN
	1    3250 2300
	0    1    1    0   
$EndComp
$Comp
L Device:LED D?
U 1 1 61F541E3
P 3500 2550
AR Path="/6131D3AD/61F541E3" Ref="D?"  Part="1" 
AR Path="/60F870A1/61F541E3" Ref="D10"  Part="1" 
F 0 "D10" V 3539 2432 50  0000 R CNN
F 1 "red" V 3448 2432 50  0000 R CNN
F 2 "LED_SMD:LED_0805_2012Metric_Castellated" H 3500 2550 50  0001 C CNN
F 3 "~" H 3500 2550 50  0001 C CNN
	1    3500 2550
	0    -1   -1   0   
$EndComp
$Comp
L power:GND #PWR?
U 1 1 61F541ED
P 3500 2800
AR Path="/6131D3AD/61F541ED" Ref="#PWR?"  Part="1" 
AR Path="/60F870A1/61F541ED" Ref="#PWR052"  Part="1" 
F 0 "#PWR052" H 3500 2550 50  0001 C CNN
F 1 "GND" H 3505 2627 50  0000 C CNN
F 2 "" H 3500 2800 50  0001 C CNN
F 3 "" H 3500 2800 50  0001 C CNN
	1    3500 2800
	1    0    0    -1  
$EndComp
Wire Wire Line
	3500 2800 3500 2700
Wire Wire Line
	3400 2300 3500 2300
Wire Wire Line
	3500 2300 3500 2400
Wire Wire Line
	3000 2300 3100 2300
NoConn ~ 3000 4950
NoConn ~ 3000 2700
$Comp
L Device:R R?
U 1 1 61FC6A51
P 1250 6500
AR Path="/61FC6A51" Ref="R?"  Part="1" 
AR Path="/60F870A1/61FC6A51" Ref="R12"  Part="1" 
F 0 "R12" H 1180 6454 50  0000 R CNN
F 1 "330k" H 1180 6545 50  0000 R CNN
F 2 "Resistor_SMD:R_0805_2012Metric" V 1180 6500 50  0001 C CNN
F 3 "~" H 1250 6500 50  0001 C CNN
	1    1250 6500
	-1   0    0    1   
$EndComp
$Comp
L power:VCC #PWR?
U 1 1 61FCA6D6
P 1250 6250
AR Path="/61FCA6D6" Ref="#PWR?"  Part="1" 
AR Path="/60F870A1/61FCA6D6" Ref="#PWR053"  Part="1" 
F 0 "#PWR053" H 1250 6100 50  0001 C CNN
F 1 "VCC" H 1265 6423 50  0000 C CNN
F 2 "" H 1250 6250 50  0001 C CNN
F 3 "" H 1250 6250 50  0001 C CNN
	1    1250 6250
	1    0    0    -1  
$EndComp
Wire Wire Line
	1250 6250 1250 6350
$Comp
L Device:C C?
U 1 1 61FCE6F0
P 1250 7000
AR Path="/6131D3AD/61FCE6F0" Ref="C?"  Part="1" 
AR Path="/60F870A1/61FCE6F0" Ref="C29"  Part="1" 
F 0 "C29" H 1365 7046 50  0000 L CNN
F 1 "100n" H 1365 6955 50  0000 L CNN
F 2 "Capacitor_SMD:C_0805_2012Metric" H 1288 6850 50  0001 C CNN
F 3 "~" H 1250 7000 50  0001 C CNN
	1    1250 7000
	1    0    0    -1  
$EndComp
$Comp
L power:GND #PWR?
U 1 1 61FD08BB
P 1250 7250
AR Path="/6131D3AD/61FD08BB" Ref="#PWR?"  Part="1" 
AR Path="/60F870A1/61FD08BB" Ref="#PWR054"  Part="1" 
F 0 "#PWR054" H 1250 7000 50  0001 C CNN
F 1 "GND" H 1255 7077 50  0000 C CNN
F 2 "" H 1250 7250 50  0001 C CNN
F 3 "" H 1250 7250 50  0001 C CNN
	1    1250 7250
	1    0    0    -1  
$EndComp
Wire Wire Line
	1250 7250 1250 7150
Wire Wire Line
	1250 6650 1250 6750
Wire Wire Line
	1250 6750 1700 6750
Connection ~ 1250 6750
Wire Wire Line
	1250 6750 1250 6850
Text Label 1700 6750 2    50   ~ 0
~POR
Text Label 1100 5350 0    50   ~ 0
~POR
Wire Wire Line
	2500 5350 1100 5350
Text Label 1100 3100 0    50   ~ 0
~POR
Wire Wire Line
	2500 3100 1100 3100
$Comp
L Device:R_Network05_Split RN?
U 1 1 62149F5C
P 1900 1550
AR Path="/62149F5C" Ref="RN?"  Part="1" 
AR Path="/60F870A1/62149F5C" Ref="RN2"  Part="1" 
F 0 "RN2" H 1988 1596 50  0000 L CNN
F 1 "10k" H 1988 1505 50  0000 L CNN
F 2 "Resistor_THT:R_Array_SIP6" V 2275 1550 50  0001 C CNN
F 3 "http://www.vishay.com/docs/31509/csc.pdf" H 1900 1550 50  0001 C CNN
	1    1900 1550
	1    0    0    -1  
$EndComp
$Comp
L Device:R R?
U 1 1 624959C6
P 6150 1400
AR Path="/6131D3AD/624959C6" Ref="R?"  Part="1" 
AR Path="/60F870A1/624959C6" Ref="R17"  Part="1" 
F 0 "R17" V 5943 1400 50  0000 C CNN
F 1 "1k" V 6034 1400 50  0000 C CNN
F 2 "Resistor_SMD:R_0805_2012Metric" V 6080 1400 50  0001 C CNN
F 3 "~" H 6150 1400 50  0001 C CNN
	1    6150 1400
	0    1    1    0   
$EndComp
$Comp
L Device:LED D?
U 1 1 62497B9D
P 6550 1400
AR Path="/6131D3AD/62497B9D" Ref="D?"  Part="1" 
AR Path="/60F870A1/62497B9D" Ref="D9"  Part="1" 
F 0 "D9" H 6543 1145 50  0000 C CNN
F 1 "green" H 6543 1236 50  0000 C CNN
F 2 "LED_SMD:LED_0805_2012Metric_Castellated" H 6550 1400 50  0001 C CNN
F 3 "~" H 6550 1400 50  0001 C CNN
	1    6550 1400
	-1   0    0    1   
$EndComp
Wire Wire Line
	5900 1400 6000 1400
Wire Wire Line
	6300 1400 6400 1400
$Comp
L power:GND #PWR?
U 1 1 6249FD17
P 6800 1400
AR Path="/6131D3AD/6249FD17" Ref="#PWR?"  Part="1" 
AR Path="/60F870A1/6249FD17" Ref="#PWR030"  Part="1" 
F 0 "#PWR030" H 6800 1150 50  0001 C CNN
F 1 "GND" V 6805 1272 50  0000 R CNN
F 2 "" H 6800 1400 50  0001 C CNN
F 3 "" H 6800 1400 50  0001 C CNN
	1    6800 1400
	0    -1   -1   0   
$EndComp
Wire Wire Line
	6800 1400 6700 1400
$Comp
L Device:R R?
U 1 1 624A62C4
P 6150 1950
AR Path="/6131D3AD/624A62C4" Ref="R?"  Part="1" 
AR Path="/60F870A1/624A62C4" Ref="R16"  Part="1" 
F 0 "R16" V 5943 1950 50  0000 C CNN
F 1 "1k" V 6034 1950 50  0000 C CNN
F 2 "Resistor_SMD:R_0805_2012Metric" V 6080 1950 50  0001 C CNN
F 3 "~" H 6150 1950 50  0001 C CNN
	1    6150 1950
	0    1    1    0   
$EndComp
$Comp
L Device:LED D?
U 1 1 624A66D0
P 6550 1950
AR Path="/6131D3AD/624A66D0" Ref="D?"  Part="1" 
AR Path="/60F870A1/624A66D0" Ref="D8"  Part="1" 
F 0 "D8" H 6543 1695 50  0000 C CNN
F 1 "green" H 6543 1786 50  0000 C CNN
F 2 "LED_SMD:LED_0805_2012Metric_Castellated" H 6550 1950 50  0001 C CNN
F 3 "~" H 6550 1950 50  0001 C CNN
	1    6550 1950
	-1   0    0    1   
$EndComp
Wire Wire Line
	5900 1950 6000 1950
Wire Wire Line
	6300 1950 6400 1950
$Comp
L power:GND #PWR?
U 1 1 624A66DC
P 6800 1950
AR Path="/6131D3AD/624A66DC" Ref="#PWR?"  Part="1" 
AR Path="/60F870A1/624A66DC" Ref="#PWR055"  Part="1" 
F 0 "#PWR055" H 6800 1700 50  0001 C CNN
F 1 "GND" V 6805 1822 50  0000 R CNN
F 2 "" H 6800 1950 50  0001 C CNN
F 3 "" H 6800 1950 50  0001 C CNN
	1    6800 1950
	0    -1   -1   0   
$EndComp
Wire Wire Line
	6800 1950 6700 1950
$Comp
L Device:R R?
U 1 1 624AF947
P 6150 2500
AR Path="/6131D3AD/624AF947" Ref="R?"  Part="1" 
AR Path="/60F870A1/624AF947" Ref="R15"  Part="1" 
F 0 "R15" V 5943 2500 50  0000 C CNN
F 1 "1k" V 6034 2500 50  0000 C CNN
F 2 "Resistor_SMD:R_0805_2012Metric" V 6080 2500 50  0001 C CNN
F 3 "~" H 6150 2500 50  0001 C CNN
	1    6150 2500
	0    1    1    0   
$EndComp
$Comp
L Device:LED D?
U 1 1 624AFD7B
P 6550 2500
AR Path="/6131D3AD/624AFD7B" Ref="D?"  Part="1" 
AR Path="/60F870A1/624AFD7B" Ref="D7"  Part="1" 
F 0 "D7" H 6543 2245 50  0000 C CNN
F 1 "green" H 6543 2336 50  0000 C CNN
F 2 "LED_SMD:LED_0805_2012Metric_Castellated" H 6550 2500 50  0001 C CNN
F 3 "~" H 6550 2500 50  0001 C CNN
	1    6550 2500
	-1   0    0    1   
$EndComp
Wire Wire Line
	5900 2500 6000 2500
Wire Wire Line
	6300 2500 6400 2500
$Comp
L power:GND #PWR?
U 1 1 624AFD87
P 6800 2500
AR Path="/6131D3AD/624AFD87" Ref="#PWR?"  Part="1" 
AR Path="/60F870A1/624AFD87" Ref="#PWR056"  Part="1" 
F 0 "#PWR056" H 6800 2250 50  0001 C CNN
F 1 "GND" V 6805 2372 50  0000 R CNN
F 2 "" H 6800 2500 50  0001 C CNN
F 3 "" H 6800 2500 50  0001 C CNN
	1    6800 2500
	0    -1   -1   0   
$EndComp
Wire Wire Line
	6800 2500 6700 2500
$Comp
L Device:R R?
U 1 1 624AFD92
P 6150 3050
AR Path="/6131D3AD/624AFD92" Ref="R?"  Part="1" 
AR Path="/60F870A1/624AFD92" Ref="R14"  Part="1" 
F 0 "R14" V 5943 3050 50  0000 C CNN
F 1 "1k" V 6034 3050 50  0000 C CNN
F 2 "Resistor_SMD:R_0805_2012Metric" V 6080 3050 50  0001 C CNN
F 3 "~" H 6150 3050 50  0001 C CNN
	1    6150 3050
	0    1    1    0   
$EndComp
$Comp
L Device:LED D?
U 1 1 624AFD9C
P 6550 3050
AR Path="/6131D3AD/624AFD9C" Ref="D?"  Part="1" 
AR Path="/60F870A1/624AFD9C" Ref="D6"  Part="1" 
F 0 "D6" H 6543 2795 50  0000 C CNN
F 1 "green" H 6543 2886 50  0000 C CNN
F 2 "LED_SMD:LED_0805_2012Metric_Castellated" H 6550 3050 50  0001 C CNN
F 3 "~" H 6550 3050 50  0001 C CNN
	1    6550 3050
	-1   0    0    1   
$EndComp
Wire Wire Line
	5900 3050 6000 3050
Wire Wire Line
	6300 3050 6400 3050
$Comp
L power:GND #PWR?
U 1 1 624AFDA8
P 6800 3050
AR Path="/6131D3AD/624AFDA8" Ref="#PWR?"  Part="1" 
AR Path="/60F870A1/624AFDA8" Ref="#PWR057"  Part="1" 
F 0 "#PWR057" H 6800 2800 50  0001 C CNN
F 1 "GND" V 6805 2922 50  0000 R CNN
F 2 "" H 6800 3050 50  0001 C CNN
F 3 "" H 6800 3050 50  0001 C CNN
	1    6800 3050
	0    -1   -1   0   
$EndComp
Wire Wire Line
	6800 3050 6700 3050
$Comp
L Device:R R?
U 1 1 624BE0D1
P 6150 3600
AR Path="/6131D3AD/624BE0D1" Ref="R?"  Part="1" 
AR Path="/60F870A1/624BE0D1" Ref="R13"  Part="1" 
F 0 "R13" V 5943 3600 50  0000 C CNN
F 1 "1k" V 6034 3600 50  0000 C CNN
F 2 "Resistor_SMD:R_0805_2012Metric" V 6080 3600 50  0001 C CNN
F 3 "~" H 6150 3600 50  0001 C CNN
	1    6150 3600
	0    1    1    0   
$EndComp
$Comp
L Device:LED D?
U 1 1 624BE555
P 6550 3600
AR Path="/6131D3AD/624BE555" Ref="D?"  Part="1" 
AR Path="/60F870A1/624BE555" Ref="D5"  Part="1" 
F 0 "D5" H 6543 3345 50  0000 C CNN
F 1 "green" H 6543 3436 50  0000 C CNN
F 2 "LED_SMD:LED_0805_2012Metric_Castellated" H 6550 3600 50  0001 C CNN
F 3 "~" H 6550 3600 50  0001 C CNN
	1    6550 3600
	-1   0    0    1   
$EndComp
Wire Wire Line
	5900 3600 6000 3600
Wire Wire Line
	6300 3600 6400 3600
$Comp
L power:GND #PWR?
U 1 1 624BE561
P 6800 3600
AR Path="/6131D3AD/624BE561" Ref="#PWR?"  Part="1" 
AR Path="/60F870A1/624BE561" Ref="#PWR058"  Part="1" 
F 0 "#PWR058" H 6800 3350 50  0001 C CNN
F 1 "GND" V 6805 3472 50  0000 R CNN
F 2 "" H 6800 3600 50  0001 C CNN
F 3 "" H 6800 3600 50  0001 C CNN
	1    6800 3600
	0    -1   -1   0   
$EndComp
Wire Wire Line
	6800 3600 6700 3600
Text HLabel 5200 3600 0    50   Input ~ 0
led1
Wire Wire Line
	5300 1400 5200 1400
Text HLabel 5200 3050 0    50   Input ~ 0
led2
Wire Wire Line
	5300 1950 5200 1950
Text HLabel 5200 2500 0    50   Input ~ 0
led3
Wire Wire Line
	5300 2500 5200 2500
Text HLabel 5200 1950 0    50   Input ~ 0
led4
Wire Wire Line
	5300 3050 5200 3050
Text HLabel 5200 1400 0    50   Input ~ 0
led5
Wire Wire Line
	5300 3600 5200 3600
Text HLabel 4000 6450 2    50   Output ~ 0
btn1
Text HLabel 4000 6750 2    50   Output ~ 0
btn2
$Comp
L power:VCC #PWR?
U 1 1 628BD065
P 3150 5950
AR Path="/628BD065" Ref="#PWR?"  Part="1" 
AR Path="/60F870A1/628BD065" Ref="#PWR0104"  Part="1" 
F 0 "#PWR0104" H 3150 5800 50  0001 C CNN
F 1 "VCC" H 3165 6123 50  0000 C CNN
F 2 "" H 3150 5950 50  0001 C CNN
F 3 "" H 3150 5950 50  0001 C CNN
	1    3150 5950
	1    0    0    -1  
$EndComp
Wire Wire Line
	3150 5950 3150 6050
$Comp
L Device:C C?
U 1 1 62C57BB3
P 3150 7000
AR Path="/6131D3AD/62C57BB3" Ref="C?"  Part="1" 
AR Path="/60F870A1/62C57BB3" Ref="C33"  Part="1" 
F 0 "C33" H 3265 7046 50  0000 L CNN
F 1 "100n" H 3265 6955 50  0000 L CNN
F 2 "Capacitor_SMD:C_0805_2012Metric" H 3188 6850 50  0001 C CNN
F 3 "~" H 3150 7000 50  0001 C CNN
	1    3150 7000
	1    0    0    -1  
$EndComp
$Comp
L power:GND #PWR?
U 1 1 62C57CCB
P 3150 7250
AR Path="/6131D3AD/62C57CCB" Ref="#PWR?"  Part="1" 
AR Path="/60F870A1/62C57CCB" Ref="#PWR059"  Part="1" 
F 0 "#PWR059" H 3150 7000 50  0001 C CNN
F 1 "GND" H 3155 7077 50  0000 C CNN
F 2 "" H 3150 7250 50  0001 C CNN
F 3 "" H 3150 7250 50  0001 C CNN
	1    3150 7250
	1    0    0    -1  
$EndComp
Wire Wire Line
	3150 7250 3150 7150
$Comp
L Device:C C?
U 1 1 62C62734
P 3600 7000
AR Path="/6131D3AD/62C62734" Ref="C?"  Part="1" 
AR Path="/60F870A1/62C62734" Ref="C34"  Part="1" 
F 0 "C34" H 3715 7046 50  0000 L CNN
F 1 "100n" H 3715 6955 50  0000 L CNN
F 2 "Capacitor_SMD:C_0805_2012Metric" H 3638 6850 50  0001 C CNN
F 3 "~" H 3600 7000 50  0001 C CNN
	1    3600 7000
	1    0    0    -1  
$EndComp
$Comp
L power:GND #PWR?
U 1 1 62C62862
P 3600 7250
AR Path="/6131D3AD/62C62862" Ref="#PWR?"  Part="1" 
AR Path="/60F870A1/62C62862" Ref="#PWR060"  Part="1" 
F 0 "#PWR060" H 3600 7000 50  0001 C CNN
F 1 "GND" H 3605 7077 50  0000 C CNN
F 2 "" H 3600 7250 50  0001 C CNN
F 3 "" H 3600 7250 50  0001 C CNN
	1    3600 7250
	1    0    0    -1  
$EndComp
Wire Wire Line
	3600 7250 3600 7150
Wire Wire Line
	3150 6850 3150 6450
Wire Wire Line
	3600 6850 3600 6750
$EndSCHEMATC
