EESchema Schematic File Version 4
EELAYER 30 0
EELAYER END
$Descr A4 11693 8268
encoding utf-8
Sheet 3 4
Title ""
Date ""
Rev ""
Comp ""
Comment1 ""
Comment2 ""
Comment3 ""
Comment4 ""
$EndDescr
Text HLabel 3350 3450 0    50   Input ~ 0
TXD
Text HLabel 3350 4050 0    50   Output ~ 0
RXD
$Comp
L Connector:DB9_Female_MountingHoles J4
U 1 1 607E3195
P 7500 3650
F 0 "J4" H 7680 3652 50  0000 L CNN
F 1 "DB9_Female" H 7680 3561 50  0000 L CNN
F 2 "Connector_Dsub:DSUB-9_Female_Horizontal_P2.77x2.84mm_EdgePinOffset7.70mm_Housed_MountingHolesOffset9.12mm" H 7500 3650 50  0001 C CNN
F 3 " ~" H 7500 3650 50  0001 C CNN
	1    7500 3650
	1    0    0    -1  
$EndComp
$Comp
L power:GND #PWR042
U 1 1 607E3DB7
P 7500 4350
F 0 "#PWR042" H 7500 4100 50  0001 C CNN
F 1 "GND" H 7505 4177 50  0000 C CNN
F 2 "" H 7500 4350 50  0001 C CNN
F 3 "" H 7500 4350 50  0001 C CNN
	1    7500 4350
	1    0    0    -1  
$EndComp
$Comp
L power:GND #PWR041
U 1 1 607E3FA4
P 7100 4350
F 0 "#PWR041" H 7100 4100 50  0001 C CNN
F 1 "GND" H 7105 4177 50  0000 C CNN
F 2 "" H 7100 4350 50  0001 C CNN
F 3 "" H 7100 4350 50  0001 C CNN
	1    7100 4350
	1    0    0    -1  
$EndComp
Wire Wire Line
	7100 4350 7100 4050
Wire Wire Line
	7100 4050 7200 4050
Wire Wire Line
	7500 4250 7500 4350
$Comp
L Interface_UART:MAX232 U8
U 1 1 607ECC84
P 4750 3350
F 0 "U8" H 4900 4450 50  0000 C CNN
F 1 "ST232CDR" H 5100 2250 50  0000 C CNN
F 2 "Package_SO:SO-16_3.9x9.9mm_P1.27mm" H 4800 2300 50  0001 L CNN
F 3 "http://www.ti.com/lit/ds/symlink/max232.pdf" H 4750 3450 50  0001 C CNN
	1    4750 3350
	1    0    0    -1  
$EndComp
$Comp
L power:VCC #PWR037
U 1 1 607EDA85
P 4750 2050
F 0 "#PWR037" H 4750 1900 50  0001 C CNN
F 1 "VCC" H 4765 2223 50  0000 C CNN
F 2 "" H 4750 2050 50  0001 C CNN
F 3 "" H 4750 2050 50  0001 C CNN
	1    4750 2050
	1    0    0    -1  
$EndComp
Wire Wire Line
	4750 2050 4750 2150
$Comp
L power:GND #PWR038
U 1 1 607EDF84
P 4750 4650
F 0 "#PWR038" H 4750 4400 50  0001 C CNN
F 1 "GND" H 4755 4477 50  0000 C CNN
F 2 "" H 4750 4650 50  0001 C CNN
F 3 "" H 4750 4650 50  0001 C CNN
	1    4750 4650
	1    0    0    -1  
$EndComp
Wire Wire Line
	4750 4550 4750 4650
$Comp
L Device:C C?
U 1 1 607FBC5C
P 6550 1400
AR Path="/607FBC5C" Ref="C?"  Part="1" 
AR Path="/607D8567/607FBC5C" Ref="C11"  Part="1" 
F 0 "C11" H 6665 1446 50  0000 L CNN
F 1 "100n" H 6665 1355 50  0000 L CNN
F 2 "Capacitor_SMD:C_0805_2012Metric" H 6588 1250 50  0001 C CNN
F 3 "~" H 6550 1400 50  0001 C CNN
	1    6550 1400
	1    0    0    -1  
$EndComp
$Comp
L power:VCC #PWR039
U 1 1 607FD7B2
P 6550 1150
F 0 "#PWR039" H 6550 1000 50  0001 C CNN
F 1 "VCC" H 6565 1323 50  0000 C CNN
F 2 "" H 6550 1150 50  0001 C CNN
F 3 "" H 6550 1150 50  0001 C CNN
	1    6550 1150
	1    0    0    -1  
$EndComp
Wire Wire Line
	6550 1150 6550 1250
$Comp
L power:GND #PWR040
U 1 1 608003E5
P 6550 1650
F 0 "#PWR040" H 6550 1400 50  0001 C CNN
F 1 "GND" H 6555 1477 50  0000 C CNN
F 2 "" H 6550 1650 50  0001 C CNN
F 3 "" H 6550 1650 50  0001 C CNN
	1    6550 1650
	1    0    0    -1  
$EndComp
Wire Wire Line
	6550 1550 6550 1650
$Comp
L Device:C C?
U 1 1 60802F88
P 3550 2600
AR Path="/60802F88" Ref="C?"  Part="1" 
AR Path="/607D8567/60802F88" Ref="C8"  Part="1" 
F 0 "C8" H 3665 2646 50  0000 L CNN
F 1 "100n" H 3665 2555 50  0000 L CNN
F 2 "Capacitor_SMD:C_0805_2012Metric" H 3588 2450 50  0001 C CNN
F 3 "~" H 3550 2600 50  0001 C CNN
	1    3550 2600
	1    0    0    -1  
$EndComp
Wire Wire Line
	3950 2450 3550 2450
Wire Wire Line
	3550 2750 3950 2750
$Comp
L Device:C C?
U 1 1 60803E1B
P 5950 2600
AR Path="/60803E1B" Ref="C?"  Part="1" 
AR Path="/607D8567/60803E1B" Ref="C9"  Part="1" 
F 0 "C9" H 5835 2646 50  0000 R CNN
F 1 "100n" H 5835 2555 50  0000 R CNN
F 2 "Capacitor_SMD:C_0805_2012Metric" H 5988 2450 50  0001 C CNN
F 3 "~" H 5950 2600 50  0001 C CNN
	1    5950 2600
	-1   0    0    -1  
$EndComp
Wire Wire Line
	5550 2450 5950 2450
Wire Wire Line
	5950 2750 5550 2750
$Comp
L Device:C C?
U 1 1 60806748
P 5950 3100
AR Path="/60806748" Ref="C?"  Part="1" 
AR Path="/607D8567/60806748" Ref="C10"  Part="1" 
F 0 "C10" H 5835 3146 50  0000 R CNN
F 1 "100n" H 5835 3055 50  0000 R CNN
F 2 "Capacitor_SMD:C_0805_2012Metric" H 5988 2950 50  0001 C CNN
F 3 "~" H 5950 3100 50  0001 C CNN
	1    5950 3100
	-1   0    0    -1  
$EndComp
Wire Wire Line
	5550 2950 5950 2950
Wire Wire Line
	5950 3250 5550 3250
Text HLabel 3350 3650 0    50   Input ~ 0
RTS
Text HLabel 3350 3850 0    50   Output ~ 0
CTS
Wire Wire Line
	3350 3450 3950 3450
Wire Wire Line
	3350 3650 3950 3650
Wire Wire Line
	3350 4050 3950 4050
Wire Wire Line
	3350 3850 3950 3850
Wire Wire Line
	5550 3450 7200 3450
Wire Wire Line
	7200 3650 6550 3650
Wire Wire Line
	7200 3550 6350 3550
Wire Wire Line
	5550 4050 6550 4050
Wire Wire Line
	6550 3650 6550 4050
Wire Wire Line
	5550 3850 6350 3850
Wire Wire Line
	6350 3550 6350 3850
Wire Wire Line
	7200 3750 6150 3750
Wire Wire Line
	6150 3750 6150 3650
Wire Wire Line
	6150 3650 5550 3650
NoConn ~ 7200 3250
NoConn ~ 7200 3350
NoConn ~ 7200 3850
NoConn ~ 7200 3950
$EndSCHEMATC
