EESchema Schematic File Version 4
EELAYER 30 0
EELAYER END
$Descr A4 11693 8268
encoding utf-8
Sheet 2 4
Title ""
Date ""
Rev ""
Comp ""
Comment1 ""
Comment2 ""
Comment3 ""
Comment4 ""
$EndDescr
$Comp
L Regulator_Linear:L7805 U7
U 1 1 6131DE5E
P 3700 1550
F 0 "U7" H 3700 1792 50  0000 C CNN
F 1 "L7805" H 3700 1701 50  0000 C CNN
F 2 "Package_TO_SOT_SMD:TO-263-2" H 3725 1400 50  0001 L CIN
F 3 "http://www.st.com/content/ccc/resource/technical/document/datasheet/41/4f/b3/b0/12/d4/47/88/CD00000444.pdf/files/CD00000444.pdf/jcr:content/translations/en.CD00000444.pdf" H 3700 1500 50  0001 C CNN
	1    3700 1550
	1    0    0    -1  
$EndComp
$Comp
L Device:C C7
U 1 1 6131E2A4
P 4100 1800
F 0 "C7" H 4215 1846 50  0000 L CNN
F 1 "100n" H 4215 1755 50  0000 L CNN
F 2 "Capacitor_SMD:C_0805_2012Metric" H 4138 1650 50  0001 C CNN
F 3 "~" H 4100 1800 50  0001 C CNN
	1    4100 1800
	1    0    0    -1  
$EndComp
Wire Wire Line
	4000 1550 4100 1550
Wire Wire Line
	4100 1550 4100 1650
$Comp
L power:VCC #PWR034
U 1 1 6131E986
P 4100 1450
F 0 "#PWR034" H 4100 1300 50  0001 C CNN
F 1 "VCC" H 4115 1623 50  0000 C CNN
F 2 "" H 4100 1450 50  0001 C CNN
F 3 "" H 4100 1450 50  0001 C CNN
	1    4100 1450
	1    0    0    -1  
$EndComp
Wire Wire Line
	4100 1450 4100 1550
Connection ~ 4100 1550
$Comp
L power:GND #PWR035
U 1 1 6131ECBE
P 4100 2050
F 0 "#PWR035" H 4100 1800 50  0001 C CNN
F 1 "GND" H 4105 1877 50  0000 C CNN
F 2 "" H 4100 2050 50  0001 C CNN
F 3 "" H 4100 2050 50  0001 C CNN
	1    4100 2050
	1    0    0    -1  
$EndComp
Wire Wire Line
	4100 2050 4100 1950
$Comp
L power:GND #PWR033
U 1 1 6131F109
P 3700 2050
F 0 "#PWR033" H 3700 1800 50  0001 C CNN
F 1 "GND" H 3705 1877 50  0000 C CNN
F 2 "" H 3700 2050 50  0001 C CNN
F 3 "" H 3700 2050 50  0001 C CNN
	1    3700 2050
	1    0    0    -1  
$EndComp
Wire Wire Line
	3700 1850 3700 2050
$Comp
L Connector:Jack-DC J1
U 1 1 613205C6
P 1700 1650
F 0 "J1" H 1757 1975 50  0000 C CNN
F 1 "Jack-DC" H 1757 1884 50  0000 C CNN
F 2 "Connector_BarrelJack:BarrelJack_Horizontal" H 1750 1610 50  0001 C CNN
F 3 "~" H 1750 1610 50  0001 C CNN
	1    1700 1650
	1    0    0    -1  
$EndComp
$Comp
L power:GND #PWR031
U 1 1 61320C28
P 2100 2050
F 0 "#PWR031" H 2100 1800 50  0001 C CNN
F 1 "GND" H 2105 1877 50  0000 C CNN
F 2 "" H 2100 2050 50  0001 C CNN
F 3 "" H 2100 2050 50  0001 C CNN
	1    2100 2050
	1    0    0    -1  
$EndComp
Wire Wire Line
	2000 1750 2100 1750
Wire Wire Line
	2100 1750 2100 2050
Wire Wire Line
	2000 1550 2400 1550
$Comp
L Device:CP C6
U 1 1 613219AD
P 3150 1800
F 0 "C6" H 3268 1846 50  0000 L CNN
F 1 "10u" H 3268 1755 50  0000 L CNN
F 2 "Capacitor_Tantalum_SMD:CP_EIA-7343-31_Kemet-D" H 3188 1650 50  0001 C CNN
F 3 "~" H 3150 1800 50  0001 C CNN
	1    3150 1800
	1    0    0    -1  
$EndComp
Wire Wire Line
	3150 2050 3150 1950
$Comp
L power:GND #PWR032
U 1 1 61321EC7
P 3150 2050
F 0 "#PWR032" H 3150 1800 50  0001 C CNN
F 1 "GND" H 3155 1877 50  0000 C CNN
F 2 "" H 3150 2050 50  0001 C CNN
F 3 "" H 3150 2050 50  0001 C CNN
	1    3150 2050
	1    0    0    -1  
$EndComp
Wire Wire Line
	3150 1650 3150 1550
Connection ~ 3150 1550
Wire Wire Line
	3150 1550 3400 1550
$Comp
L Device:R R10
U 1 1 61322951
P 4600 1550
F 0 "R10" V 4393 1550 50  0000 C CNN
F 1 "1k" V 4484 1550 50  0000 C CNN
F 2 "Resistor_SMD:R_0805_2012Metric" V 4530 1550 50  0001 C CNN
F 3 "~" H 4600 1550 50  0001 C CNN
	1    4600 1550
	0    1    1    0   
$EndComp
$Comp
L Device:LED D4
U 1 1 613231A9
P 4850 1800
F 0 "D4" V 4889 1682 50  0000 R CNN
F 1 "green" V 4798 1682 50  0000 R CNN
F 2 "LED_SMD:LED_0805_2012Metric_Castellated" H 4850 1800 50  0001 C CNN
F 3 "~" H 4850 1800 50  0001 C CNN
	1    4850 1800
	0    -1   -1   0   
$EndComp
$Comp
L power:GND #PWR036
U 1 1 61323657
P 4850 2050
F 0 "#PWR036" H 4850 1800 50  0001 C CNN
F 1 "GND" H 4855 1877 50  0000 C CNN
F 2 "" H 4850 2050 50  0001 C CNN
F 3 "" H 4850 2050 50  0001 C CNN
	1    4850 2050
	1    0    0    -1  
$EndComp
Wire Wire Line
	4850 2050 4850 1950
Wire Wire Line
	4750 1550 4850 1550
Wire Wire Line
	4850 1550 4850 1650
Wire Wire Line
	4450 1550 4100 1550
$Comp
L power:PWR_FLAG #FLG0101
U 1 1 616571D3
P 2400 1450
F 0 "#FLG0101" H 2400 1525 50  0001 C CNN
F 1 "PWR_FLAG" H 2400 1623 50  0000 C CNN
F 2 "" H 2400 1450 50  0001 C CNN
F 3 "~" H 2400 1450 50  0001 C CNN
	1    2400 1450
	1    0    0    -1  
$EndComp
Wire Wire Line
	2400 1450 2400 1550
$Comp
L power:PWR_FLAG #FLG0102
U 1 1 6165814A
P 2400 2050
F 0 "#FLG0102" H 2400 2125 50  0001 C CNN
F 1 "PWR_FLAG" H 2400 2223 50  0000 C CNN
F 2 "" H 2400 2050 50  0001 C CNN
F 3 "~" H 2400 2050 50  0001 C CNN
	1    2400 2050
	-1   0    0    1   
$EndComp
Wire Wire Line
	2100 1750 2400 1750
Wire Wire Line
	2400 1750 2400 2050
Connection ~ 2100 1750
Connection ~ 2400 1550
Wire Wire Line
	2400 1550 3150 1550
$Comp
L Device:C C5
U 1 1 617F3D1E
P 1600 3550
F 0 "C5" H 1715 3596 50  0000 L CNN
F 1 "100n" H 1715 3505 50  0000 L CNN
F 2 "Capacitor_SMD:C_0805_2012Metric" H 1638 3400 50  0001 C CNN
F 3 "~" H 1600 3550 50  0001 C CNN
	1    1600 3550
	1    0    0    -1  
$EndComp
Wire Wire Line
	1600 3200 1600 3300
$Comp
L power:GND #PWR0102
U 1 1 617F3DF1
P 1600 3900
F 0 "#PWR0102" H 1600 3650 50  0001 C CNN
F 1 "GND" H 1605 3727 50  0000 C CNN
F 2 "" H 1600 3900 50  0001 C CNN
F 3 "" H 1600 3900 50  0001 C CNN
	1    1600 3900
	1    0    0    -1  
$EndComp
$Comp
L power:VCC #PWR0103
U 1 1 617F5EBF
P 1600 3200
F 0 "#PWR0103" H 1600 3050 50  0001 C CNN
F 1 "VCC" H 1615 3373 50  0000 C CNN
F 2 "" H 1600 3200 50  0001 C CNN
F 3 "" H 1600 3200 50  0001 C CNN
	1    1600 3200
	1    0    0    -1  
$EndComp
$Comp
L Device:C C12
U 1 1 617FF959
P 2050 3550
F 0 "C12" H 2165 3596 50  0000 L CNN
F 1 "100n" H 2165 3505 50  0000 L CNN
F 2 "Capacitor_SMD:C_0805_2012Metric" H 2088 3400 50  0001 C CNN
F 3 "~" H 2050 3550 50  0001 C CNN
	1    2050 3550
	1    0    0    -1  
$EndComp
Wire Wire Line
	2050 3300 2050 3400
Wire Wire Line
	2050 3800 2050 3700
Wire Wire Line
	1600 3300 2050 3300
Connection ~ 1600 3300
Wire Wire Line
	1600 3300 1600 3400
Wire Wire Line
	1600 3700 1600 3800
Wire Wire Line
	2050 3800 1600 3800
Connection ~ 1600 3800
Wire Wire Line
	1600 3800 1600 3900
$Comp
L Device:C C13
U 1 1 618042B2
P 2500 3550
F 0 "C13" H 2615 3596 50  0000 L CNN
F 1 "100n" H 2615 3505 50  0000 L CNN
F 2 "Capacitor_SMD:C_0805_2012Metric" H 2538 3400 50  0001 C CNN
F 3 "~" H 2500 3550 50  0001 C CNN
	1    2500 3550
	1    0    0    -1  
$EndComp
Wire Wire Line
	2500 3300 2500 3400
Wire Wire Line
	2500 3800 2500 3700
Wire Wire Line
	2050 3300 2500 3300
Wire Wire Line
	2500 3800 2050 3800
Connection ~ 2050 3300
Connection ~ 2050 3800
$Comp
L Device:C C14
U 1 1 6180D522
P 2950 3550
F 0 "C14" H 3065 3596 50  0000 L CNN
F 1 "100n" H 3065 3505 50  0000 L CNN
F 2 "Capacitor_SMD:C_0805_2012Metric" H 2988 3400 50  0001 C CNN
F 3 "~" H 2950 3550 50  0001 C CNN
	1    2950 3550
	1    0    0    -1  
$EndComp
Wire Wire Line
	2950 3300 2950 3400
Wire Wire Line
	2950 3800 2950 3700
Wire Wire Line
	2500 3300 2950 3300
Wire Wire Line
	2950 3800 2500 3800
Connection ~ 2500 3300
Connection ~ 2500 3800
$Comp
L Device:C C15
U 1 1 6180EE23
P 3400 3550
F 0 "C15" H 3515 3596 50  0000 L CNN
F 1 "100n" H 3515 3505 50  0000 L CNN
F 2 "Capacitor_SMD:C_0805_2012Metric" H 3438 3400 50  0001 C CNN
F 3 "~" H 3400 3550 50  0001 C CNN
	1    3400 3550
	1    0    0    -1  
$EndComp
Wire Wire Line
	3400 3300 3400 3400
Wire Wire Line
	3400 3800 3400 3700
Wire Wire Line
	2950 3300 3400 3300
Wire Wire Line
	3400 3800 2950 3800
Connection ~ 2950 3300
Connection ~ 2950 3800
$Comp
L Device:C C16
U 1 1 61813BD0
P 3850 3550
F 0 "C16" H 3965 3596 50  0000 L CNN
F 1 "100n" H 3965 3505 50  0000 L CNN
F 2 "Capacitor_SMD:C_0805_2012Metric" H 3888 3400 50  0001 C CNN
F 3 "~" H 3850 3550 50  0001 C CNN
	1    3850 3550
	1    0    0    -1  
$EndComp
Wire Wire Line
	3850 3300 3850 3400
Wire Wire Line
	3850 3800 3850 3700
Wire Wire Line
	3400 3300 3850 3300
Wire Wire Line
	3850 3800 3400 3800
Connection ~ 3400 3300
Connection ~ 3400 3800
$Comp
L Device:C C17
U 1 1 6181AEBC
P 4300 3550
F 0 "C17" H 4415 3596 50  0000 L CNN
F 1 "100n" H 4415 3505 50  0000 L CNN
F 2 "Capacitor_SMD:C_0805_2012Metric" H 4338 3400 50  0001 C CNN
F 3 "~" H 4300 3550 50  0001 C CNN
	1    4300 3550
	1    0    0    -1  
$EndComp
Wire Wire Line
	4300 3300 4300 3400
Wire Wire Line
	4300 3800 4300 3700
Wire Wire Line
	3850 3300 4300 3300
Wire Wire Line
	4300 3800 3850 3800
$Comp
L Device:C C18
U 1 1 6181AFDA
P 4750 3550
F 0 "C18" H 4865 3596 50  0000 L CNN
F 1 "100n" H 4865 3505 50  0000 L CNN
F 2 "Capacitor_SMD:C_0805_2012Metric" H 4788 3400 50  0001 C CNN
F 3 "~" H 4750 3550 50  0001 C CNN
	1    4750 3550
	1    0    0    -1  
$EndComp
Wire Wire Line
	4750 3300 4750 3400
Wire Wire Line
	4750 3800 4750 3700
Wire Wire Line
	4300 3300 4750 3300
Wire Wire Line
	4750 3800 4300 3800
Connection ~ 4300 3300
Connection ~ 4300 3800
Connection ~ 3850 3300
Connection ~ 3850 3800
$Comp
L Device:C C19
U 1 1 6181ECA2
P 5200 3550
F 0 "C19" H 5315 3596 50  0000 L CNN
F 1 "100n" H 5315 3505 50  0000 L CNN
F 2 "Capacitor_SMD:C_0805_2012Metric" H 5238 3400 50  0001 C CNN
F 3 "~" H 5200 3550 50  0001 C CNN
	1    5200 3550
	1    0    0    -1  
$EndComp
Wire Wire Line
	5200 3300 5200 3400
Wire Wire Line
	5200 3800 5200 3700
Wire Wire Line
	4750 3300 5200 3300
Wire Wire Line
	5200 3800 4750 3800
Connection ~ 4750 3300
Connection ~ 4750 3800
$Comp
L Device:C C20
U 1 1 61824B56
P 5650 3550
F 0 "C20" H 5765 3596 50  0000 L CNN
F 1 "100n" H 5765 3505 50  0000 L CNN
F 2 "Capacitor_SMD:C_0805_2012Metric" H 5688 3400 50  0001 C CNN
F 3 "~" H 5650 3550 50  0001 C CNN
	1    5650 3550
	1    0    0    -1  
$EndComp
Wire Wire Line
	5650 3300 5650 3400
Wire Wire Line
	5650 3800 5650 3700
Wire Wire Line
	5200 3300 5650 3300
Wire Wire Line
	5650 3800 5200 3800
Connection ~ 5200 3300
Connection ~ 5200 3800
$Comp
L Device:C C21
U 1 1 61831F1D
P 6100 3550
F 0 "C21" H 6215 3596 50  0000 L CNN
F 1 "100n" H 6215 3505 50  0000 L CNN
F 2 "Capacitor_SMD:C_0805_2012Metric" H 6138 3400 50  0001 C CNN
F 3 "~" H 6100 3550 50  0001 C CNN
	1    6100 3550
	1    0    0    -1  
$EndComp
Wire Wire Line
	6100 3300 6100 3400
Wire Wire Line
	6100 3800 6100 3700
Wire Wire Line
	5650 3300 6100 3300
Wire Wire Line
	6100 3800 5650 3800
Connection ~ 5650 3300
Connection ~ 5650 3800
$Comp
L Device:C C22
U 1 1 618360C0
P 6550 3550
F 0 "C22" H 6665 3596 50  0000 L CNN
F 1 "100n" H 6665 3505 50  0000 L CNN
F 2 "Capacitor_SMD:C_0805_2012Metric" H 6588 3400 50  0001 C CNN
F 3 "~" H 6550 3550 50  0001 C CNN
	1    6550 3550
	1    0    0    -1  
$EndComp
Wire Wire Line
	6550 3300 6550 3400
Wire Wire Line
	6550 3800 6550 3700
Wire Wire Line
	6100 3300 6550 3300
Wire Wire Line
	6550 3800 6100 3800
$Comp
L Device:C C23
U 1 1 61836244
P 7000 3550
F 0 "C23" H 7115 3596 50  0000 L CNN
F 1 "100n" H 7115 3505 50  0000 L CNN
F 2 "Capacitor_SMD:C_0805_2012Metric" H 7038 3400 50  0001 C CNN
F 3 "~" H 7000 3550 50  0001 C CNN
	1    7000 3550
	1    0    0    -1  
$EndComp
Wire Wire Line
	7000 3300 7000 3400
Wire Wire Line
	7000 3800 7000 3700
Wire Wire Line
	6550 3300 7000 3300
Wire Wire Line
	7000 3800 6550 3800
Connection ~ 6550 3300
Connection ~ 6550 3800
Connection ~ 6100 3300
Connection ~ 6100 3800
$Comp
L Device:C C24
U 1 1 618BB7BA
P 7450 3550
F 0 "C24" H 7565 3596 50  0000 L CNN
F 1 "100n" H 7565 3505 50  0000 L CNN
F 2 "Capacitor_SMD:C_0805_2012Metric" H 7488 3400 50  0001 C CNN
F 3 "~" H 7450 3550 50  0001 C CNN
	1    7450 3550
	1    0    0    -1  
$EndComp
Wire Wire Line
	7450 3300 7450 3400
Wire Wire Line
	7450 3800 7450 3700
Wire Wire Line
	7000 3300 7450 3300
Wire Wire Line
	7450 3800 7000 3800
Connection ~ 7000 3300
Connection ~ 7000 3800
$Comp
L 74xx:74HC04 U?
U 7 1 61AD80E4
P 1600 5350
AR Path="/61AD80E4" Ref="U?"  Part="1" 
AR Path="/6131D3AD/61AD80E4" Ref="U3"  Part="7" 
F 0 "U3" H 1371 5396 50  0000 R CNN
F 1 "74HC04" H 1371 5305 50  0000 R CNN
F 2 "" H 1600 5350 50  0001 C CNN
F 3 "https://assets.nexperia.com/documents/data-sheet/74HC_HCT04.pdf" H 1600 5350 50  0001 C CNN
	7    1600 5350
	1    0    0    -1  
$EndComp
$Comp
L Device:C C25
U 1 1 61ADA3EC
P 2000 5350
F 0 "C25" H 2115 5396 50  0000 L CNN
F 1 "100n" H 2115 5305 50  0000 L CNN
F 2 "Capacitor_SMD:C_0805_2012Metric" H 2038 5200 50  0001 C CNN
F 3 "~" H 2000 5350 50  0001 C CNN
	1    2000 5350
	1    0    0    -1  
$EndComp
Wire Wire Line
	1600 4650 1600 4750
$Comp
L power:VCC #PWR014
U 1 1 61ADBDFD
P 1600 4650
F 0 "#PWR014" H 1600 4500 50  0001 C CNN
F 1 "VCC" H 1615 4823 50  0000 C CNN
F 2 "" H 1600 4650 50  0001 C CNN
F 3 "" H 1600 4650 50  0001 C CNN
	1    1600 4650
	1    0    0    -1  
$EndComp
Wire Wire Line
	1600 4750 2000 4750
Wire Wire Line
	2000 4750 2000 5200
Wire Wire Line
	1600 4850 1600 4750
Connection ~ 1600 4750
$Comp
L power:GND #PWR015
U 1 1 61AE84B9
P 1600 6050
F 0 "#PWR015" H 1600 5800 50  0001 C CNN
F 1 "GND" H 1605 5877 50  0000 C CNN
F 2 "" H 1600 6050 50  0001 C CNN
F 3 "" H 1600 6050 50  0001 C CNN
	1    1600 6050
	1    0    0    -1  
$EndComp
Wire Wire Line
	1600 5850 1600 5950
Connection ~ 1600 5950
Wire Wire Line
	1600 5950 1600 6050
Wire Wire Line
	2000 5500 2000 5950
Wire Wire Line
	2000 5950 1600 5950
$Comp
L 74xx:74HC123 U?
U 3 1 61D650DD
P 2950 5350
AR Path="/60F870A1/61D650DD" Ref="U?"  Part="3" 
AR Path="/6131D3AD/61D650DD" Ref="U9"  Part="3" 
F 0 "U9" H 2720 5396 50  0000 R CNN
F 1 "74HC423" H 2720 5305 50  0000 R CNN
F 2 "" H 2950 5350 50  0001 C CNN
F 3 "https://assets.nexperia.com/documents/data-sheet/74HC_HCT123.pdf" H 2950 5350 50  0001 C CNN
	3    2950 5350
	1    0    0    -1  
$EndComp
$Comp
L Device:C C26
U 1 1 61D67276
P 3350 5350
F 0 "C26" H 3465 5396 50  0000 L CNN
F 1 "100n" H 3465 5305 50  0000 L CNN
F 2 "Capacitor_SMD:C_0805_2012Metric" H 3388 5200 50  0001 C CNN
F 3 "~" H 3350 5350 50  0001 C CNN
	1    3350 5350
	1    0    0    -1  
$EndComp
Wire Wire Line
	2950 4750 3350 4750
Wire Wire Line
	3350 4750 3350 5200
Wire Wire Line
	3350 5500 3350 5950
Wire Wire Line
	3350 5950 2950 5950
Wire Wire Line
	2000 4750 2950 4750
Wire Wire Line
	2950 4750 2950 4850
Connection ~ 2000 4750
Connection ~ 2950 4750
Wire Wire Line
	2000 5950 2950 5950
Wire Wire Line
	2950 5950 2950 5850
Connection ~ 2000 5950
Connection ~ 2950 5950
$Comp
L Device:C C30
U 1 1 6225CF13
P 7900 3550
F 0 "C30" H 8015 3596 50  0000 L CNN
F 1 "100n" H 8015 3505 50  0000 L CNN
F 2 "Capacitor_SMD:C_0805_2012Metric" H 7938 3400 50  0001 C CNN
F 3 "~" H 7900 3550 50  0001 C CNN
	1    7900 3550
	1    0    0    -1  
$EndComp
Wire Wire Line
	7900 3300 7900 3400
Wire Wire Line
	7900 3800 7900 3700
Wire Wire Line
	7450 3300 7900 3300
Wire Wire Line
	7900 3800 7450 3800
Connection ~ 7450 3300
Connection ~ 7450 3800
$Comp
L Device:C C31
U 1 1 622BA917
P 8350 3550
F 0 "C31" H 8465 3596 50  0000 L CNN
F 1 "100n" H 8465 3505 50  0000 L CNN
F 2 "Capacitor_SMD:C_0805_2012Metric" H 8388 3400 50  0001 C CNN
F 3 "~" H 8350 3550 50  0001 C CNN
	1    8350 3550
	1    0    0    -1  
$EndComp
Wire Wire Line
	8350 3300 8350 3400
Wire Wire Line
	8350 3800 8350 3700
Wire Wire Line
	7900 3300 8350 3300
Wire Wire Line
	8350 3800 7900 3800
Connection ~ 7900 3300
Connection ~ 7900 3800
Text Label 2600 1550 0    50   ~ 0
PWRIN
$Comp
L Device:C C32
U 1 1 6292CF2F
P 8800 3550
F 0 "C32" H 8915 3596 50  0000 L CNN
F 1 "100n" H 8915 3505 50  0000 L CNN
F 2 "Capacitor_SMD:C_0805_2012Metric" H 8838 3400 50  0001 C CNN
F 3 "~" H 8800 3550 50  0001 C CNN
	1    8800 3550
	1    0    0    -1  
$EndComp
Wire Wire Line
	8800 3300 8800 3400
Wire Wire Line
	8800 3800 8800 3700
Wire Wire Line
	8350 3300 8800 3300
Wire Wire Line
	8800 3800 8350 3800
Connection ~ 8350 3300
Connection ~ 8350 3800
$EndSCHEMATC
