%TF.GenerationSoftware,KiCad,Pcbnew,5.99.0+really5.1.10+dfsg1-1+b1*%
%TF.CreationDate,2021-10-30T20:58:02+02:00*%
%TF.ProjectId,CPU32,43505533-322e-46b6-9963-61645f706362,rev?*%
%TF.SameCoordinates,Original*%
%TF.FileFunction,Copper,L4,Bot*%
%TF.FilePolarity,Positive*%
%FSLAX46Y46*%
G04 Gerber Fmt 4.6, Leading zero omitted, Abs format (unit mm)*
G04 Created by KiCad (PCBNEW 5.99.0+really5.1.10+dfsg1-1+b1) date 2021-10-30 20:58:02*
%MOMM*%
%LPD*%
G01*
G04 APERTURE LIST*
%TA.AperFunction,ComponentPad*%
%ADD10C,1.300000*%
%TD*%
%TA.AperFunction,ComponentPad*%
%ADD11R,1.300000X1.300000*%
%TD*%
%TA.AperFunction,ComponentPad*%
%ADD12O,1.600000X1.600000*%
%TD*%
%TA.AperFunction,ComponentPad*%
%ADD13R,1.600000X1.600000*%
%TD*%
%TA.AperFunction,ComponentPad*%
%ADD14C,1.700000*%
%TD*%
%TA.AperFunction,ComponentPad*%
%ADD15O,1.700000X1.700000*%
%TD*%
%TA.AperFunction,ComponentPad*%
%ADD16R,1.700000X1.700000*%
%TD*%
%TA.AperFunction,ComponentPad*%
%ADD17C,4.000000*%
%TD*%
%TA.AperFunction,ComponentPad*%
%ADD18C,1.600000*%
%TD*%
%TA.AperFunction,ComponentPad*%
%ADD19R,3.500000X3.500000*%
%TD*%
%TA.AperFunction,ComponentPad*%
%ADD20R,1.200000X1.200000*%
%TD*%
%TA.AperFunction,ComponentPad*%
%ADD21C,1.000000*%
%TD*%
%TA.AperFunction,ViaPad*%
%ADD22C,0.600000*%
%TD*%
%TA.AperFunction,ViaPad*%
%ADD23C,0.700000*%
%TD*%
%TA.AperFunction,Conductor*%
%ADD24C,0.150000*%
%TD*%
%TA.AperFunction,Conductor*%
%ADD25C,1.000000*%
%TD*%
G04 APERTURE END LIST*
D10*
%TO.P,DS1,12*%
%TO.N,~RST*%
X86741000Y-63754000D03*
%TO.P,DS1,11*%
%TO.N,VCC*%
X89281000Y-63754000D03*
%TO.P,DS1,10*%
X91821000Y-63754000D03*
%TO.P,DS1,9*%
%TO.N,GND*%
X94361000Y-63754000D03*
%TO.P,DS1,8*%
X96901000Y-63754000D03*
%TO.P,DS1,7*%
%TO.N,/~CS_disp*%
X99441000Y-63754000D03*
%TO.P,DS1,6*%
%TO.N,SCK*%
X99441000Y-71374000D03*
%TO.P,DS1,5*%
%TO.N,/RS_disp*%
X96901000Y-71374000D03*
%TO.P,DS1,4*%
%TO.N,MOSI*%
X94361000Y-71374000D03*
%TO.P,DS1,3*%
%TO.N,VCC*%
X91821000Y-71374000D03*
%TO.P,DS1,2*%
%TO.N,Net-(DS1-Pad2)*%
X89281000Y-71374000D03*
D11*
%TO.P,DS1,1*%
%TO.N,Net-(DS1-Pad1)*%
X86741000Y-71374000D03*
%TD*%
D12*
%TO.P,RN4,6*%
%TO.N,/~CSBOOT*%
X80010000Y-75565000D03*
%TO.P,RN4,5*%
%TO.N,/~CS1*%
X77470000Y-75565000D03*
%TO.P,RN4,4*%
%TO.N,/~CS_disp*%
X74930000Y-75565000D03*
%TO.P,RN4,3*%
%TO.N,/btn2*%
X72390000Y-75565000D03*
%TO.P,RN4,2*%
%TO.N,/btn1*%
X69850000Y-75565000D03*
D13*
%TO.P,RN4,1*%
%TO.N,VCC*%
X67310000Y-75565000D03*
%TD*%
D12*
%TO.P,RN2,6*%
%TO.N,/~CS0*%
X152273000Y-79121000D03*
%TO.P,RN2,5*%
%TO.N,/MODCLK*%
X152273000Y-76581000D03*
%TO.P,RN2,4*%
%TO.N,/~HALT*%
X152273000Y-74041000D03*
%TO.P,RN2,3*%
%TO.N,Net-(C27-Pad1)*%
X152273000Y-71501000D03*
%TO.P,RN2,2*%
%TO.N,Net-(C28-Pad1)*%
X152273000Y-68961000D03*
D13*
%TO.P,RN2,1*%
%TO.N,VCC*%
X152273000Y-66421000D03*
%TD*%
D14*
%TO.P,SW4,1*%
%TO.N,GND*%
X105918000Y-70866000D03*
%TO.P,SW4,2*%
X105918000Y-64366000D03*
%TO.P,SW4,3*%
%TO.N,/btn2*%
X110418000Y-70866000D03*
%TO.P,SW4,4*%
X110418000Y-64366000D03*
%TD*%
%TO.P,SW3,1*%
%TO.N,GND*%
X75764000Y-70866000D03*
%TO.P,SW3,2*%
X75764000Y-64366000D03*
%TO.P,SW3,3*%
%TO.N,/btn1*%
X80264000Y-70866000D03*
%TO.P,SW3,4*%
X80264000Y-64366000D03*
%TD*%
%TO.P,SW2,1*%
%TO.N,GND*%
X138430000Y-125222000D03*
%TO.P,SW2,2*%
X144930000Y-125222000D03*
%TO.P,SW2,3*%
%TO.N,/~rst_sw*%
X138430000Y-129722000D03*
%TO.P,SW2,4*%
X144930000Y-129722000D03*
%TD*%
D12*
%TO.P,SW1,10*%
%TO.N,/sw5*%
X82296000Y-119253000D03*
%TO.P,SW1,5*%
%TO.N,GND*%
X92456000Y-126873000D03*
%TO.P,SW1,9*%
%TO.N,/sw4*%
X84836000Y-119253000D03*
%TO.P,SW1,4*%
%TO.N,GND*%
X89916000Y-126873000D03*
%TO.P,SW1,8*%
%TO.N,/sw3*%
X87376000Y-119253000D03*
%TO.P,SW1,3*%
%TO.N,GND*%
X87376000Y-126873000D03*
%TO.P,SW1,7*%
%TO.N,/sw2*%
X89916000Y-119253000D03*
%TO.P,SW1,2*%
%TO.N,GND*%
X84836000Y-126873000D03*
%TO.P,SW1,6*%
%TO.N,/sw1*%
X92456000Y-119253000D03*
D13*
%TO.P,SW1,1*%
%TO.N,GND*%
X82296000Y-126873000D03*
%TD*%
D12*
%TO.P,RN3,6*%
%TO.N,/sw1*%
X92456000Y-116078000D03*
%TO.P,RN3,5*%
%TO.N,/sw2*%
X89916000Y-116078000D03*
%TO.P,RN3,4*%
%TO.N,/sw3*%
X87376000Y-116078000D03*
%TO.P,RN3,3*%
%TO.N,/sw4*%
X84836000Y-116078000D03*
%TO.P,RN3,2*%
%TO.N,/sw5*%
X82296000Y-116078000D03*
D13*
%TO.P,RN3,1*%
%TO.N,VCC*%
X79756000Y-116078000D03*
%TD*%
D15*
%TO.P,J2,10*%
%TO.N,/DSO*%
X116586000Y-123317000D03*
%TO.P,J2,9*%
%TO.N,VCC*%
X114046000Y-123317000D03*
%TO.P,J2,8*%
%TO.N,/~IFETCH~_DSI*%
X116586000Y-120777000D03*
%TO.P,J2,7*%
%TO.N,~RST*%
X114046000Y-120777000D03*
%TO.P,J2,6*%
%TO.N,/FREEZE*%
X116586000Y-118237000D03*
%TO.P,J2,5*%
%TO.N,GND*%
X114046000Y-118237000D03*
%TO.P,J2,4*%
%TO.N,/~BKPT*%
X116586000Y-115697000D03*
%TO.P,J2,3*%
%TO.N,GND*%
X114046000Y-115697000D03*
%TO.P,J2,2*%
%TO.N,/~BERR*%
X116586000Y-113157000D03*
D16*
%TO.P,J2,1*%
%TO.N,Net-(J2-Pad1)*%
X114046000Y-113157000D03*
%TD*%
D14*
%TO.P,J3,20*%
%TO.N,VCC*%
X142494000Y-63754000D03*
%TO.P,J3,18*%
%TO.N,/T2CLK*%
X139954000Y-63754000D03*
%TO.P,J3,16*%
%TO.N,/TP15*%
X137414000Y-63754000D03*
%TO.P,J3,14*%
%TO.N,/TP13*%
X134874000Y-63754000D03*
%TO.P,J3,12*%
%TO.N,/TP11*%
X132334000Y-63754000D03*
%TO.P,J3,10*%
%TO.N,/TP9*%
X129794000Y-63754000D03*
%TO.P,J3,8*%
%TO.N,/TP7*%
X127254000Y-63754000D03*
%TO.P,J3,6*%
%TO.N,/TP5*%
X124714000Y-63754000D03*
%TO.P,J3,4*%
%TO.N,/TP3*%
X122174000Y-63754000D03*
%TO.P,J3,2*%
%TO.N,/TP1*%
X119634000Y-63754000D03*
%TO.P,J3,19*%
%TO.N,GND*%
X142494000Y-66294000D03*
%TO.P,J3,17*%
X139954000Y-66294000D03*
%TO.P,J3,15*%
%TO.N,/TP14*%
X137414000Y-66294000D03*
%TO.P,J3,13*%
%TO.N,/TP12*%
X134874000Y-66294000D03*
%TO.P,J3,11*%
%TO.N,/TP10*%
X132334000Y-66294000D03*
%TO.P,J3,9*%
%TO.N,/TP8*%
X129794000Y-66294000D03*
%TO.P,J3,7*%
%TO.N,/TP6*%
X127254000Y-66294000D03*
%TO.P,J3,5*%
%TO.N,/TP4*%
X124714000Y-66294000D03*
%TO.P,J3,3*%
%TO.N,/TP2*%
X122174000Y-66294000D03*
%TO.P,J3,1*%
%TO.N,/TP0*%
%TA.AperFunction,ComponentPad*%
G36*
G01*
X120234000Y-67144000D02*
X119034000Y-67144000D01*
G75*
G02*
X118784000Y-66894000I0J250000D01*
G01*
X118784000Y-65694000D01*
G75*
G02*
X119034000Y-65444000I250000J0D01*
G01*
X120234000Y-65444000D01*
G75*
G02*
X120484000Y-65694000I0J-250000D01*
G01*
X120484000Y-66894000D01*
G75*
G02*
X120234000Y-67144000I-250000J0D01*
G01*
G37*
%TD.AperFunction*%
%TD*%
D17*
%TO.P,J4,0*%
%TO.N,GND*%
X72748000Y-125070000D03*
X72748000Y-100070000D03*
D18*
%TO.P,J4,9*%
%TO.N,Net-(J4-Pad9)*%
X71328000Y-108415000D03*
%TO.P,J4,8*%
%TO.N,Net-(J4-Pad8)*%
X71328000Y-111185000D03*
%TO.P,J4,7*%
%TO.N,Net-(J4-Pad7)*%
X71328000Y-113955000D03*
%TO.P,J4,6*%
%TO.N,Net-(J4-Pad6)*%
X71328000Y-116725000D03*
%TO.P,J4,5*%
%TO.N,GND*%
X74168000Y-107030000D03*
%TO.P,J4,4*%
%TO.N,Net-(J4-Pad4)*%
X74168000Y-109800000D03*
%TO.P,J4,3*%
%TO.N,Net-(J4-Pad3)*%
X74168000Y-112570000D03*
%TO.P,J4,2*%
%TO.N,Net-(J4-Pad2)*%
X74168000Y-115340000D03*
D13*
%TO.P,J4,1*%
%TO.N,Net-(J4-Pad1)*%
X74168000Y-118110000D03*
%TD*%
%TO.P,J1,3*%
%TO.N,N/C*%
%TA.AperFunction,ComponentPad*%
G36*
G01*
X157531000Y-113932000D02*
X157531000Y-115682000D01*
G75*
G02*
X156656000Y-116557000I-875000J0D01*
G01*
X154906000Y-116557000D01*
G75*
G02*
X154031000Y-115682000I0J875000D01*
G01*
X154031000Y-113932000D01*
G75*
G02*
X154906000Y-113057000I875000J0D01*
G01*
X156656000Y-113057000D01*
G75*
G02*
X157531000Y-113932000I0J-875000D01*
G01*
G37*
%TD.AperFunction*%
%TO.P,J1,2*%
%TO.N,GND*%
%TA.AperFunction,ComponentPad*%
G36*
G01*
X160281000Y-118507000D02*
X160281000Y-120507000D01*
G75*
G02*
X159531000Y-121257000I-750000J0D01*
G01*
X158031000Y-121257000D01*
G75*
G02*
X157281000Y-120507000I0J750000D01*
G01*
X157281000Y-118507000D01*
G75*
G02*
X158031000Y-117757000I750000J0D01*
G01*
X159531000Y-117757000D01*
G75*
G02*
X160281000Y-118507000I0J-750000D01*
G01*
G37*
%TD.AperFunction*%
D19*
%TO.P,J1,1*%
%TO.N,/Supply/PWRIN*%
X152781000Y-119507000D03*
%TD*%
D12*
%TO.P,RN1,6*%
%TO.N,/~BERR*%
X120396000Y-113157000D03*
%TO.P,RN1,5*%
%TO.N,/~BKPT*%
X120396000Y-115697000D03*
%TO.P,RN1,4*%
%TO.N,/FREEZE*%
X120396000Y-118237000D03*
%TO.P,RN1,3*%
%TO.N,/~IFETCH~_DSI*%
X120396000Y-120777000D03*
%TO.P,RN1,2*%
%TO.N,/DSO*%
X120396000Y-123317000D03*
D13*
%TO.P,RN1,1*%
%TO.N,VCC*%
X120396000Y-125857000D03*
%TD*%
D20*
%TO.P,Y1,3*%
%TO.N,GND*%
X122012000Y-110527000D03*
X122012000Y-107527000D03*
D21*
%TO.P,Y1,2*%
%TO.N,/XTAL*%
X127762000Y-109977000D03*
%TO.P,Y1,1*%
%TO.N,Net-(C1-Pad1)*%
X127762000Y-108077000D03*
%TD*%
D22*
%TO.N,/~CSBOOT*%
X81661016Y-81788000D03*
X135534594Y-79146594D03*
D23*
%TO.N,VCC*%
X92710000Y-111252000D03*
X145796000Y-76581000D03*
X122174000Y-96901000D03*
X111506000Y-87503000D03*
X104902000Y-86233000D03*
X97282000Y-87503000D03*
X90678000Y-86233000D03*
X122682000Y-89956010D03*
X71120000Y-84455000D03*
X136652000Y-114427000D03*
X130302000Y-122682000D03*
X127000000Y-114681000D03*
X118618000Y-132016500D03*
X147383500Y-111379000D03*
X150241000Y-97853500D03*
X107505500Y-128968500D03*
X107505500Y-130048000D03*
X107505500Y-131127500D03*
X132715000Y-98679000D03*
X125730000Y-106934000D03*
X115316000Y-107823000D03*
X129286000Y-106934000D03*
X122936000Y-83185004D03*
X130175000Y-75438002D03*
X133985000Y-75438002D03*
X138430000Y-75437994D03*
X145034000Y-82550004D03*
X145034000Y-89535000D03*
X118107193Y-77510979D03*
%TO.N,GND*%
X144145000Y-74803000D03*
X92710000Y-109474000D03*
X122047000Y-86741000D03*
X122047000Y-83566000D03*
X99822000Y-124142500D03*
X99822000Y-122542500D03*
X99822000Y-120942500D03*
X99822000Y-119342500D03*
X99822000Y-117742500D03*
X101422000Y-124142500D03*
X101422000Y-122542500D03*
X101422000Y-120942500D03*
X101422000Y-119342500D03*
X101422000Y-117742500D03*
X103022000Y-124142500D03*
X103022000Y-122542500D03*
X103022000Y-120942500D03*
X103022000Y-119342500D03*
X103022000Y-117742500D03*
X104622000Y-124142500D03*
X104622000Y-122542500D03*
X104622000Y-120942500D03*
X104622000Y-119342500D03*
X104622000Y-117742500D03*
X106222000Y-124142500D03*
X106222000Y-122542500D03*
X106222000Y-120942500D03*
X106222000Y-119342500D03*
X106222000Y-117742500D03*
X107822000Y-124142500D03*
X107822000Y-122542500D03*
X107822000Y-120942500D03*
X107822000Y-119342500D03*
X107822000Y-117742500D03*
X145923000Y-86106000D03*
X123825000Y-74930000D03*
X118110000Y-73660000D03*
X123825000Y-98679000D03*
X111506000Y-86233000D03*
X104902000Y-87503000D03*
X97282000Y-86233000D03*
X101092000Y-84963000D03*
X90678000Y-87503000D03*
X122045595Y-90592415D03*
X81788000Y-86995000D03*
X67310000Y-81280000D03*
X137922000Y-122682000D03*
X135382000Y-122682000D03*
X131572000Y-114427000D03*
X125603000Y-117856000D03*
X125603000Y-122047000D03*
X118618000Y-127508000D03*
X144145000Y-98615500D03*
X125476000Y-132016500D03*
X128905000Y-98679000D03*
X133985000Y-98679000D03*
X132207000Y-111506000D03*
X132842000Y-106807000D03*
X104267000Y-101219000D03*
X129499990Y-74803000D03*
X133309990Y-74803000D03*
X137754990Y-74803000D03*
X145923000Y-82931000D03*
X145923000Y-89916000D03*
D22*
%TO.N,/~WR*%
X140335000Y-96139000D03*
X106553000Y-91313000D03*
X106553000Y-98425000D03*
X125476000Y-96901000D03*
%TO.N,/D0*%
X110871000Y-83693000D03*
X139827000Y-80772000D03*
%TO.N,/D1*%
X108839000Y-84327988D03*
X143535090Y-80450990D03*
%TO.N,/D2*%
X110363000Y-88138000D03*
X139899022Y-85532559D03*
%TO.N,/D3*%
X110363000Y-89408000D03*
X141048841Y-85823483D03*
%TO.N,/D4*%
X111506000Y-90043000D03*
X141966181Y-85815979D03*
%TO.N,/D5*%
X111506000Y-88773000D03*
X142678845Y-85452485D03*
%TO.N,/D6*%
X114427000Y-84322968D03*
X138938000Y-82550000D03*
%TO.N,/D7*%
X114427000Y-83058000D03*
X138049000Y-81534000D03*
%TO.N,/D8*%
X90678000Y-83693000D03*
X80899006Y-89281000D03*
X138049000Y-83947000D03*
%TO.N,/D9*%
X90678000Y-84963000D03*
X84836000Y-89535000D03*
X144399000Y-87376000D03*
%TO.N,/D10*%
X90678000Y-88773000D03*
X143383000Y-88011000D03*
%TO.N,/D11*%
X90678000Y-90043000D03*
X142240000Y-88265000D03*
%TO.N,/D12*%
X100076000Y-90043000D03*
X141351000Y-89154000D03*
%TO.N,/D13*%
X101984152Y-89401695D03*
X139954000Y-88138000D03*
%TO.N,/D14*%
X100076000Y-84963000D03*
X138049000Y-84768990D03*
%TO.N,/D15*%
X100330000Y-83693000D03*
X137111652Y-83741352D03*
%TO.N,/A18*%
X114427000Y-78613000D03*
X74549000Y-85725000D03*
X83295178Y-77809011D03*
X123952000Y-78994000D03*
%TO.N,/A0*%
X79883000Y-89281000D03*
X144145000Y-94996000D03*
%TO.N,/A1*%
X87629996Y-76073000D03*
X78994000Y-89281014D03*
%TO.N,/A2*%
X77724000Y-89281000D03*
X86868006Y-77343000D03*
%TO.N,/A3*%
X76454000Y-89281000D03*
X85911996Y-78613000D03*
%TO.N,/A4*%
X75184000Y-89281000D03*
X84250844Y-78902222D03*
%TO.N,/A5*%
X73914000Y-89281000D03*
X80899000Y-77366977D03*
%TO.N,/A7*%
X73152000Y-93853000D03*
X71374000Y-89535000D03*
%TO.N,/A8*%
X114808000Y-94488000D03*
X124446338Y-88995056D03*
%TO.N,/A10*%
X78359000Y-97663000D03*
X78359000Y-82169000D03*
%TO.N,/A11*%
X114300000Y-96393000D03*
X115570000Y-96393000D03*
%TO.N,/A12*%
X114300000Y-95123000D03*
X116910054Y-95122998D03*
X69596000Y-95758000D03*
X69596000Y-92329000D03*
%TO.N,/A13*%
X114300000Y-93853000D03*
X124378212Y-89886178D03*
%TO.N,/A14*%
X114300000Y-92583000D03*
X123823000Y-90687735D03*
%TO.N,/A15*%
X114300000Y-91313000D03*
X122936000Y-90805000D03*
%TO.N,/A16*%
X74549000Y-86995000D03*
X80899000Y-78867000D03*
X119267478Y-86741000D03*
X116367415Y-86233000D03*
%TO.N,/A17*%
X114427000Y-79883000D03*
X74549000Y-81915000D03*
X82042000Y-77724000D03*
X122936000Y-79180990D03*
%TO.N,/A19*%
X114401406Y-77368594D03*
X132334000Y-78571584D03*
%TO.N,/~CS1*%
X101981000Y-82423000D03*
X87630000Y-82423000D03*
X80772000Y-82423000D03*
X133033958Y-79853438D03*
%TO.N,/~CS0*%
X114427000Y-81788000D03*
X133604000Y-80518000D03*
%TO.N,/~RD*%
X120269000Y-99314000D03*
X96266000Y-83058000D03*
X81660994Y-83058000D03*
X127762000Y-81026000D03*
X127508000Y-96266000D03*
X111506000Y-82423000D03*
%TO.N,/FREEZE*%
X116459000Y-110871000D03*
%TO.N,/MODCLK*%
X139192000Y-79883000D03*
%TO.N,/TP12*%
X134620000Y-74803000D03*
%TO.N,/TP10*%
X132080000Y-74803000D03*
%TO.N,/TXD*%
X82804000Y-109156500D03*
X124460000Y-97536000D03*
%TO.N,/RXD*%
X80264000Y-109791500D03*
X125476000Y-98425000D03*
%TO.N,/RS_disp*%
X100584000Y-67691000D03*
%TO.N,/RTS*%
X81534000Y-109156500D03*
X115062000Y-98044000D03*
%TO.N,/CTS*%
X115824000Y-98869500D03*
X84074000Y-108521500D03*
%TO.N,SCK*%
X99441000Y-68961000D03*
%TO.N,~RST*%
X134620000Y-97155000D03*
X151511000Y-97155000D03*
X123317000Y-112649000D03*
%TO.N,/sw1*%
X150241000Y-93726000D03*
%TO.N,/sw2*%
X149351990Y-94361000D03*
%TO.N,/sw3*%
X150241000Y-94996000D03*
%TO.N,/sw4*%
X149352000Y-95631000D03*
%TO.N,/sw5*%
X150241000Y-96266000D03*
%TO.N,/~HALT*%
X137414001Y-79883001D03*
%TO.N,Net-(C27-Pad1)*%
X130302000Y-117411500D03*
X139446000Y-117411500D03*
%TO.N,Net-(R9-Pad2)*%
X139573000Y-119126000D03*
X132842000Y-118109990D03*
%TO.N,/btn2*%
X142240000Y-93853000D03*
X128778000Y-93853000D03*
X128778000Y-76708000D03*
%TO.N,/btn1*%
X128143000Y-77914500D03*
X142875000Y-94488000D03*
X128143000Y-94488000D03*
%TO.N,/led5*%
X139827000Y-104775000D03*
X112776000Y-102997000D03*
%TO.N,/led4*%
X110236000Y-103378004D03*
X140462000Y-105537000D03*
%TO.N,/led3*%
X114046000Y-104775000D03*
X141097000Y-104775000D03*
%TO.N,/led2*%
X141097000Y-103378000D03*
X111506000Y-104775000D03*
%TO.N,/led1*%
X142113000Y-103378000D03*
X108331000Y-104775000D03*
D23*
%TO.N,/Supply/PWRIN*%
X102552500Y-131127500D03*
X102552500Y-130048000D03*
X102552500Y-128968500D03*
%TD*%
D24*
%TO.N,/~CSBOOT*%
X124841000Y-79756000D02*
X125450406Y-79146594D01*
X115570000Y-79756000D02*
X124841000Y-79756000D01*
X125450406Y-79146594D02*
X132943406Y-79146594D01*
X110490000Y-80518000D02*
X114808000Y-80518000D01*
X132943406Y-79146594D02*
X135534594Y-79146594D01*
X114808000Y-80518000D02*
X115570000Y-79756000D01*
X81661016Y-81788000D02*
X109220000Y-81788000D01*
X109220000Y-81788000D02*
X110490000Y-80518000D01*
%TO.N,/~WR*%
X106553000Y-91313000D02*
X106553000Y-98425000D01*
X134239000Y-96139000D02*
X140335000Y-96139000D01*
X133477000Y-96901000D02*
X134239000Y-96139000D01*
X125476000Y-96901000D02*
X133477000Y-96901000D01*
%TO.N,/D0*%
X110871000Y-83693000D02*
X115013060Y-83693000D01*
X124206000Y-82169000D02*
X138430000Y-82169000D01*
X115013060Y-83693000D02*
X116918060Y-81788000D01*
X116918060Y-81788000D02*
X123825000Y-81788000D01*
X123825000Y-81788000D02*
X124206000Y-82169000D01*
X138430000Y-82169000D02*
X139827000Y-80772000D01*
%TO.N,/D1*%
X113537988Y-84327988D02*
X108839000Y-84327988D01*
X114798062Y-84897978D02*
X114107978Y-84897978D01*
X114107978Y-84897978D02*
X113537988Y-84327988D01*
X117146040Y-82550000D02*
X114798062Y-84897978D01*
X123597020Y-82550000D02*
X117146040Y-82550000D01*
X124172021Y-83125001D02*
X123597020Y-82550000D01*
X140861079Y-83125001D02*
X124172021Y-83125001D01*
X143535090Y-80450990D02*
X140861079Y-83125001D01*
%TO.N,/D2*%
X121872705Y-85725000D02*
X122047000Y-85725000D01*
X121285000Y-85725000D02*
X122047000Y-85725000D01*
X119634000Y-87376000D02*
X121285000Y-85725000D01*
X113831030Y-87376000D02*
X119634000Y-87376000D01*
X110363000Y-88138000D02*
X113069030Y-88138000D01*
X113069030Y-88138000D02*
X113831030Y-87376000D01*
X139282317Y-85725000D02*
X139474758Y-85532559D01*
X122047000Y-85725000D02*
X139282317Y-85725000D01*
X139474758Y-85532559D02*
X139899022Y-85532559D01*
%TO.N,/D3*%
X122682000Y-87376000D02*
X123561022Y-86496978D01*
X140375346Y-86496978D02*
X141048841Y-85823483D01*
X113244045Y-88927945D02*
X120241055Y-88927945D01*
X121793000Y-87376000D02*
X122682000Y-87376000D01*
X110363000Y-89408000D02*
X112763990Y-89408000D01*
X112763990Y-89408000D02*
X113244045Y-88927945D01*
X123561022Y-86496978D02*
X140375346Y-86496978D01*
X120241055Y-88927945D02*
X121793000Y-87376000D01*
%TO.N,/D4*%
X120399044Y-89277956D02*
X121950989Y-87726011D01*
X113389024Y-89277956D02*
X120399044Y-89277956D01*
X140907148Y-86875012D02*
X141966181Y-85815979D01*
X122839989Y-87726011D02*
X123690988Y-86875012D01*
X112623980Y-90043000D02*
X113389024Y-89277956D01*
X111506000Y-90043000D02*
X112623980Y-90043000D01*
X123690988Y-86875012D02*
X140907148Y-86875012D01*
X121950989Y-87726011D02*
X122839989Y-87726011D01*
%TO.N,/D5*%
X140855024Y-85090000D02*
X142316360Y-85090000D01*
X140474024Y-85471000D02*
X140855024Y-85090000D01*
X140474024Y-85808561D02*
X140474024Y-85471000D01*
X142316360Y-85090000D02*
X142678845Y-85452485D01*
X140175024Y-86107561D02*
X140474024Y-85808561D01*
X111701066Y-88577934D02*
X119067066Y-88577934D01*
X121537439Y-86107561D02*
X140175024Y-86107561D01*
X119067066Y-88577934D02*
X121537439Y-86107561D01*
X111506000Y-88773000D02*
X111701066Y-88577934D01*
%TO.N,/D6*%
X114878082Y-84322968D02*
X114427000Y-84322968D01*
X117032050Y-82169000D02*
X114878082Y-84322968D01*
X124092010Y-82550000D02*
X123711010Y-82169000D01*
X123711010Y-82169000D02*
X117032050Y-82169000D01*
X138938000Y-82550000D02*
X124092010Y-82550000D01*
%TO.N,/D7*%
X124333000Y-81788000D02*
X131572000Y-81788000D01*
X116804070Y-81407000D02*
X123952000Y-81407000D01*
X114427000Y-83058000D02*
X115153070Y-83058000D01*
X123952000Y-81407000D02*
X124333000Y-81788000D01*
X115153070Y-83058000D02*
X116804070Y-81407000D01*
X131826000Y-81534000D02*
X131572000Y-81788000D01*
X138049000Y-81534000D02*
X131826000Y-81534000D01*
%TO.N,/D8*%
X90678000Y-83693000D02*
X83185000Y-83693000D01*
X80899006Y-89281000D02*
X80899006Y-85978994D01*
X80899006Y-85978994D02*
X83185000Y-83693000D01*
X137391999Y-84604001D02*
X137668000Y-84328000D01*
X116082019Y-84604001D02*
X137391999Y-84604001D01*
X115088020Y-85598000D02*
X116082019Y-84604001D01*
X109855000Y-85090000D02*
X113284000Y-85090000D01*
X137668000Y-84328000D02*
X138049000Y-83947000D01*
X109601000Y-85344000D02*
X109855000Y-85090000D01*
X107696000Y-85344000D02*
X109601000Y-85344000D01*
X106680000Y-84328000D02*
X107696000Y-85344000D01*
X113792000Y-85598000D02*
X115088020Y-85598000D01*
X91313000Y-84328000D02*
X106680000Y-84328000D01*
X113284000Y-85090000D02*
X113792000Y-85598000D01*
X90678000Y-83693000D02*
X91313000Y-84328000D01*
%TO.N,/D9*%
X84836000Y-85852000D02*
X84836000Y-89535000D01*
X85725000Y-84963000D02*
X84836000Y-85852000D01*
X90678000Y-84963000D02*
X85725000Y-84963000D01*
X94107000Y-84963000D02*
X90678000Y-84963000D01*
X96012000Y-86868000D02*
X94107000Y-84963000D01*
X114908980Y-86868000D02*
X96012000Y-86868000D01*
X116432980Y-85344000D02*
X114908980Y-86868000D01*
X131445000Y-85344000D02*
X116432980Y-85344000D01*
X131445000Y-85344000D02*
X139065000Y-85344000D01*
X139065000Y-85344000D02*
X139827000Y-84582000D01*
X139827000Y-84582000D02*
X142748000Y-84582000D01*
X144399000Y-86233000D02*
X144399000Y-87376000D01*
X142748000Y-84582000D02*
X144399000Y-86233000D01*
%TO.N,/D10*%
X108545970Y-88773000D02*
X110416937Y-90643967D01*
X113534003Y-89627967D02*
X120557033Y-89627967D01*
X110416937Y-90643967D02*
X112518003Y-90643967D01*
X122936000Y-88138000D02*
X123825000Y-87249000D01*
X90678000Y-88773000D02*
X108545970Y-88773000D01*
X120557033Y-89627967D02*
X122047000Y-88138000D01*
X112518003Y-90643967D02*
X113534003Y-89627967D01*
X122047000Y-88138000D02*
X122936000Y-88138000D01*
X123825000Y-87249000D02*
X137668000Y-87249000D01*
X137668000Y-87249000D02*
X142621000Y-87249000D01*
X142621000Y-87249000D02*
X143383000Y-88011000D01*
%TO.N,/D11*%
X98806000Y-90043000D02*
X90678000Y-90043000D01*
X99441000Y-89408000D02*
X98806000Y-90043000D01*
X101473000Y-90043000D02*
X100838000Y-89408000D01*
X104902000Y-90043000D02*
X101473000Y-90043000D01*
X104998011Y-89946989D02*
X104902000Y-90043000D01*
X142240000Y-88265000D02*
X141097000Y-88265000D01*
X141097000Y-88265000D02*
X140589000Y-88773000D01*
X140589000Y-88773000D02*
X139700000Y-88773000D01*
X139700000Y-88773000D02*
X138938000Y-88011000D01*
X138938000Y-88011000D02*
X124079000Y-88011000D01*
X124079000Y-88011000D02*
X123190000Y-88900000D01*
X123190000Y-88900000D02*
X122301000Y-88900000D01*
X113823961Y-90327989D02*
X112807961Y-91343989D01*
X122301000Y-88900000D02*
X120873011Y-90327989D01*
X120873011Y-90327989D02*
X113823961Y-90327989D01*
X112807961Y-91343989D02*
X110126979Y-91343989D01*
X100838000Y-89408000D02*
X99441000Y-89408000D01*
X108729979Y-89946989D02*
X104998011Y-89946989D01*
X110126979Y-91343989D02*
X108729979Y-89946989D01*
%TO.N,/D12*%
X139446000Y-89154000D02*
X141351000Y-89154000D01*
X100076000Y-90043000D02*
X100584000Y-90551000D01*
X112952940Y-91694000D02*
X113968940Y-90678000D01*
X100584000Y-90551000D02*
X105029000Y-90551000D01*
X105029000Y-90551000D02*
X105283000Y-90297000D01*
X105283000Y-90297000D02*
X108585000Y-90297000D01*
X109982000Y-91694000D02*
X112952940Y-91694000D01*
X138704405Y-88412405D02*
X139446000Y-89154000D01*
X113968940Y-90678000D02*
X121035008Y-90678000D01*
X108585000Y-90297000D02*
X109982000Y-91694000D01*
X123317000Y-89281000D02*
X124185595Y-88412405D01*
X121035008Y-90678000D02*
X122432008Y-89281000D01*
X122432008Y-89281000D02*
X123317000Y-89281000D01*
X124185595Y-88412405D02*
X138704405Y-88412405D01*
%TO.N,/D13*%
X110271958Y-90993978D02*
X112662982Y-90993978D01*
X139426253Y-87610253D02*
X139954000Y-88138000D01*
X123063000Y-88519000D02*
X123971747Y-87610253D01*
X122187010Y-88519000D02*
X123063000Y-88519000D01*
X120728032Y-89977978D02*
X122187010Y-88519000D01*
X113678982Y-89977978D02*
X120728032Y-89977978D01*
X123971747Y-87610253D02*
X139426253Y-87610253D01*
X101984152Y-89401695D02*
X108679675Y-89401695D01*
X108679675Y-89401695D02*
X110271958Y-90993978D01*
X112662982Y-90993978D02*
X113678982Y-89977978D01*
%TO.N,/D14*%
X115302990Y-85979000D02*
X116318990Y-84963000D01*
X107442000Y-85598000D02*
X107569000Y-85725000D01*
X107569000Y-85725000D02*
X109728000Y-85725000D01*
X109728000Y-85725000D02*
X109982000Y-85471000D01*
X137854990Y-84963000D02*
X138049000Y-84768990D01*
X109982000Y-85471000D02*
X113157000Y-85471000D01*
X113665000Y-85979000D02*
X115302990Y-85979000D01*
X116318990Y-84963000D02*
X137854990Y-84963000D01*
X113157000Y-85471000D02*
X113665000Y-85979000D01*
X100711000Y-85598000D02*
X107442000Y-85598000D01*
X100076000Y-84963000D02*
X100711000Y-85598000D01*
%TO.N,/D15*%
X114943041Y-85247989D02*
X115992379Y-84198651D01*
X136654353Y-84198651D02*
X137111652Y-83741352D01*
X113949989Y-85247989D02*
X114943041Y-85247989D01*
X113411000Y-84709000D02*
X113949989Y-85247989D01*
X109347000Y-84963000D02*
X109601000Y-84709000D01*
X115992379Y-84198651D02*
X136654353Y-84198651D01*
X109601000Y-84709000D02*
X113411000Y-84709000D01*
X108077000Y-84963000D02*
X109347000Y-84963000D01*
X106807000Y-83693000D02*
X108077000Y-84963000D01*
X100330000Y-83693000D02*
X106807000Y-83693000D01*
%TO.N,/A18*%
X74549000Y-82931000D02*
X79188002Y-78291998D01*
X81175002Y-78291998D02*
X81369004Y-78486000D01*
X74549000Y-85725000D02*
X74549000Y-82931000D01*
X79188002Y-78291998D02*
X81175002Y-78291998D01*
X82618189Y-78486000D02*
X83295178Y-77809011D01*
X81369004Y-78486000D02*
X82618189Y-78486000D01*
X114427000Y-78613000D02*
X114434011Y-78605989D01*
X114434011Y-78605989D02*
X123563989Y-78605989D01*
X123563989Y-78605989D02*
X123952000Y-78994000D01*
%TO.N,/A0*%
X80772000Y-90932000D02*
X79883000Y-90043000D01*
X105537000Y-90932000D02*
X80772000Y-90932000D01*
X79883000Y-90043000D02*
X79883000Y-89281000D01*
X105791000Y-90678000D02*
X105537000Y-90932000D01*
X107442000Y-90678000D02*
X105791000Y-90678000D01*
X112522000Y-95758000D02*
X107442000Y-90678000D01*
X123698000Y-95758000D02*
X112522000Y-95758000D01*
X124206000Y-95250000D02*
X123698000Y-95758000D01*
X143891000Y-95250000D02*
X124206000Y-95250000D01*
X144145000Y-94996000D02*
X143891000Y-95250000D01*
%TO.N,/A1*%
X87629996Y-76073000D02*
X87629996Y-78307997D01*
X87629996Y-78307997D02*
X85304711Y-80633282D01*
X85304711Y-80633282D02*
X81291718Y-80633282D01*
X81291718Y-80633282D02*
X78994000Y-82931000D01*
X78994000Y-82931000D02*
X78994000Y-89281014D01*
%TO.N,/A2*%
X77724000Y-89281000D02*
X77724000Y-81915000D01*
X77724000Y-81915000D02*
X79400991Y-80238009D01*
X79400991Y-80238009D02*
X85204994Y-80238009D01*
X85204994Y-80238009D02*
X86868006Y-78574997D01*
X86868006Y-78574997D02*
X86868006Y-77343000D01*
%TO.N,/A3*%
X84661653Y-79863343D02*
X85911996Y-78613000D01*
X76454000Y-89281000D02*
X76454000Y-82650980D01*
X79241637Y-79863343D02*
X84661653Y-79863343D01*
X76454000Y-82650980D02*
X79241637Y-79863343D01*
%TO.N,/A4*%
X83711064Y-79442002D02*
X84250844Y-78902222D01*
X79167988Y-79442002D02*
X83711064Y-79442002D01*
X75661010Y-82948980D02*
X79167988Y-79442002D01*
X75661010Y-86898990D02*
X75661010Y-82948980D01*
X75184000Y-87376000D02*
X75661010Y-86898990D01*
X75184000Y-89281000D02*
X75184000Y-87376000D01*
%TO.N,/A5*%
X73914000Y-81698998D02*
X78246021Y-77366977D01*
X73914000Y-89281000D02*
X73914000Y-81698998D01*
X78246021Y-77366977D02*
X80899000Y-77366977D01*
%TO.N,/A7*%
X73152000Y-91313000D02*
X71374000Y-89535000D01*
X73152000Y-93853000D02*
X73152000Y-91313000D01*
%TO.N,/A8*%
X124953213Y-89501931D02*
X124446338Y-88995056D01*
X124953213Y-91200787D02*
X124953213Y-89501931D01*
X121666000Y-94488000D02*
X124953213Y-91200787D01*
X114808000Y-94488000D02*
X121666000Y-94488000D01*
%TO.N,/A10*%
X78359000Y-97663000D02*
X78359000Y-82169000D01*
%TO.N,/A11*%
X114300000Y-96393000D02*
X115570000Y-96393000D01*
%TO.N,/A12*%
X116910052Y-95123000D02*
X116910054Y-95122998D01*
X114300000Y-95123000D02*
X116910052Y-95123000D01*
X69596000Y-95758000D02*
X69596000Y-92329000D01*
%TO.N,/A13*%
X114300000Y-93853000D02*
X121779990Y-93853000D01*
X124398001Y-89905967D02*
X124378212Y-89886178D01*
X121779990Y-93853000D02*
X124398001Y-91234989D01*
X124398001Y-91234989D02*
X124398001Y-89905967D01*
%TO.N,/A14*%
X123823000Y-91315000D02*
X123823000Y-90687735D01*
X114300000Y-92583000D02*
X122555000Y-92583000D01*
X122555000Y-92583000D02*
X123823000Y-91315000D01*
%TO.N,/A15*%
X114300000Y-91313000D02*
X122428000Y-91313000D01*
X122428000Y-91313000D02*
X122936000Y-90805000D01*
%TO.N,/A16*%
X74549000Y-86995000D02*
X75311000Y-86233000D01*
X75311000Y-86233000D02*
X75311000Y-82804000D01*
X75311000Y-82804000D02*
X79248000Y-78867000D01*
X79248000Y-78867000D02*
X80899000Y-78867000D01*
X118759478Y-86233000D02*
X116367415Y-86233000D01*
X119267478Y-86741000D02*
X118759478Y-86233000D01*
%TO.N,/A17*%
X74549000Y-81915000D02*
X78522012Y-77941988D01*
X81824012Y-77941988D02*
X82042000Y-77724000D01*
X78522012Y-77941988D02*
X81824012Y-77941988D01*
X115129010Y-79180990D02*
X122936000Y-79180990D01*
X114427000Y-79883000D02*
X115129010Y-79180990D01*
%TO.N,/A19*%
X126873000Y-78232000D02*
X127212584Y-78571584D01*
X115264812Y-78232000D02*
X126873000Y-78232000D01*
X127212584Y-78571584D02*
X132334000Y-78571584D01*
X114401406Y-77368594D02*
X115264812Y-78232000D01*
%TO.N,/~CS1*%
X87630000Y-82423000D02*
X80772000Y-82423000D01*
X131953000Y-79756000D02*
X132080000Y-79756000D01*
X131953000Y-79756000D02*
X132936520Y-79756000D01*
X132936520Y-79756000D02*
X133033958Y-79853438D01*
X115824000Y-80137000D02*
X125222000Y-80137000D01*
X115062000Y-80899000D02*
X115824000Y-80137000D01*
X110744000Y-80899000D02*
X115062000Y-80899000D01*
X125222000Y-80137000D02*
X125603000Y-79756000D01*
X109220000Y-82423000D02*
X110744000Y-80899000D01*
X125603000Y-79756000D02*
X131953000Y-79756000D01*
X101981000Y-82423000D02*
X109220000Y-82423000D01*
%TO.N,/~CS0*%
X116730979Y-80487011D02*
X115429990Y-81788000D01*
X125506989Y-80487011D02*
X116730979Y-80487011D01*
X125857000Y-80137000D02*
X125506989Y-80487011D01*
X115429990Y-81788000D02*
X114427000Y-81788000D01*
X131381500Y-80137000D02*
X125857000Y-80137000D01*
X131762500Y-80518000D02*
X131381500Y-80137000D01*
X133604000Y-80518000D02*
X131762500Y-80518000D01*
%TO.N,/~RD*%
X96266000Y-83058000D02*
X81660994Y-83058000D01*
X120269000Y-99314000D02*
X120777000Y-99314000D01*
X120777000Y-99314000D02*
X123825000Y-96266000D01*
X123825000Y-96266000D02*
X127508000Y-96266000D01*
X116690080Y-81026000D02*
X127762000Y-81026000D01*
X115293080Y-82423000D02*
X116690080Y-81026000D01*
X111506000Y-82423000D02*
X115293080Y-82423000D01*
%TO.N,/FREEZE*%
X115316000Y-116967000D02*
X115316000Y-112014000D01*
X115316000Y-112014000D02*
X116459000Y-110871000D01*
X116586000Y-118237000D02*
X115316000Y-116967000D01*
%TO.N,/MODCLK*%
X150241000Y-76581000D02*
X152273000Y-76581000D01*
X148971000Y-77851000D02*
X150241000Y-76581000D01*
X141224000Y-77851000D02*
X148971000Y-77851000D01*
X139192000Y-79883000D02*
X141224000Y-77851000D01*
%TO.N,/TP12*%
X134874000Y-70993000D02*
X134874000Y-66294000D01*
X134620000Y-71247000D02*
X134874000Y-70993000D01*
X134620000Y-74803000D02*
X134620000Y-71247000D01*
%TO.N,/TP10*%
X132334000Y-70993000D02*
X132334000Y-66294000D01*
X132080000Y-71247000D02*
X132334000Y-70993000D01*
X132080000Y-74803000D02*
X132080000Y-71247000D01*
%TO.N,/TXD*%
X120599510Y-100012500D02*
X123076010Y-97536000D01*
X82804000Y-109156500D02*
X88519000Y-109156500D01*
X97663000Y-100012500D02*
X120599510Y-100012500D01*
X88519000Y-109156500D02*
X97663000Y-100012500D01*
X123076010Y-97536000D02*
X124460000Y-97536000D01*
%TO.N,/RXD*%
X124497998Y-98425000D02*
X124116998Y-98044000D01*
X88392000Y-109791500D02*
X80264000Y-109791500D01*
X97790000Y-100393500D02*
X88392000Y-109791500D01*
X120713500Y-100393500D02*
X97790000Y-100393500D01*
X124116998Y-98044000D02*
X123063000Y-98044000D01*
X123063000Y-98044000D02*
X120713500Y-100393500D01*
X125476000Y-98425000D02*
X124497998Y-98425000D01*
%TO.N,/RS_disp*%
X98171000Y-67691000D02*
X100584000Y-67691000D01*
X96901000Y-68961000D02*
X98171000Y-67691000D01*
X96901000Y-71374000D02*
X96901000Y-68961000D01*
%TO.N,/RTS*%
X113824511Y-99281489D02*
X115062000Y-98044000D01*
X97378011Y-99281489D02*
X113824511Y-99281489D01*
X88773000Y-107886500D02*
X97378011Y-99281489D01*
X82804000Y-107886500D02*
X88773000Y-107886500D01*
X81534000Y-109156500D02*
X82804000Y-107886500D01*
%TO.N,/CTS*%
X88646000Y-108521500D02*
X84074000Y-108521500D01*
X97536000Y-99631500D02*
X88646000Y-108521500D01*
X115062000Y-99631500D02*
X97536000Y-99631500D01*
X115824000Y-98869500D02*
X115062000Y-99631500D01*
%TO.N,SCK*%
X99441000Y-68961000D02*
X99441000Y-71374000D01*
%TO.N,~RST*%
X134620000Y-97155000D02*
X151511000Y-97155000D01*
X114046000Y-120777000D02*
X115316000Y-122047000D01*
X115316000Y-122047000D02*
X122555000Y-122047000D01*
X122555000Y-122047000D02*
X123317000Y-121285000D01*
X123317000Y-121285000D02*
X123317000Y-112649000D01*
%TO.N,/sw1*%
X107061000Y-102362000D02*
X94865960Y-114557040D01*
X153863541Y-100326959D02*
X151828500Y-102362000D01*
X153863541Y-96194081D02*
X153863541Y-100326959D01*
X151395460Y-93726000D02*
X153863541Y-96194081D01*
X150241000Y-93726000D02*
X151395460Y-93726000D01*
X151828500Y-102362000D02*
X107061000Y-102362000D01*
X92456000Y-116078000D02*
X92456000Y-115062000D01*
X92456000Y-115062000D02*
X92960960Y-114557040D01*
X94865960Y-114557040D02*
X92960960Y-114557040D01*
%TO.N,/sw2*%
X89916000Y-115062000D02*
X89916000Y-116078000D01*
X90770967Y-114207033D02*
X89916000Y-115062000D01*
X106916021Y-102011989D02*
X94720977Y-114207033D01*
X94720977Y-114207033D02*
X90770967Y-114207033D01*
X151607011Y-102011989D02*
X106916021Y-102011989D01*
X153513530Y-100105470D02*
X151607011Y-102011989D01*
X151535470Y-94361000D02*
X153513530Y-96339064D01*
X153513530Y-96339064D02*
X153513530Y-100105470D01*
X149351990Y-94361000D02*
X151535470Y-94361000D01*
%TO.N,/sw3*%
X153163519Y-96484042D02*
X151675477Y-94996000D01*
X151449022Y-101661978D02*
X153163519Y-99947481D01*
X153163519Y-99947481D02*
X153163519Y-96484042D01*
X106771041Y-101661979D02*
X151449022Y-101661978D01*
X151675477Y-94996000D02*
X150241000Y-94996000D01*
X94575998Y-113857022D02*
X106771041Y-101661979D01*
X88580978Y-113857022D02*
X94575998Y-113857022D01*
X87376000Y-115062000D02*
X88580978Y-113857022D01*
X87376000Y-116078000D02*
X87376000Y-115062000D01*
%TO.N,/sw4*%
X152813508Y-96629021D02*
X151815487Y-95631000D01*
X152813508Y-99789492D02*
X152813508Y-96629021D01*
X151815487Y-95631000D02*
X149352000Y-95631000D01*
X151291031Y-101311969D02*
X152813508Y-99789492D01*
X106626061Y-101311969D02*
X151291031Y-101311969D01*
X94431018Y-113507012D02*
X106626061Y-101311969D01*
X86390988Y-113507012D02*
X94431018Y-113507012D01*
X84836000Y-115062000D02*
X86390988Y-113507012D01*
X84836000Y-116078000D02*
X84836000Y-115062000D01*
%TO.N,/sw5*%
X152463497Y-96774000D02*
X151955497Y-96266000D01*
X152463497Y-99504503D02*
X152463497Y-96774000D01*
X151955497Y-96266000D02*
X150241000Y-96266000D01*
X106429042Y-100961958D02*
X151006042Y-100961958D01*
X94234002Y-113156998D02*
X106429042Y-100961958D01*
X84201002Y-113156998D02*
X94234002Y-113156998D01*
X82296000Y-115062000D02*
X84201002Y-113156998D01*
X151006042Y-100961958D02*
X152463497Y-99504503D01*
X82296000Y-116078000D02*
X82296000Y-115062000D01*
%TO.N,/~HALT*%
X150241000Y-74041000D02*
X152273000Y-74041000D01*
X148463000Y-75819000D02*
X150241000Y-74041000D01*
X141478002Y-75819000D02*
X148463000Y-75819000D01*
X137414001Y-79883001D02*
X141478002Y-75819000D01*
%TO.N,Net-(C27-Pad1)*%
X130302000Y-117411500D02*
X139446000Y-117411500D01*
%TO.N,Net-(R9-Pad2)*%
X139573000Y-119126000D02*
X133858010Y-119126000D01*
X133858010Y-119126000D02*
X132842000Y-118109990D01*
%TO.N,/btn2*%
X110418000Y-70866000D02*
X110418000Y-64366000D01*
X142240000Y-93853000D02*
X128778000Y-93853000D01*
X128778000Y-76708000D02*
X128778000Y-75946000D01*
X128778000Y-75946000D02*
X123698000Y-70866000D01*
X123698000Y-70866000D02*
X110418000Y-70866000D01*
%TO.N,/btn1*%
X128143000Y-77914500D02*
X128143000Y-76517500D01*
X128143000Y-76517500D02*
X124396500Y-72771000D01*
X82169000Y-72771000D02*
X80264000Y-70866000D01*
X124396500Y-72771000D02*
X82169000Y-72771000D01*
X142875000Y-94488000D02*
X128143000Y-94488000D01*
%TO.N,/led5*%
X108399071Y-102801929D02*
X110910402Y-102801929D01*
X107061000Y-104140000D02*
X108399071Y-102801929D01*
X110910402Y-102801929D02*
X111105473Y-102997000D01*
X107061000Y-105283000D02*
X107061000Y-104140000D01*
X107569000Y-105791000D02*
X107061000Y-105283000D01*
X114681000Y-105791000D02*
X107569000Y-105791000D01*
X111105473Y-102997000D02*
X112776000Y-102997000D01*
X139319000Y-104267000D02*
X116205000Y-104267000D01*
X116205000Y-104267000D02*
X114681000Y-105791000D01*
X139827000Y-104775000D02*
X139319000Y-104267000D01*
%TO.N,/led4*%
X140462000Y-104558998D02*
X140462000Y-105537000D01*
X139789002Y-103886000D02*
X140462000Y-104558998D01*
X115951000Y-103886000D02*
X139789002Y-103886000D01*
X114427000Y-105410000D02*
X115951000Y-103886000D01*
X107950000Y-105410000D02*
X114427000Y-105410000D01*
X107442000Y-104902000D02*
X107950000Y-105410000D01*
X107442000Y-104267000D02*
X107442000Y-104902000D01*
X108330996Y-103378004D02*
X107442000Y-104267000D01*
X110236000Y-103378004D02*
X108330996Y-103378004D01*
%TO.N,/led3*%
X115316000Y-103505000D02*
X114046000Y-104775000D01*
X140251264Y-103505000D02*
X115316000Y-103505000D01*
X141097000Y-104350736D02*
X140251264Y-103505000D01*
X141097000Y-104775000D02*
X141097000Y-104350736D01*
%TO.N,/led2*%
X114427000Y-103124000D02*
X112776000Y-104775000D01*
X140843000Y-103124000D02*
X114427000Y-103124000D01*
X141097000Y-103378000D02*
X140843000Y-103124000D01*
X112776000Y-104775000D02*
X111506000Y-104775000D01*
%TO.N,/led1*%
X109011999Y-104094001D02*
X108331000Y-104775000D01*
X142113000Y-103378000D02*
X141478000Y-102743000D01*
X114173000Y-102743000D02*
X112821999Y-104094001D01*
X141478000Y-102743000D02*
X114173000Y-102743000D01*
X112821999Y-104094001D02*
X109011999Y-104094001D01*
D25*
%TO.N,/Supply/PWRIN*%
X104584500Y-133159500D02*
X102552500Y-131127500D01*
X102552500Y-130048000D02*
X102552500Y-131127500D01*
X102552500Y-128968500D02*
X102552500Y-130048000D01*
X147955000Y-133159500D02*
X104584500Y-133159500D01*
X152781000Y-128333500D02*
X147955000Y-133159500D01*
X152781000Y-119507000D02*
X152781000Y-128333500D01*
%TD*%
M02*
