%TF.GenerationSoftware,KiCad,Pcbnew,5.99.0+really5.1.10+dfsg1-1+b1*%
%TF.CreationDate,2021-10-30T20:58:02+02:00*%
%TF.ProjectId,CPU32,43505533-322e-46b6-9963-61645f706362,rev?*%
%TF.SameCoordinates,Original*%
%TF.FileFunction,Profile,NP*%
%FSLAX46Y46*%
G04 Gerber Fmt 4.6, Leading zero omitted, Abs format (unit mm)*
G04 Created by KiCad (PCBNEW 5.99.0+really5.1.10+dfsg1-1+b1) date 2021-10-30 20:58:02*
%MOMM*%
%LPD*%
G01*
G04 APERTURE LIST*
%TA.AperFunction,Profile*%
%ADD10C,0.100000*%
%TD*%
G04 APERTURE END LIST*
D10*
X162941000Y-134366000D02*
X63500000Y-134366000D01*
X63500000Y-60071000D02*
X162941000Y-60071000D01*
X63500000Y-60071000D02*
X63500000Y-134366000D01*
X162941000Y-60071000D02*
X162941000Y-134366000D01*
M02*
