%TF.GenerationSoftware,KiCad,Pcbnew,5.99.0+really5.1.10+dfsg1-1+b1*%
%TF.CreationDate,2021-10-30T20:58:02+02:00*%
%TF.ProjectId,CPU32,43505533-322e-46b6-9963-61645f706362,rev?*%
%TF.SameCoordinates,Original*%
%TF.FileFunction,Paste,Top*%
%TF.FilePolarity,Positive*%
%FSLAX46Y46*%
G04 Gerber Fmt 4.6, Leading zero omitted, Abs format (unit mm)*
G04 Created by KiCad (PCBNEW 5.99.0+really5.1.10+dfsg1-1+b1) date 2021-10-30 20:58:02*
%MOMM*%
%LPD*%
G01*
G04 APERTURE LIST*
%ADD10R,1.635000X0.380000*%
%ADD11R,0.380000X1.635000*%
%ADD12R,1.300000X1.700000*%
%ADD13R,1.000000X1.400000*%
%ADD14R,1.200000X1.400000*%
%ADD15R,5.250000X4.550000*%
%ADD16R,1.100000X4.600000*%
G04 APERTURE END LIST*
D10*
%TO.C,U2*%
X120585000Y-76581000D03*
X120585000Y-77216000D03*
X120585000Y-77851000D03*
X120585000Y-78486000D03*
X120585000Y-79121000D03*
X120585000Y-79756000D03*
X120585000Y-80391000D03*
X120585000Y-81026000D03*
X120585000Y-81661000D03*
X120585000Y-82296000D03*
X120585000Y-82931000D03*
X120585000Y-83566000D03*
X120585000Y-84201000D03*
X120585000Y-84836000D03*
X120585000Y-85471000D03*
X120585000Y-86106000D03*
X120585000Y-86741000D03*
X120585000Y-87376000D03*
X120585000Y-88011000D03*
X120585000Y-88646000D03*
X120585000Y-89281000D03*
X120585000Y-89916000D03*
X120585000Y-90551000D03*
X120585000Y-91186000D03*
X120585000Y-91821000D03*
X120585000Y-92456000D03*
X120585000Y-93091000D03*
X120585000Y-93726000D03*
X120585000Y-94361000D03*
X120585000Y-94996000D03*
X120585000Y-95631000D03*
X120585000Y-96266000D03*
X120585000Y-96901000D03*
X147385000Y-96901000D03*
X147385000Y-96266000D03*
X147385000Y-95631000D03*
X147385000Y-94996000D03*
X147385000Y-94361000D03*
X147385000Y-93726000D03*
X147385000Y-93091000D03*
X147385000Y-92456000D03*
X147385000Y-91821000D03*
X147385000Y-91186000D03*
X147385000Y-90551000D03*
X147385000Y-89916000D03*
X147385000Y-89281000D03*
X147385000Y-88646000D03*
X147385000Y-88011000D03*
X147385000Y-87376000D03*
X147385000Y-86741000D03*
X147385000Y-86106000D03*
X147385000Y-85471000D03*
X147385000Y-84836000D03*
X147385000Y-84201000D03*
X147385000Y-83566000D03*
X147385000Y-82931000D03*
X147385000Y-82296000D03*
X147385000Y-81661000D03*
X147385000Y-81026000D03*
X147385000Y-80391000D03*
X147385000Y-79756000D03*
X147385000Y-79121000D03*
X147385000Y-78486000D03*
X147385000Y-77851000D03*
X147385000Y-77216000D03*
X147385000Y-76581000D03*
D11*
X123825000Y-100141000D03*
X124460000Y-100141000D03*
X125095000Y-100141000D03*
X125730000Y-100141000D03*
X126365000Y-100141000D03*
X127000000Y-100141000D03*
X127635000Y-100141000D03*
X128270000Y-100141000D03*
X128905000Y-100141000D03*
X129540000Y-100141000D03*
X130175000Y-100141000D03*
X130810000Y-100141000D03*
X131445000Y-100141000D03*
X132080000Y-100141000D03*
X132715000Y-100141000D03*
X133350000Y-100141000D03*
X133985000Y-100141000D03*
X134620000Y-100141000D03*
X135255000Y-100141000D03*
X135890000Y-100141000D03*
X136525000Y-100141000D03*
X137160000Y-100141000D03*
X137795000Y-100141000D03*
X138430000Y-100141000D03*
X139065000Y-100141000D03*
X139700000Y-100141000D03*
X140335000Y-100141000D03*
X140970000Y-100141000D03*
X141605000Y-100141000D03*
X142240000Y-100141000D03*
X142875000Y-100141000D03*
X143510000Y-100141000D03*
X144145000Y-100141000D03*
X144145000Y-73341000D03*
X143510000Y-73341000D03*
X142875000Y-73341000D03*
X142240000Y-73341000D03*
X141605000Y-73341000D03*
X140970000Y-73341000D03*
X140335000Y-73341000D03*
X139700000Y-73341000D03*
X139065000Y-73341000D03*
X138430000Y-73341000D03*
X137795000Y-73341000D03*
X137160000Y-73341000D03*
X136525000Y-73341000D03*
X135890000Y-73341000D03*
X135255000Y-73341000D03*
X134620000Y-73341000D03*
X133985000Y-73341000D03*
X133350000Y-73341000D03*
X132715000Y-73341000D03*
X132080000Y-73341000D03*
X131445000Y-73341000D03*
X130810000Y-73341000D03*
X130175000Y-73341000D03*
X129540000Y-73341000D03*
X128905000Y-73341000D03*
X128270000Y-73341000D03*
X127635000Y-73341000D03*
X127000000Y-73341000D03*
X126365000Y-73341000D03*
X125730000Y-73341000D03*
X125095000Y-73341000D03*
X124460000Y-73341000D03*
X123825000Y-73341000D03*
%TD*%
%TO.C,C34*%
G36*
G01*
X72865000Y-71686000D02*
X71915000Y-71686000D01*
G75*
G02*
X71665000Y-71436000I0J250000D01*
G01*
X71665000Y-70936000D01*
G75*
G02*
X71915000Y-70686000I250000J0D01*
G01*
X72865000Y-70686000D01*
G75*
G02*
X73115000Y-70936000I0J-250000D01*
G01*
X73115000Y-71436000D01*
G75*
G02*
X72865000Y-71686000I-250000J0D01*
G01*
G37*
G36*
G01*
X72865000Y-73586000D02*
X71915000Y-73586000D01*
G75*
G02*
X71665000Y-73336000I0J250000D01*
G01*
X71665000Y-72836000D01*
G75*
G02*
X71915000Y-72586000I250000J0D01*
G01*
X72865000Y-72586000D01*
G75*
G02*
X73115000Y-72836000I0J-250000D01*
G01*
X73115000Y-73336000D01*
G75*
G02*
X72865000Y-73586000I-250000J0D01*
G01*
G37*
%TD*%
%TO.C,C33*%
G36*
G01*
X70325000Y-71686000D02*
X69375000Y-71686000D01*
G75*
G02*
X69125000Y-71436000I0J250000D01*
G01*
X69125000Y-70936000D01*
G75*
G02*
X69375000Y-70686000I250000J0D01*
G01*
X70325000Y-70686000D01*
G75*
G02*
X70575000Y-70936000I0J-250000D01*
G01*
X70575000Y-71436000D01*
G75*
G02*
X70325000Y-71686000I-250000J0D01*
G01*
G37*
G36*
G01*
X70325000Y-73586000D02*
X69375000Y-73586000D01*
G75*
G02*
X69125000Y-73336000I0J250000D01*
G01*
X69125000Y-72836000D01*
G75*
G02*
X69375000Y-72586000I250000J0D01*
G01*
X70325000Y-72586000D01*
G75*
G02*
X70575000Y-72836000I0J-250000D01*
G01*
X70575000Y-73336000D01*
G75*
G02*
X70325000Y-73586000I-250000J0D01*
G01*
G37*
%TD*%
%TO.C,C32*%
G36*
G01*
X137254000Y-104452000D02*
X136304000Y-104452000D01*
G75*
G02*
X136054000Y-104202000I0J250000D01*
G01*
X136054000Y-103702000D01*
G75*
G02*
X136304000Y-103452000I250000J0D01*
G01*
X137254000Y-103452000D01*
G75*
G02*
X137504000Y-103702000I0J-250000D01*
G01*
X137504000Y-104202000D01*
G75*
G02*
X137254000Y-104452000I-250000J0D01*
G01*
G37*
G36*
G01*
X137254000Y-106352000D02*
X136304000Y-106352000D01*
G75*
G02*
X136054000Y-106102000I0J250000D01*
G01*
X136054000Y-105602000D01*
G75*
G02*
X136304000Y-105352000I250000J0D01*
G01*
X137254000Y-105352000D01*
G75*
G02*
X137504000Y-105602000I0J-250000D01*
G01*
X137504000Y-106102000D01*
G75*
G02*
X137254000Y-106352000I-250000J0D01*
G01*
G37*
%TD*%
%TO.C,R13*%
G36*
G01*
X104844002Y-106661000D02*
X103943998Y-106661000D01*
G75*
G02*
X103694000Y-106411002I0J249998D01*
G01*
X103694000Y-105885998D01*
G75*
G02*
X103943998Y-105636000I249998J0D01*
G01*
X104844002Y-105636000D01*
G75*
G02*
X105094000Y-105885998I0J-249998D01*
G01*
X105094000Y-106411002D01*
G75*
G02*
X104844002Y-106661000I-249998J0D01*
G01*
G37*
G36*
G01*
X104844002Y-108486000D02*
X103943998Y-108486000D01*
G75*
G02*
X103694000Y-108236002I0J249998D01*
G01*
X103694000Y-107710998D01*
G75*
G02*
X103943998Y-107461000I249998J0D01*
G01*
X104844002Y-107461000D01*
G75*
G02*
X105094000Y-107710998I0J-249998D01*
G01*
X105094000Y-108236002D01*
G75*
G02*
X104844002Y-108486000I-249998J0D01*
G01*
G37*
%TD*%
%TO.C,R14*%
G36*
G01*
X102685002Y-106661000D02*
X101784998Y-106661000D01*
G75*
G02*
X101535000Y-106411002I0J249998D01*
G01*
X101535000Y-105885998D01*
G75*
G02*
X101784998Y-105636000I249998J0D01*
G01*
X102685002Y-105636000D01*
G75*
G02*
X102935000Y-105885998I0J-249998D01*
G01*
X102935000Y-106411002D01*
G75*
G02*
X102685002Y-106661000I-249998J0D01*
G01*
G37*
G36*
G01*
X102685002Y-108486000D02*
X101784998Y-108486000D01*
G75*
G02*
X101535000Y-108236002I0J249998D01*
G01*
X101535000Y-107710998D01*
G75*
G02*
X101784998Y-107461000I249998J0D01*
G01*
X102685002Y-107461000D01*
G75*
G02*
X102935000Y-107710998I0J-249998D01*
G01*
X102935000Y-108236002D01*
G75*
G02*
X102685002Y-108486000I-249998J0D01*
G01*
G37*
%TD*%
%TO.C,R15*%
G36*
G01*
X100526002Y-106661000D02*
X99625998Y-106661000D01*
G75*
G02*
X99376000Y-106411002I0J249998D01*
G01*
X99376000Y-105885998D01*
G75*
G02*
X99625998Y-105636000I249998J0D01*
G01*
X100526002Y-105636000D01*
G75*
G02*
X100776000Y-105885998I0J-249998D01*
G01*
X100776000Y-106411002D01*
G75*
G02*
X100526002Y-106661000I-249998J0D01*
G01*
G37*
G36*
G01*
X100526002Y-108486000D02*
X99625998Y-108486000D01*
G75*
G02*
X99376000Y-108236002I0J249998D01*
G01*
X99376000Y-107710998D01*
G75*
G02*
X99625998Y-107461000I249998J0D01*
G01*
X100526002Y-107461000D01*
G75*
G02*
X100776000Y-107710998I0J-249998D01*
G01*
X100776000Y-108236002D01*
G75*
G02*
X100526002Y-108486000I-249998J0D01*
G01*
G37*
%TD*%
%TO.C,R16*%
G36*
G01*
X98367002Y-106661000D02*
X97466998Y-106661000D01*
G75*
G02*
X97217000Y-106411002I0J249998D01*
G01*
X97217000Y-105885998D01*
G75*
G02*
X97466998Y-105636000I249998J0D01*
G01*
X98367002Y-105636000D01*
G75*
G02*
X98617000Y-105885998I0J-249998D01*
G01*
X98617000Y-106411002D01*
G75*
G02*
X98367002Y-106661000I-249998J0D01*
G01*
G37*
G36*
G01*
X98367002Y-108486000D02*
X97466998Y-108486000D01*
G75*
G02*
X97217000Y-108236002I0J249998D01*
G01*
X97217000Y-107710998D01*
G75*
G02*
X97466998Y-107461000I249998J0D01*
G01*
X98367002Y-107461000D01*
G75*
G02*
X98617000Y-107710998I0J-249998D01*
G01*
X98617000Y-108236002D01*
G75*
G02*
X98367002Y-108486000I-249998J0D01*
G01*
G37*
%TD*%
%TO.C,R17*%
G36*
G01*
X96208002Y-106661000D02*
X95307998Y-106661000D01*
G75*
G02*
X95058000Y-106411002I0J249998D01*
G01*
X95058000Y-105885998D01*
G75*
G02*
X95307998Y-105636000I249998J0D01*
G01*
X96208002Y-105636000D01*
G75*
G02*
X96458000Y-105885998I0J-249998D01*
G01*
X96458000Y-106411002D01*
G75*
G02*
X96208002Y-106661000I-249998J0D01*
G01*
G37*
G36*
G01*
X96208002Y-108486000D02*
X95307998Y-108486000D01*
G75*
G02*
X95058000Y-108236002I0J249998D01*
G01*
X95058000Y-107710998D01*
G75*
G02*
X95307998Y-107461000I249998J0D01*
G01*
X96208002Y-107461000D01*
G75*
G02*
X96458000Y-107710998I0J-249998D01*
G01*
X96458000Y-108236002D01*
G75*
G02*
X96208002Y-108486000I-249998J0D01*
G01*
G37*
%TD*%
%TO.C,D5*%
G36*
G01*
X92856001Y-131589500D02*
X92055999Y-131589500D01*
G75*
G02*
X91806000Y-131339501I0J249999D01*
G01*
X91806000Y-130514499D01*
G75*
G02*
X92055999Y-130264500I249999J0D01*
G01*
X92856001Y-130264500D01*
G75*
G02*
X93106000Y-130514499I0J-249999D01*
G01*
X93106000Y-131339501D01*
G75*
G02*
X92856001Y-131589500I-249999J0D01*
G01*
G37*
G36*
G01*
X92856001Y-133514500D02*
X92055999Y-133514500D01*
G75*
G02*
X91806000Y-133264501I0J249999D01*
G01*
X91806000Y-132439499D01*
G75*
G02*
X92055999Y-132189500I249999J0D01*
G01*
X92856001Y-132189500D01*
G75*
G02*
X93106000Y-132439499I0J-249999D01*
G01*
X93106000Y-133264501D01*
G75*
G02*
X92856001Y-133514500I-249999J0D01*
G01*
G37*
%TD*%
%TO.C,D6*%
G36*
G01*
X90316001Y-131589500D02*
X89515999Y-131589500D01*
G75*
G02*
X89266000Y-131339501I0J249999D01*
G01*
X89266000Y-130514499D01*
G75*
G02*
X89515999Y-130264500I249999J0D01*
G01*
X90316001Y-130264500D01*
G75*
G02*
X90566000Y-130514499I0J-249999D01*
G01*
X90566000Y-131339501D01*
G75*
G02*
X90316001Y-131589500I-249999J0D01*
G01*
G37*
G36*
G01*
X90316001Y-133514500D02*
X89515999Y-133514500D01*
G75*
G02*
X89266000Y-133264501I0J249999D01*
G01*
X89266000Y-132439499D01*
G75*
G02*
X89515999Y-132189500I249999J0D01*
G01*
X90316001Y-132189500D01*
G75*
G02*
X90566000Y-132439499I0J-249999D01*
G01*
X90566000Y-133264501D01*
G75*
G02*
X90316001Y-133514500I-249999J0D01*
G01*
G37*
%TD*%
%TO.C,D7*%
G36*
G01*
X87776001Y-131589500D02*
X86975999Y-131589500D01*
G75*
G02*
X86726000Y-131339501I0J249999D01*
G01*
X86726000Y-130514499D01*
G75*
G02*
X86975999Y-130264500I249999J0D01*
G01*
X87776001Y-130264500D01*
G75*
G02*
X88026000Y-130514499I0J-249999D01*
G01*
X88026000Y-131339501D01*
G75*
G02*
X87776001Y-131589500I-249999J0D01*
G01*
G37*
G36*
G01*
X87776001Y-133514500D02*
X86975999Y-133514500D01*
G75*
G02*
X86726000Y-133264501I0J249999D01*
G01*
X86726000Y-132439499D01*
G75*
G02*
X86975999Y-132189500I249999J0D01*
G01*
X87776001Y-132189500D01*
G75*
G02*
X88026000Y-132439499I0J-249999D01*
G01*
X88026000Y-133264501D01*
G75*
G02*
X87776001Y-133514500I-249999J0D01*
G01*
G37*
%TD*%
%TO.C,D8*%
G36*
G01*
X85236001Y-131589500D02*
X84435999Y-131589500D01*
G75*
G02*
X84186000Y-131339501I0J249999D01*
G01*
X84186000Y-130514499D01*
G75*
G02*
X84435999Y-130264500I249999J0D01*
G01*
X85236001Y-130264500D01*
G75*
G02*
X85486000Y-130514499I0J-249999D01*
G01*
X85486000Y-131339501D01*
G75*
G02*
X85236001Y-131589500I-249999J0D01*
G01*
G37*
G36*
G01*
X85236001Y-133514500D02*
X84435999Y-133514500D01*
G75*
G02*
X84186000Y-133264501I0J249999D01*
G01*
X84186000Y-132439499D01*
G75*
G02*
X84435999Y-132189500I249999J0D01*
G01*
X85236001Y-132189500D01*
G75*
G02*
X85486000Y-132439499I0J-249999D01*
G01*
X85486000Y-133264501D01*
G75*
G02*
X85236001Y-133514500I-249999J0D01*
G01*
G37*
%TD*%
%TO.C,D9*%
G36*
G01*
X82696001Y-131589500D02*
X81895999Y-131589500D01*
G75*
G02*
X81646000Y-131339501I0J249999D01*
G01*
X81646000Y-130514499D01*
G75*
G02*
X81895999Y-130264500I249999J0D01*
G01*
X82696001Y-130264500D01*
G75*
G02*
X82946000Y-130514499I0J-249999D01*
G01*
X82946000Y-131339501D01*
G75*
G02*
X82696001Y-131589500I-249999J0D01*
G01*
G37*
G36*
G01*
X82696001Y-133514500D02*
X81895999Y-133514500D01*
G75*
G02*
X81646000Y-133264501I0J249999D01*
G01*
X81646000Y-132439499D01*
G75*
G02*
X81895999Y-132189500I249999J0D01*
G01*
X82696001Y-132189500D01*
G75*
G02*
X82946000Y-132439499I0J-249999D01*
G01*
X82946000Y-133264501D01*
G75*
G02*
X82696001Y-133514500I-249999J0D01*
G01*
G37*
%TD*%
%TO.C,C31*%
G36*
G01*
X149766000Y-100462500D02*
X150716000Y-100462500D01*
G75*
G02*
X150966000Y-100712500I0J-250000D01*
G01*
X150966000Y-101212500D01*
G75*
G02*
X150716000Y-101462500I-250000J0D01*
G01*
X149766000Y-101462500D01*
G75*
G02*
X149516000Y-101212500I0J250000D01*
G01*
X149516000Y-100712500D01*
G75*
G02*
X149766000Y-100462500I250000J0D01*
G01*
G37*
G36*
G01*
X149766000Y-98562500D02*
X150716000Y-98562500D01*
G75*
G02*
X150966000Y-98812500I0J-250000D01*
G01*
X150966000Y-99312500D01*
G75*
G02*
X150716000Y-99562500I-250000J0D01*
G01*
X149766000Y-99562500D01*
G75*
G02*
X149516000Y-99312500I0J250000D01*
G01*
X149516000Y-98812500D01*
G75*
G02*
X149766000Y-98562500I250000J0D01*
G01*
G37*
%TD*%
%TO.C,C30*%
G36*
G01*
X119093000Y-129344000D02*
X118143000Y-129344000D01*
G75*
G02*
X117893000Y-129094000I0J250000D01*
G01*
X117893000Y-128594000D01*
G75*
G02*
X118143000Y-128344000I250000J0D01*
G01*
X119093000Y-128344000D01*
G75*
G02*
X119343000Y-128594000I0J-250000D01*
G01*
X119343000Y-129094000D01*
G75*
G02*
X119093000Y-129344000I-250000J0D01*
G01*
G37*
G36*
G01*
X119093000Y-131244000D02*
X118143000Y-131244000D01*
G75*
G02*
X117893000Y-130994000I0J250000D01*
G01*
X117893000Y-130494000D01*
G75*
G02*
X118143000Y-130244000I250000J0D01*
G01*
X119093000Y-130244000D01*
G75*
G02*
X119343000Y-130494000I0J-250000D01*
G01*
X119343000Y-130994000D01*
G75*
G02*
X119093000Y-131244000I-250000J0D01*
G01*
G37*
%TD*%
%TO.C,R12*%
G36*
G01*
X124021002Y-127235000D02*
X123120998Y-127235000D01*
G75*
G02*
X122871000Y-126985002I0J249998D01*
G01*
X122871000Y-126459998D01*
G75*
G02*
X123120998Y-126210000I249998J0D01*
G01*
X124021002Y-126210000D01*
G75*
G02*
X124271000Y-126459998I0J-249998D01*
G01*
X124271000Y-126985002D01*
G75*
G02*
X124021002Y-127235000I-249998J0D01*
G01*
G37*
G36*
G01*
X124021002Y-129060000D02*
X123120998Y-129060000D01*
G75*
G02*
X122871000Y-128810002I0J249998D01*
G01*
X122871000Y-128284998D01*
G75*
G02*
X123120998Y-128035000I249998J0D01*
G01*
X124021002Y-128035000D01*
G75*
G02*
X124271000Y-128284998I0J-249998D01*
G01*
X124271000Y-128810002D01*
G75*
G02*
X124021002Y-129060000I-249998J0D01*
G01*
G37*
%TD*%
%TO.C,R11*%
G36*
G01*
X144849002Y-120885000D02*
X143948998Y-120885000D01*
G75*
G02*
X143699000Y-120635002I0J249998D01*
G01*
X143699000Y-120109998D01*
G75*
G02*
X143948998Y-119860000I249998J0D01*
G01*
X144849002Y-119860000D01*
G75*
G02*
X145099000Y-120109998I0J-249998D01*
G01*
X145099000Y-120635002D01*
G75*
G02*
X144849002Y-120885000I-249998J0D01*
G01*
G37*
G36*
G01*
X144849002Y-122710000D02*
X143948998Y-122710000D01*
G75*
G02*
X143699000Y-122460002I0J249998D01*
G01*
X143699000Y-121934998D01*
G75*
G02*
X143948998Y-121685000I249998J0D01*
G01*
X144849002Y-121685000D01*
G75*
G02*
X145099000Y-121934998I0J-249998D01*
G01*
X145099000Y-122460002D01*
G75*
G02*
X144849002Y-122710000I-249998J0D01*
G01*
G37*
%TD*%
%TO.C,R9*%
G36*
G01*
X141547002Y-120885000D02*
X140646998Y-120885000D01*
G75*
G02*
X140397000Y-120635002I0J249998D01*
G01*
X140397000Y-120109998D01*
G75*
G02*
X140646998Y-119860000I249998J0D01*
G01*
X141547002Y-119860000D01*
G75*
G02*
X141797000Y-120109998I0J-249998D01*
G01*
X141797000Y-120635002D01*
G75*
G02*
X141547002Y-120885000I-249998J0D01*
G01*
G37*
G36*
G01*
X141547002Y-122710000D02*
X140646998Y-122710000D01*
G75*
G02*
X140397000Y-122460002I0J249998D01*
G01*
X140397000Y-121934998D01*
G75*
G02*
X140646998Y-121685000I249998J0D01*
G01*
X141547002Y-121685000D01*
G75*
G02*
X141797000Y-121934998I0J-249998D01*
G01*
X141797000Y-122460002D01*
G75*
G02*
X141547002Y-122710000I-249998J0D01*
G01*
G37*
%TD*%
%TO.C,D10*%
G36*
G01*
X133269000Y-130194001D02*
X133269000Y-129393999D01*
G75*
G02*
X133518999Y-129144000I249999J0D01*
G01*
X134344001Y-129144000D01*
G75*
G02*
X134594000Y-129393999I0J-249999D01*
G01*
X134594000Y-130194001D01*
G75*
G02*
X134344001Y-130444000I-249999J0D01*
G01*
X133518999Y-130444000D01*
G75*
G02*
X133269000Y-130194001I0J249999D01*
G01*
G37*
G36*
G01*
X131344000Y-130194001D02*
X131344000Y-129393999D01*
G75*
G02*
X131593999Y-129144000I249999J0D01*
G01*
X132419001Y-129144000D01*
G75*
G02*
X132669000Y-129393999I0J-249999D01*
G01*
X132669000Y-130194001D01*
G75*
G02*
X132419001Y-130444000I-249999J0D01*
G01*
X131593999Y-130444000D01*
G75*
G02*
X131344000Y-130194001I0J249999D01*
G01*
G37*
%TD*%
%TO.C,D11*%
G36*
G01*
X128951000Y-130194001D02*
X128951000Y-129393999D01*
G75*
G02*
X129200999Y-129144000I249999J0D01*
G01*
X130026001Y-129144000D01*
G75*
G02*
X130276000Y-129393999I0J-249999D01*
G01*
X130276000Y-130194001D01*
G75*
G02*
X130026001Y-130444000I-249999J0D01*
G01*
X129200999Y-130444000D01*
G75*
G02*
X128951000Y-130194001I0J249999D01*
G01*
G37*
G36*
G01*
X127026000Y-130194001D02*
X127026000Y-129393999D01*
G75*
G02*
X127275999Y-129144000I249999J0D01*
G01*
X128101001Y-129144000D01*
G75*
G02*
X128351000Y-129393999I0J-249999D01*
G01*
X128351000Y-130194001D01*
G75*
G02*
X128101001Y-130444000I-249999J0D01*
G01*
X127275999Y-130444000D01*
G75*
G02*
X127026000Y-130194001I0J249999D01*
G01*
G37*
%TD*%
%TO.C,C29*%
G36*
G01*
X123096000Y-131768000D02*
X124046000Y-131768000D01*
G75*
G02*
X124296000Y-132018000I0J-250000D01*
G01*
X124296000Y-132518000D01*
G75*
G02*
X124046000Y-132768000I-250000J0D01*
G01*
X123096000Y-132768000D01*
G75*
G02*
X122846000Y-132518000I0J250000D01*
G01*
X122846000Y-132018000D01*
G75*
G02*
X123096000Y-131768000I250000J0D01*
G01*
G37*
G36*
G01*
X123096000Y-129868000D02*
X124046000Y-129868000D01*
G75*
G02*
X124296000Y-130118000I0J-250000D01*
G01*
X124296000Y-130618000D01*
G75*
G02*
X124046000Y-130868000I-250000J0D01*
G01*
X123096000Y-130868000D01*
G75*
G02*
X122846000Y-130618000I0J250000D01*
G01*
X122846000Y-130118000D01*
G75*
G02*
X123096000Y-129868000I250000J0D01*
G01*
G37*
%TD*%
D12*
%TO.C,D12*%
X142268000Y-111379000D03*
X145768000Y-111379000D03*
%TD*%
%TO.C,C28*%
G36*
G01*
X147490000Y-117484000D02*
X147490000Y-115434000D01*
G75*
G02*
X147740000Y-115184000I250000J0D01*
G01*
X149315000Y-115184000D01*
G75*
G02*
X149565000Y-115434000I0J-250000D01*
G01*
X149565000Y-117484000D01*
G75*
G02*
X149315000Y-117734000I-250000J0D01*
G01*
X147740000Y-117734000D01*
G75*
G02*
X147490000Y-117484000I0J250000D01*
G01*
G37*
G36*
G01*
X141265000Y-117484000D02*
X141265000Y-115434000D01*
G75*
G02*
X141515000Y-115184000I250000J0D01*
G01*
X143090000Y-115184000D01*
G75*
G02*
X143340000Y-115434000I0J-250000D01*
G01*
X143340000Y-117484000D01*
G75*
G02*
X143090000Y-117734000I-250000J0D01*
G01*
X141515000Y-117734000D01*
G75*
G02*
X141265000Y-117484000I0J250000D01*
G01*
G37*
%TD*%
%TO.C,C27*%
G36*
G01*
X126525000Y-121481000D02*
X127475000Y-121481000D01*
G75*
G02*
X127725000Y-121731000I0J-250000D01*
G01*
X127725000Y-122231000D01*
G75*
G02*
X127475000Y-122481000I-250000J0D01*
G01*
X126525000Y-122481000D01*
G75*
G02*
X126275000Y-122231000I0J250000D01*
G01*
X126275000Y-121731000D01*
G75*
G02*
X126525000Y-121481000I250000J0D01*
G01*
G37*
G36*
G01*
X126525000Y-119581000D02*
X127475000Y-119581000D01*
G75*
G02*
X127725000Y-119831000I0J-250000D01*
G01*
X127725000Y-120331000D01*
G75*
G02*
X127475000Y-120581000I-250000J0D01*
G01*
X126525000Y-120581000D01*
G75*
G02*
X126275000Y-120331000I0J250000D01*
G01*
X126275000Y-119831000D01*
G75*
G02*
X126525000Y-119581000I250000J0D01*
G01*
G37*
%TD*%
%TO.C,U9*%
G36*
G01*
X129182000Y-116791000D02*
X128882000Y-116791000D01*
G75*
G02*
X128732000Y-116641000I0J150000D01*
G01*
X128732000Y-115191000D01*
G75*
G02*
X128882000Y-115041000I150000J0D01*
G01*
X129182000Y-115041000D01*
G75*
G02*
X129332000Y-115191000I0J-150000D01*
G01*
X129332000Y-116641000D01*
G75*
G02*
X129182000Y-116791000I-150000J0D01*
G01*
G37*
G36*
G01*
X130452000Y-116791000D02*
X130152000Y-116791000D01*
G75*
G02*
X130002000Y-116641000I0J150000D01*
G01*
X130002000Y-115191000D01*
G75*
G02*
X130152000Y-115041000I150000J0D01*
G01*
X130452000Y-115041000D01*
G75*
G02*
X130602000Y-115191000I0J-150000D01*
G01*
X130602000Y-116641000D01*
G75*
G02*
X130452000Y-116791000I-150000J0D01*
G01*
G37*
G36*
G01*
X131722000Y-116791000D02*
X131422000Y-116791000D01*
G75*
G02*
X131272000Y-116641000I0J150000D01*
G01*
X131272000Y-115191000D01*
G75*
G02*
X131422000Y-115041000I150000J0D01*
G01*
X131722000Y-115041000D01*
G75*
G02*
X131872000Y-115191000I0J-150000D01*
G01*
X131872000Y-116641000D01*
G75*
G02*
X131722000Y-116791000I-150000J0D01*
G01*
G37*
G36*
G01*
X132992000Y-116791000D02*
X132692000Y-116791000D01*
G75*
G02*
X132542000Y-116641000I0J150000D01*
G01*
X132542000Y-115191000D01*
G75*
G02*
X132692000Y-115041000I150000J0D01*
G01*
X132992000Y-115041000D01*
G75*
G02*
X133142000Y-115191000I0J-150000D01*
G01*
X133142000Y-116641000D01*
G75*
G02*
X132992000Y-116791000I-150000J0D01*
G01*
G37*
G36*
G01*
X134262000Y-116791000D02*
X133962000Y-116791000D01*
G75*
G02*
X133812000Y-116641000I0J150000D01*
G01*
X133812000Y-115191000D01*
G75*
G02*
X133962000Y-115041000I150000J0D01*
G01*
X134262000Y-115041000D01*
G75*
G02*
X134412000Y-115191000I0J-150000D01*
G01*
X134412000Y-116641000D01*
G75*
G02*
X134262000Y-116791000I-150000J0D01*
G01*
G37*
G36*
G01*
X135532000Y-116791000D02*
X135232000Y-116791000D01*
G75*
G02*
X135082000Y-116641000I0J150000D01*
G01*
X135082000Y-115191000D01*
G75*
G02*
X135232000Y-115041000I150000J0D01*
G01*
X135532000Y-115041000D01*
G75*
G02*
X135682000Y-115191000I0J-150000D01*
G01*
X135682000Y-116641000D01*
G75*
G02*
X135532000Y-116791000I-150000J0D01*
G01*
G37*
G36*
G01*
X136802000Y-116791000D02*
X136502000Y-116791000D01*
G75*
G02*
X136352000Y-116641000I0J150000D01*
G01*
X136352000Y-115191000D01*
G75*
G02*
X136502000Y-115041000I150000J0D01*
G01*
X136802000Y-115041000D01*
G75*
G02*
X136952000Y-115191000I0J-150000D01*
G01*
X136952000Y-116641000D01*
G75*
G02*
X136802000Y-116791000I-150000J0D01*
G01*
G37*
G36*
G01*
X138072000Y-116791000D02*
X137772000Y-116791000D01*
G75*
G02*
X137622000Y-116641000I0J150000D01*
G01*
X137622000Y-115191000D01*
G75*
G02*
X137772000Y-115041000I150000J0D01*
G01*
X138072000Y-115041000D01*
G75*
G02*
X138222000Y-115191000I0J-150000D01*
G01*
X138222000Y-116641000D01*
G75*
G02*
X138072000Y-116791000I-150000J0D01*
G01*
G37*
G36*
G01*
X138072000Y-121941000D02*
X137772000Y-121941000D01*
G75*
G02*
X137622000Y-121791000I0J150000D01*
G01*
X137622000Y-120341000D01*
G75*
G02*
X137772000Y-120191000I150000J0D01*
G01*
X138072000Y-120191000D01*
G75*
G02*
X138222000Y-120341000I0J-150000D01*
G01*
X138222000Y-121791000D01*
G75*
G02*
X138072000Y-121941000I-150000J0D01*
G01*
G37*
G36*
G01*
X136802000Y-121941000D02*
X136502000Y-121941000D01*
G75*
G02*
X136352000Y-121791000I0J150000D01*
G01*
X136352000Y-120341000D01*
G75*
G02*
X136502000Y-120191000I150000J0D01*
G01*
X136802000Y-120191000D01*
G75*
G02*
X136952000Y-120341000I0J-150000D01*
G01*
X136952000Y-121791000D01*
G75*
G02*
X136802000Y-121941000I-150000J0D01*
G01*
G37*
G36*
G01*
X135532000Y-121941000D02*
X135232000Y-121941000D01*
G75*
G02*
X135082000Y-121791000I0J150000D01*
G01*
X135082000Y-120341000D01*
G75*
G02*
X135232000Y-120191000I150000J0D01*
G01*
X135532000Y-120191000D01*
G75*
G02*
X135682000Y-120341000I0J-150000D01*
G01*
X135682000Y-121791000D01*
G75*
G02*
X135532000Y-121941000I-150000J0D01*
G01*
G37*
G36*
G01*
X134262000Y-121941000D02*
X133962000Y-121941000D01*
G75*
G02*
X133812000Y-121791000I0J150000D01*
G01*
X133812000Y-120341000D01*
G75*
G02*
X133962000Y-120191000I150000J0D01*
G01*
X134262000Y-120191000D01*
G75*
G02*
X134412000Y-120341000I0J-150000D01*
G01*
X134412000Y-121791000D01*
G75*
G02*
X134262000Y-121941000I-150000J0D01*
G01*
G37*
G36*
G01*
X132992000Y-121941000D02*
X132692000Y-121941000D01*
G75*
G02*
X132542000Y-121791000I0J150000D01*
G01*
X132542000Y-120341000D01*
G75*
G02*
X132692000Y-120191000I150000J0D01*
G01*
X132992000Y-120191000D01*
G75*
G02*
X133142000Y-120341000I0J-150000D01*
G01*
X133142000Y-121791000D01*
G75*
G02*
X132992000Y-121941000I-150000J0D01*
G01*
G37*
G36*
G01*
X131722000Y-121941000D02*
X131422000Y-121941000D01*
G75*
G02*
X131272000Y-121791000I0J150000D01*
G01*
X131272000Y-120341000D01*
G75*
G02*
X131422000Y-120191000I150000J0D01*
G01*
X131722000Y-120191000D01*
G75*
G02*
X131872000Y-120341000I0J-150000D01*
G01*
X131872000Y-121791000D01*
G75*
G02*
X131722000Y-121941000I-150000J0D01*
G01*
G37*
G36*
G01*
X130452000Y-121941000D02*
X130152000Y-121941000D01*
G75*
G02*
X130002000Y-121791000I0J150000D01*
G01*
X130002000Y-120341000D01*
G75*
G02*
X130152000Y-120191000I150000J0D01*
G01*
X130452000Y-120191000D01*
G75*
G02*
X130602000Y-120341000I0J-150000D01*
G01*
X130602000Y-121791000D01*
G75*
G02*
X130452000Y-121941000I-150000J0D01*
G01*
G37*
G36*
G01*
X129182000Y-121941000D02*
X128882000Y-121941000D01*
G75*
G02*
X128732000Y-121791000I0J150000D01*
G01*
X128732000Y-120341000D01*
G75*
G02*
X128882000Y-120191000I150000J0D01*
G01*
X129182000Y-120191000D01*
G75*
G02*
X129332000Y-120341000I0J-150000D01*
G01*
X129332000Y-121791000D01*
G75*
G02*
X129182000Y-121941000I-150000J0D01*
G01*
G37*
%TD*%
%TO.C,C6*%
G36*
G01*
X157777000Y-129549000D02*
X157777000Y-127499000D01*
G75*
G02*
X158027000Y-127249000I250000J0D01*
G01*
X159602000Y-127249000D01*
G75*
G02*
X159852000Y-127499000I0J-250000D01*
G01*
X159852000Y-129549000D01*
G75*
G02*
X159602000Y-129799000I-250000J0D01*
G01*
X158027000Y-129799000D01*
G75*
G02*
X157777000Y-129549000I0J250000D01*
G01*
G37*
G36*
G01*
X151552000Y-129549000D02*
X151552000Y-127499000D01*
G75*
G02*
X151802000Y-127249000I250000J0D01*
G01*
X153377000Y-127249000D01*
G75*
G02*
X153627000Y-127499000I0J-250000D01*
G01*
X153627000Y-129549000D01*
G75*
G02*
X153377000Y-129799000I-250000J0D01*
G01*
X151802000Y-129799000D01*
G75*
G02*
X151552000Y-129549000I0J250000D01*
G01*
G37*
%TD*%
%TO.C,C26*%
G36*
G01*
X126525000Y-117290000D02*
X127475000Y-117290000D01*
G75*
G02*
X127725000Y-117540000I0J-250000D01*
G01*
X127725000Y-118040000D01*
G75*
G02*
X127475000Y-118290000I-250000J0D01*
G01*
X126525000Y-118290000D01*
G75*
G02*
X126275000Y-118040000I0J250000D01*
G01*
X126275000Y-117540000D01*
G75*
G02*
X126525000Y-117290000I250000J0D01*
G01*
G37*
G36*
G01*
X126525000Y-115390000D02*
X127475000Y-115390000D01*
G75*
G02*
X127725000Y-115640000I0J-250000D01*
G01*
X127725000Y-116140000D01*
G75*
G02*
X127475000Y-116390000I-250000J0D01*
G01*
X126525000Y-116390000D01*
G75*
G02*
X126275000Y-116140000I0J250000D01*
G01*
X126275000Y-115640000D01*
G75*
G02*
X126525000Y-115390000I250000J0D01*
G01*
G37*
%TD*%
%TO.C,C25*%
G36*
G01*
X106266000Y-101785000D02*
X105316000Y-101785000D01*
G75*
G02*
X105066000Y-101535000I0J250000D01*
G01*
X105066000Y-101035000D01*
G75*
G02*
X105316000Y-100785000I250000J0D01*
G01*
X106266000Y-100785000D01*
G75*
G02*
X106516000Y-101035000I0J-250000D01*
G01*
X106516000Y-101535000D01*
G75*
G02*
X106266000Y-101785000I-250000J0D01*
G01*
G37*
G36*
G01*
X106266000Y-103685000D02*
X105316000Y-103685000D01*
G75*
G02*
X105066000Y-103435000I0J250000D01*
G01*
X105066000Y-102935000D01*
G75*
G02*
X105316000Y-102685000I250000J0D01*
G01*
X106266000Y-102685000D01*
G75*
G02*
X106516000Y-102935000I0J-250000D01*
G01*
X106516000Y-103435000D01*
G75*
G02*
X106266000Y-103685000I-250000J0D01*
G01*
G37*
%TD*%
%TO.C,U3*%
G36*
G01*
X115166000Y-105259000D02*
X115466000Y-105259000D01*
G75*
G02*
X115616000Y-105409000I0J-150000D01*
G01*
X115616000Y-107059000D01*
G75*
G02*
X115466000Y-107209000I-150000J0D01*
G01*
X115166000Y-107209000D01*
G75*
G02*
X115016000Y-107059000I0J150000D01*
G01*
X115016000Y-105409000D01*
G75*
G02*
X115166000Y-105259000I150000J0D01*
G01*
G37*
G36*
G01*
X113896000Y-105259000D02*
X114196000Y-105259000D01*
G75*
G02*
X114346000Y-105409000I0J-150000D01*
G01*
X114346000Y-107059000D01*
G75*
G02*
X114196000Y-107209000I-150000J0D01*
G01*
X113896000Y-107209000D01*
G75*
G02*
X113746000Y-107059000I0J150000D01*
G01*
X113746000Y-105409000D01*
G75*
G02*
X113896000Y-105259000I150000J0D01*
G01*
G37*
G36*
G01*
X112626000Y-105259000D02*
X112926000Y-105259000D01*
G75*
G02*
X113076000Y-105409000I0J-150000D01*
G01*
X113076000Y-107059000D01*
G75*
G02*
X112926000Y-107209000I-150000J0D01*
G01*
X112626000Y-107209000D01*
G75*
G02*
X112476000Y-107059000I0J150000D01*
G01*
X112476000Y-105409000D01*
G75*
G02*
X112626000Y-105259000I150000J0D01*
G01*
G37*
G36*
G01*
X111356000Y-105259000D02*
X111656000Y-105259000D01*
G75*
G02*
X111806000Y-105409000I0J-150000D01*
G01*
X111806000Y-107059000D01*
G75*
G02*
X111656000Y-107209000I-150000J0D01*
G01*
X111356000Y-107209000D01*
G75*
G02*
X111206000Y-107059000I0J150000D01*
G01*
X111206000Y-105409000D01*
G75*
G02*
X111356000Y-105259000I150000J0D01*
G01*
G37*
G36*
G01*
X110086000Y-105259000D02*
X110386000Y-105259000D01*
G75*
G02*
X110536000Y-105409000I0J-150000D01*
G01*
X110536000Y-107059000D01*
G75*
G02*
X110386000Y-107209000I-150000J0D01*
G01*
X110086000Y-107209000D01*
G75*
G02*
X109936000Y-107059000I0J150000D01*
G01*
X109936000Y-105409000D01*
G75*
G02*
X110086000Y-105259000I150000J0D01*
G01*
G37*
G36*
G01*
X108816000Y-105259000D02*
X109116000Y-105259000D01*
G75*
G02*
X109266000Y-105409000I0J-150000D01*
G01*
X109266000Y-107059000D01*
G75*
G02*
X109116000Y-107209000I-150000J0D01*
G01*
X108816000Y-107209000D01*
G75*
G02*
X108666000Y-107059000I0J150000D01*
G01*
X108666000Y-105409000D01*
G75*
G02*
X108816000Y-105259000I150000J0D01*
G01*
G37*
G36*
G01*
X107546000Y-105259000D02*
X107846000Y-105259000D01*
G75*
G02*
X107996000Y-105409000I0J-150000D01*
G01*
X107996000Y-107059000D01*
G75*
G02*
X107846000Y-107209000I-150000J0D01*
G01*
X107546000Y-107209000D01*
G75*
G02*
X107396000Y-107059000I0J150000D01*
G01*
X107396000Y-105409000D01*
G75*
G02*
X107546000Y-105259000I150000J0D01*
G01*
G37*
G36*
G01*
X107546000Y-100309000D02*
X107846000Y-100309000D01*
G75*
G02*
X107996000Y-100459000I0J-150000D01*
G01*
X107996000Y-102109000D01*
G75*
G02*
X107846000Y-102259000I-150000J0D01*
G01*
X107546000Y-102259000D01*
G75*
G02*
X107396000Y-102109000I0J150000D01*
G01*
X107396000Y-100459000D01*
G75*
G02*
X107546000Y-100309000I150000J0D01*
G01*
G37*
G36*
G01*
X108816000Y-100309000D02*
X109116000Y-100309000D01*
G75*
G02*
X109266000Y-100459000I0J-150000D01*
G01*
X109266000Y-102109000D01*
G75*
G02*
X109116000Y-102259000I-150000J0D01*
G01*
X108816000Y-102259000D01*
G75*
G02*
X108666000Y-102109000I0J150000D01*
G01*
X108666000Y-100459000D01*
G75*
G02*
X108816000Y-100309000I150000J0D01*
G01*
G37*
G36*
G01*
X110086000Y-100309000D02*
X110386000Y-100309000D01*
G75*
G02*
X110536000Y-100459000I0J-150000D01*
G01*
X110536000Y-102109000D01*
G75*
G02*
X110386000Y-102259000I-150000J0D01*
G01*
X110086000Y-102259000D01*
G75*
G02*
X109936000Y-102109000I0J150000D01*
G01*
X109936000Y-100459000D01*
G75*
G02*
X110086000Y-100309000I150000J0D01*
G01*
G37*
G36*
G01*
X111356000Y-100309000D02*
X111656000Y-100309000D01*
G75*
G02*
X111806000Y-100459000I0J-150000D01*
G01*
X111806000Y-102109000D01*
G75*
G02*
X111656000Y-102259000I-150000J0D01*
G01*
X111356000Y-102259000D01*
G75*
G02*
X111206000Y-102109000I0J150000D01*
G01*
X111206000Y-100459000D01*
G75*
G02*
X111356000Y-100309000I150000J0D01*
G01*
G37*
G36*
G01*
X112626000Y-100309000D02*
X112926000Y-100309000D01*
G75*
G02*
X113076000Y-100459000I0J-150000D01*
G01*
X113076000Y-102109000D01*
G75*
G02*
X112926000Y-102259000I-150000J0D01*
G01*
X112626000Y-102259000D01*
G75*
G02*
X112476000Y-102109000I0J150000D01*
G01*
X112476000Y-100459000D01*
G75*
G02*
X112626000Y-100309000I150000J0D01*
G01*
G37*
G36*
G01*
X113896000Y-100309000D02*
X114196000Y-100309000D01*
G75*
G02*
X114346000Y-100459000I0J-150000D01*
G01*
X114346000Y-102109000D01*
G75*
G02*
X114196000Y-102259000I-150000J0D01*
G01*
X113896000Y-102259000D01*
G75*
G02*
X113746000Y-102109000I0J150000D01*
G01*
X113746000Y-100459000D01*
G75*
G02*
X113896000Y-100309000I150000J0D01*
G01*
G37*
G36*
G01*
X115166000Y-100309000D02*
X115466000Y-100309000D01*
G75*
G02*
X115616000Y-100459000I0J-150000D01*
G01*
X115616000Y-102109000D01*
G75*
G02*
X115466000Y-102259000I-150000J0D01*
G01*
X115166000Y-102259000D01*
G75*
G02*
X115016000Y-102109000I0J150000D01*
G01*
X115016000Y-100459000D01*
G75*
G02*
X115166000Y-100309000I150000J0D01*
G01*
G37*
%TD*%
%TO.C,C24*%
G36*
G01*
X67785000Y-82989000D02*
X66835000Y-82989000D01*
G75*
G02*
X66585000Y-82739000I0J250000D01*
G01*
X66585000Y-82239000D01*
G75*
G02*
X66835000Y-81989000I250000J0D01*
G01*
X67785000Y-81989000D01*
G75*
G02*
X68035000Y-82239000I0J-250000D01*
G01*
X68035000Y-82739000D01*
G75*
G02*
X67785000Y-82989000I-250000J0D01*
G01*
G37*
G36*
G01*
X67785000Y-84889000D02*
X66835000Y-84889000D01*
G75*
G02*
X66585000Y-84639000I0J250000D01*
G01*
X66585000Y-84139000D01*
G75*
G02*
X66835000Y-83889000I250000J0D01*
G01*
X67785000Y-83889000D01*
G75*
G02*
X68035000Y-84139000I0J-250000D01*
G01*
X68035000Y-84639000D01*
G75*
G02*
X67785000Y-84889000I-250000J0D01*
G01*
G37*
%TD*%
%TO.C,C23*%
G36*
G01*
X101567000Y-86418000D02*
X100617000Y-86418000D01*
G75*
G02*
X100367000Y-86168000I0J250000D01*
G01*
X100367000Y-85668000D01*
G75*
G02*
X100617000Y-85418000I250000J0D01*
G01*
X101567000Y-85418000D01*
G75*
G02*
X101817000Y-85668000I0J-250000D01*
G01*
X101817000Y-86168000D01*
G75*
G02*
X101567000Y-86418000I-250000J0D01*
G01*
G37*
G36*
G01*
X101567000Y-88318000D02*
X100617000Y-88318000D01*
G75*
G02*
X100367000Y-88068000I0J250000D01*
G01*
X100367000Y-87568000D01*
G75*
G02*
X100617000Y-87318000I250000J0D01*
G01*
X101567000Y-87318000D01*
G75*
G02*
X101817000Y-87568000I0J-250000D01*
G01*
X101817000Y-88068000D01*
G75*
G02*
X101567000Y-88318000I-250000J0D01*
G01*
G37*
%TD*%
%TO.C,C22*%
G36*
G01*
X86520000Y-87318000D02*
X87470000Y-87318000D01*
G75*
G02*
X87720000Y-87568000I0J-250000D01*
G01*
X87720000Y-88068000D01*
G75*
G02*
X87470000Y-88318000I-250000J0D01*
G01*
X86520000Y-88318000D01*
G75*
G02*
X86270000Y-88068000I0J250000D01*
G01*
X86270000Y-87568000D01*
G75*
G02*
X86520000Y-87318000I250000J0D01*
G01*
G37*
G36*
G01*
X86520000Y-85418000D02*
X87470000Y-85418000D01*
G75*
G02*
X87720000Y-85668000I0J-250000D01*
G01*
X87720000Y-86168000D01*
G75*
G02*
X87470000Y-86418000I-250000J0D01*
G01*
X86520000Y-86418000D01*
G75*
G02*
X86270000Y-86168000I0J250000D01*
G01*
X86270000Y-85668000D01*
G75*
G02*
X86520000Y-85418000I250000J0D01*
G01*
G37*
%TD*%
%TO.C,C21*%
G36*
G01*
X115791000Y-85783000D02*
X114841000Y-85783000D01*
G75*
G02*
X114591000Y-85533000I0J250000D01*
G01*
X114591000Y-85033000D01*
G75*
G02*
X114841000Y-84783000I250000J0D01*
G01*
X115791000Y-84783000D01*
G75*
G02*
X116041000Y-85033000I0J-250000D01*
G01*
X116041000Y-85533000D01*
G75*
G02*
X115791000Y-85783000I-250000J0D01*
G01*
G37*
G36*
G01*
X115791000Y-87683000D02*
X114841000Y-87683000D01*
G75*
G02*
X114591000Y-87433000I0J250000D01*
G01*
X114591000Y-86933000D01*
G75*
G02*
X114841000Y-86683000I250000J0D01*
G01*
X115791000Y-86683000D01*
G75*
G02*
X116041000Y-86933000I0J-250000D01*
G01*
X116041000Y-87433000D01*
G75*
G02*
X115791000Y-87683000I-250000J0D01*
G01*
G37*
%TD*%
%TO.C,C20*%
G36*
G01*
X117508000Y-98748000D02*
X118458000Y-98748000D01*
G75*
G02*
X118708000Y-98998000I0J-250000D01*
G01*
X118708000Y-99498000D01*
G75*
G02*
X118458000Y-99748000I-250000J0D01*
G01*
X117508000Y-99748000D01*
G75*
G02*
X117258000Y-99498000I0J250000D01*
G01*
X117258000Y-98998000D01*
G75*
G02*
X117508000Y-98748000I250000J0D01*
G01*
G37*
G36*
G01*
X117508000Y-96848000D02*
X118458000Y-96848000D01*
G75*
G02*
X118708000Y-97098000I0J-250000D01*
G01*
X118708000Y-97598000D01*
G75*
G02*
X118458000Y-97848000I-250000J0D01*
G01*
X117508000Y-97848000D01*
G75*
G02*
X117258000Y-97598000I0J250000D01*
G01*
X117258000Y-97098000D01*
G75*
G02*
X117508000Y-96848000I250000J0D01*
G01*
G37*
%TD*%
%TO.C,C19*%
G36*
G01*
X117508000Y-91382000D02*
X118458000Y-91382000D01*
G75*
G02*
X118708000Y-91632000I0J-250000D01*
G01*
X118708000Y-92132000D01*
G75*
G02*
X118458000Y-92382000I-250000J0D01*
G01*
X117508000Y-92382000D01*
G75*
G02*
X117258000Y-92132000I0J250000D01*
G01*
X117258000Y-91632000D01*
G75*
G02*
X117508000Y-91382000I250000J0D01*
G01*
G37*
G36*
G01*
X117508000Y-89482000D02*
X118458000Y-89482000D01*
G75*
G02*
X118708000Y-89732000I0J-250000D01*
G01*
X118708000Y-90232000D01*
G75*
G02*
X118458000Y-90482000I-250000J0D01*
G01*
X117508000Y-90482000D01*
G75*
G02*
X117258000Y-90232000I0J250000D01*
G01*
X117258000Y-89732000D01*
G75*
G02*
X117508000Y-89482000I250000J0D01*
G01*
G37*
%TD*%
%TO.C,C18*%
G36*
G01*
X151580000Y-90772000D02*
X151580000Y-89822000D01*
G75*
G02*
X151830000Y-89572000I250000J0D01*
G01*
X152330000Y-89572000D01*
G75*
G02*
X152580000Y-89822000I0J-250000D01*
G01*
X152580000Y-90772000D01*
G75*
G02*
X152330000Y-91022000I-250000J0D01*
G01*
X151830000Y-91022000D01*
G75*
G02*
X151580000Y-90772000I0J250000D01*
G01*
G37*
G36*
G01*
X149680000Y-90772000D02*
X149680000Y-89822000D01*
G75*
G02*
X149930000Y-89572000I250000J0D01*
G01*
X150430000Y-89572000D01*
G75*
G02*
X150680000Y-89822000I0J-250000D01*
G01*
X150680000Y-90772000D01*
G75*
G02*
X150430000Y-91022000I-250000J0D01*
G01*
X149930000Y-91022000D01*
G75*
G02*
X149680000Y-90772000I0J250000D01*
G01*
G37*
%TD*%
%TO.C,C17*%
G36*
G01*
X145727000Y-70645000D02*
X145727000Y-71595000D01*
G75*
G02*
X145477000Y-71845000I-250000J0D01*
G01*
X144977000Y-71845000D01*
G75*
G02*
X144727000Y-71595000I0J250000D01*
G01*
X144727000Y-70645000D01*
G75*
G02*
X144977000Y-70395000I250000J0D01*
G01*
X145477000Y-70395000D01*
G75*
G02*
X145727000Y-70645000I0J-250000D01*
G01*
G37*
G36*
G01*
X147627000Y-70645000D02*
X147627000Y-71595000D01*
G75*
G02*
X147377000Y-71845000I-250000J0D01*
G01*
X146877000Y-71845000D01*
G75*
G02*
X146627000Y-71595000I0J250000D01*
G01*
X146627000Y-70645000D01*
G75*
G02*
X146877000Y-70395000I250000J0D01*
G01*
X147377000Y-70395000D01*
G75*
G02*
X147627000Y-70645000I0J-250000D01*
G01*
G37*
%TD*%
%TO.C,D1*%
X153952000Y-82042000D03*
X157452000Y-82042000D03*
%TD*%
%TO.C,C16*%
G36*
G01*
X150680000Y-83726000D02*
X150680000Y-84676000D01*
G75*
G02*
X150430000Y-84926000I-250000J0D01*
G01*
X149930000Y-84926000D01*
G75*
G02*
X149680000Y-84676000I0J250000D01*
G01*
X149680000Y-83726000D01*
G75*
G02*
X149930000Y-83476000I250000J0D01*
G01*
X150430000Y-83476000D01*
G75*
G02*
X150680000Y-83726000I0J-250000D01*
G01*
G37*
G36*
G01*
X152580000Y-83726000D02*
X152580000Y-84676000D01*
G75*
G02*
X152330000Y-84926000I-250000J0D01*
G01*
X151830000Y-84926000D01*
G75*
G02*
X151580000Y-84676000I0J250000D01*
G01*
X151580000Y-83726000D01*
G75*
G02*
X151830000Y-83476000I250000J0D01*
G01*
X152330000Y-83476000D01*
G75*
G02*
X152580000Y-83726000I0J-250000D01*
G01*
G37*
%TD*%
%TO.C,C15*%
G36*
G01*
X117508000Y-83000000D02*
X118458000Y-83000000D01*
G75*
G02*
X118708000Y-83250000I0J-250000D01*
G01*
X118708000Y-83750000D01*
G75*
G02*
X118458000Y-84000000I-250000J0D01*
G01*
X117508000Y-84000000D01*
G75*
G02*
X117258000Y-83750000I0J250000D01*
G01*
X117258000Y-83250000D01*
G75*
G02*
X117508000Y-83000000I250000J0D01*
G01*
G37*
G36*
G01*
X117508000Y-81100000D02*
X118458000Y-81100000D01*
G75*
G02*
X118708000Y-81350000I0J-250000D01*
G01*
X118708000Y-81850000D01*
G75*
G02*
X118458000Y-82100000I-250000J0D01*
G01*
X117508000Y-82100000D01*
G75*
G02*
X117258000Y-81850000I0J250000D01*
G01*
X117258000Y-81350000D01*
G75*
G02*
X117508000Y-81100000I250000J0D01*
G01*
G37*
%TD*%
%TO.C,C14*%
G36*
G01*
X118585000Y-75115000D02*
X117635000Y-75115000D01*
G75*
G02*
X117385000Y-74865000I0J250000D01*
G01*
X117385000Y-74365000D01*
G75*
G02*
X117635000Y-74115000I250000J0D01*
G01*
X118585000Y-74115000D01*
G75*
G02*
X118835000Y-74365000I0J-250000D01*
G01*
X118835000Y-74865000D01*
G75*
G02*
X118585000Y-75115000I-250000J0D01*
G01*
G37*
G36*
G01*
X118585000Y-77015000D02*
X117635000Y-77015000D01*
G75*
G02*
X117385000Y-76765000I0J250000D01*
G01*
X117385000Y-76265000D01*
G75*
G02*
X117635000Y-76015000I250000J0D01*
G01*
X118585000Y-76015000D01*
G75*
G02*
X118835000Y-76265000I0J-250000D01*
G01*
X118835000Y-76765000D01*
G75*
G02*
X118585000Y-77015000I-250000J0D01*
G01*
G37*
%TD*%
%TO.C,C13*%
G36*
G01*
X138234000Y-70645000D02*
X138234000Y-71595000D01*
G75*
G02*
X137984000Y-71845000I-250000J0D01*
G01*
X137484000Y-71845000D01*
G75*
G02*
X137234000Y-71595000I0J250000D01*
G01*
X137234000Y-70645000D01*
G75*
G02*
X137484000Y-70395000I250000J0D01*
G01*
X137984000Y-70395000D01*
G75*
G02*
X138234000Y-70645000I0J-250000D01*
G01*
G37*
G36*
G01*
X140134000Y-70645000D02*
X140134000Y-71595000D01*
G75*
G02*
X139884000Y-71845000I-250000J0D01*
G01*
X139384000Y-71845000D01*
G75*
G02*
X139134000Y-71595000I0J250000D01*
G01*
X139134000Y-70645000D01*
G75*
G02*
X139384000Y-70395000I250000J0D01*
G01*
X139884000Y-70395000D01*
G75*
G02*
X140134000Y-70645000I0J-250000D01*
G01*
G37*
%TD*%
%TO.C,C12*%
G36*
G01*
X133662000Y-70645000D02*
X133662000Y-71595000D01*
G75*
G02*
X133412000Y-71845000I-250000J0D01*
G01*
X132912000Y-71845000D01*
G75*
G02*
X132662000Y-71595000I0J250000D01*
G01*
X132662000Y-70645000D01*
G75*
G02*
X132912000Y-70395000I250000J0D01*
G01*
X133412000Y-70395000D01*
G75*
G02*
X133662000Y-70645000I0J-250000D01*
G01*
G37*
G36*
G01*
X135562000Y-70645000D02*
X135562000Y-71595000D01*
G75*
G02*
X135312000Y-71845000I-250000J0D01*
G01*
X134812000Y-71845000D01*
G75*
G02*
X134562000Y-71595000I0J250000D01*
G01*
X134562000Y-70645000D01*
G75*
G02*
X134812000Y-70395000I250000J0D01*
G01*
X135312000Y-70395000D01*
G75*
G02*
X135562000Y-70645000I0J-250000D01*
G01*
G37*
%TD*%
%TO.C,C5*%
G36*
G01*
X129344000Y-70645000D02*
X129344000Y-71595000D01*
G75*
G02*
X129094000Y-71845000I-250000J0D01*
G01*
X128594000Y-71845000D01*
G75*
G02*
X128344000Y-71595000I0J250000D01*
G01*
X128344000Y-70645000D01*
G75*
G02*
X128594000Y-70395000I250000J0D01*
G01*
X129094000Y-70395000D01*
G75*
G02*
X129344000Y-70645000I0J-250000D01*
G01*
G37*
G36*
G01*
X131244000Y-70645000D02*
X131244000Y-71595000D01*
G75*
G02*
X130994000Y-71845000I-250000J0D01*
G01*
X130494000Y-71845000D01*
G75*
G02*
X130244000Y-71595000I0J250000D01*
G01*
X130244000Y-70645000D01*
G75*
G02*
X130494000Y-70395000I250000J0D01*
G01*
X130994000Y-70395000D01*
G75*
G02*
X131244000Y-70645000I0J-250000D01*
G01*
G37*
%TD*%
D13*
%TO.C,U1*%
X116520000Y-130894000D03*
X114620000Y-130894000D03*
X114620000Y-128694000D03*
D14*
X116340000Y-128694000D03*
%TD*%
%TO.C,R8*%
G36*
G01*
X115970000Y-126815002D02*
X115970000Y-125914998D01*
G75*
G02*
X116219998Y-125665000I249998J0D01*
G01*
X116745002Y-125665000D01*
G75*
G02*
X116995000Y-125914998I0J-249998D01*
G01*
X116995000Y-126815002D01*
G75*
G02*
X116745002Y-127065000I-249998J0D01*
G01*
X116219998Y-127065000D01*
G75*
G02*
X115970000Y-126815002I0J249998D01*
G01*
G37*
G36*
G01*
X114145000Y-126815002D02*
X114145000Y-125914998D01*
G75*
G02*
X114394998Y-125665000I249998J0D01*
G01*
X114920002Y-125665000D01*
G75*
G02*
X115170000Y-125914998I0J-249998D01*
G01*
X115170000Y-126815002D01*
G75*
G02*
X114920002Y-127065000I-249998J0D01*
G01*
X114394998Y-127065000D01*
G75*
G02*
X114145000Y-126815002I0J249998D01*
G01*
G37*
%TD*%
%TO.C,R6*%
G36*
G01*
X151530000Y-88715002D02*
X151530000Y-87814998D01*
G75*
G02*
X151779998Y-87565000I249998J0D01*
G01*
X152305002Y-87565000D01*
G75*
G02*
X152555000Y-87814998I0J-249998D01*
G01*
X152555000Y-88715002D01*
G75*
G02*
X152305002Y-88965000I-249998J0D01*
G01*
X151779998Y-88965000D01*
G75*
G02*
X151530000Y-88715002I0J249998D01*
G01*
G37*
G36*
G01*
X149705000Y-88715002D02*
X149705000Y-87814998D01*
G75*
G02*
X149954998Y-87565000I249998J0D01*
G01*
X150480002Y-87565000D01*
G75*
G02*
X150730000Y-87814998I0J-249998D01*
G01*
X150730000Y-88715002D01*
G75*
G02*
X150480002Y-88965000I-249998J0D01*
G01*
X149954998Y-88965000D01*
G75*
G02*
X149705000Y-88715002I0J249998D01*
G01*
G37*
%TD*%
D12*
%TO.C,D3*%
X153952000Y-88265000D03*
X157452000Y-88265000D03*
%TD*%
%TO.C,C7*%
G36*
G01*
X111409500Y-124645000D02*
X110459500Y-124645000D01*
G75*
G02*
X110209500Y-124395000I0J250000D01*
G01*
X110209500Y-123895000D01*
G75*
G02*
X110459500Y-123645000I250000J0D01*
G01*
X111409500Y-123645000D01*
G75*
G02*
X111659500Y-123895000I0J-250000D01*
G01*
X111659500Y-124395000D01*
G75*
G02*
X111409500Y-124645000I-250000J0D01*
G01*
G37*
G36*
G01*
X111409500Y-126545000D02*
X110459500Y-126545000D01*
G75*
G02*
X110209500Y-126295000I0J250000D01*
G01*
X110209500Y-125795000D01*
G75*
G02*
X110459500Y-125545000I250000J0D01*
G01*
X111409500Y-125545000D01*
G75*
G02*
X111659500Y-125795000I0J-250000D01*
G01*
X111659500Y-126295000D01*
G75*
G02*
X111409500Y-126545000I-250000J0D01*
G01*
G37*
%TD*%
%TO.C,D4*%
G36*
G01*
X155465500Y-110153499D02*
X155465500Y-110953501D01*
G75*
G02*
X155215501Y-111203500I-249999J0D01*
G01*
X154390499Y-111203500D01*
G75*
G02*
X154140500Y-110953501I0J249999D01*
G01*
X154140500Y-110153499D01*
G75*
G02*
X154390499Y-109903500I249999J0D01*
G01*
X155215501Y-109903500D01*
G75*
G02*
X155465500Y-110153499I0J-249999D01*
G01*
G37*
G36*
G01*
X157390500Y-110153499D02*
X157390500Y-110953501D01*
G75*
G02*
X157140501Y-111203500I-249999J0D01*
G01*
X156315499Y-111203500D01*
G75*
G02*
X156065500Y-110953501I0J249999D01*
G01*
X156065500Y-110153499D01*
G75*
G02*
X156315499Y-109903500I249999J0D01*
G01*
X157140501Y-109903500D01*
G75*
G02*
X157390500Y-110153499I0J-249999D01*
G01*
G37*
%TD*%
%TO.C,U5*%
G36*
G01*
X112054000Y-76223000D02*
X112054000Y-75923000D01*
G75*
G02*
X112204000Y-75773000I150000J0D01*
G01*
X113604000Y-75773000D01*
G75*
G02*
X113754000Y-75923000I0J-150000D01*
G01*
X113754000Y-76223000D01*
G75*
G02*
X113604000Y-76373000I-150000J0D01*
G01*
X112204000Y-76373000D01*
G75*
G02*
X112054000Y-76223000I0J150000D01*
G01*
G37*
G36*
G01*
X112054000Y-77493000D02*
X112054000Y-77193000D01*
G75*
G02*
X112204000Y-77043000I150000J0D01*
G01*
X113604000Y-77043000D01*
G75*
G02*
X113754000Y-77193000I0J-150000D01*
G01*
X113754000Y-77493000D01*
G75*
G02*
X113604000Y-77643000I-150000J0D01*
G01*
X112204000Y-77643000D01*
G75*
G02*
X112054000Y-77493000I0J150000D01*
G01*
G37*
G36*
G01*
X112054000Y-78763000D02*
X112054000Y-78463000D01*
G75*
G02*
X112204000Y-78313000I150000J0D01*
G01*
X113604000Y-78313000D01*
G75*
G02*
X113754000Y-78463000I0J-150000D01*
G01*
X113754000Y-78763000D01*
G75*
G02*
X113604000Y-78913000I-150000J0D01*
G01*
X112204000Y-78913000D01*
G75*
G02*
X112054000Y-78763000I0J150000D01*
G01*
G37*
G36*
G01*
X112054000Y-80033000D02*
X112054000Y-79733000D01*
G75*
G02*
X112204000Y-79583000I150000J0D01*
G01*
X113604000Y-79583000D01*
G75*
G02*
X113754000Y-79733000I0J-150000D01*
G01*
X113754000Y-80033000D01*
G75*
G02*
X113604000Y-80183000I-150000J0D01*
G01*
X112204000Y-80183000D01*
G75*
G02*
X112054000Y-80033000I0J150000D01*
G01*
G37*
G36*
G01*
X112054000Y-81303000D02*
X112054000Y-81003000D01*
G75*
G02*
X112204000Y-80853000I150000J0D01*
G01*
X113604000Y-80853000D01*
G75*
G02*
X113754000Y-81003000I0J-150000D01*
G01*
X113754000Y-81303000D01*
G75*
G02*
X113604000Y-81453000I-150000J0D01*
G01*
X112204000Y-81453000D01*
G75*
G02*
X112054000Y-81303000I0J150000D01*
G01*
G37*
G36*
G01*
X112054000Y-82573000D02*
X112054000Y-82273000D01*
G75*
G02*
X112204000Y-82123000I150000J0D01*
G01*
X113604000Y-82123000D01*
G75*
G02*
X113754000Y-82273000I0J-150000D01*
G01*
X113754000Y-82573000D01*
G75*
G02*
X113604000Y-82723000I-150000J0D01*
G01*
X112204000Y-82723000D01*
G75*
G02*
X112054000Y-82573000I0J150000D01*
G01*
G37*
G36*
G01*
X112054000Y-83843000D02*
X112054000Y-83543000D01*
G75*
G02*
X112204000Y-83393000I150000J0D01*
G01*
X113604000Y-83393000D01*
G75*
G02*
X113754000Y-83543000I0J-150000D01*
G01*
X113754000Y-83843000D01*
G75*
G02*
X113604000Y-83993000I-150000J0D01*
G01*
X112204000Y-83993000D01*
G75*
G02*
X112054000Y-83843000I0J150000D01*
G01*
G37*
G36*
G01*
X112054000Y-85113000D02*
X112054000Y-84813000D01*
G75*
G02*
X112204000Y-84663000I150000J0D01*
G01*
X113604000Y-84663000D01*
G75*
G02*
X113754000Y-84813000I0J-150000D01*
G01*
X113754000Y-85113000D01*
G75*
G02*
X113604000Y-85263000I-150000J0D01*
G01*
X112204000Y-85263000D01*
G75*
G02*
X112054000Y-85113000I0J150000D01*
G01*
G37*
G36*
G01*
X112054000Y-86383000D02*
X112054000Y-86083000D01*
G75*
G02*
X112204000Y-85933000I150000J0D01*
G01*
X113604000Y-85933000D01*
G75*
G02*
X113754000Y-86083000I0J-150000D01*
G01*
X113754000Y-86383000D01*
G75*
G02*
X113604000Y-86533000I-150000J0D01*
G01*
X112204000Y-86533000D01*
G75*
G02*
X112054000Y-86383000I0J150000D01*
G01*
G37*
G36*
G01*
X112054000Y-87653000D02*
X112054000Y-87353000D01*
G75*
G02*
X112204000Y-87203000I150000J0D01*
G01*
X113604000Y-87203000D01*
G75*
G02*
X113754000Y-87353000I0J-150000D01*
G01*
X113754000Y-87653000D01*
G75*
G02*
X113604000Y-87803000I-150000J0D01*
G01*
X112204000Y-87803000D01*
G75*
G02*
X112054000Y-87653000I0J150000D01*
G01*
G37*
G36*
G01*
X112054000Y-88923000D02*
X112054000Y-88623000D01*
G75*
G02*
X112204000Y-88473000I150000J0D01*
G01*
X113604000Y-88473000D01*
G75*
G02*
X113754000Y-88623000I0J-150000D01*
G01*
X113754000Y-88923000D01*
G75*
G02*
X113604000Y-89073000I-150000J0D01*
G01*
X112204000Y-89073000D01*
G75*
G02*
X112054000Y-88923000I0J150000D01*
G01*
G37*
G36*
G01*
X112054000Y-90193000D02*
X112054000Y-89893000D01*
G75*
G02*
X112204000Y-89743000I150000J0D01*
G01*
X113604000Y-89743000D01*
G75*
G02*
X113754000Y-89893000I0J-150000D01*
G01*
X113754000Y-90193000D01*
G75*
G02*
X113604000Y-90343000I-150000J0D01*
G01*
X112204000Y-90343000D01*
G75*
G02*
X112054000Y-90193000I0J150000D01*
G01*
G37*
G36*
G01*
X112054000Y-91463000D02*
X112054000Y-91163000D01*
G75*
G02*
X112204000Y-91013000I150000J0D01*
G01*
X113604000Y-91013000D01*
G75*
G02*
X113754000Y-91163000I0J-150000D01*
G01*
X113754000Y-91463000D01*
G75*
G02*
X113604000Y-91613000I-150000J0D01*
G01*
X112204000Y-91613000D01*
G75*
G02*
X112054000Y-91463000I0J150000D01*
G01*
G37*
G36*
G01*
X112054000Y-92733000D02*
X112054000Y-92433000D01*
G75*
G02*
X112204000Y-92283000I150000J0D01*
G01*
X113604000Y-92283000D01*
G75*
G02*
X113754000Y-92433000I0J-150000D01*
G01*
X113754000Y-92733000D01*
G75*
G02*
X113604000Y-92883000I-150000J0D01*
G01*
X112204000Y-92883000D01*
G75*
G02*
X112054000Y-92733000I0J150000D01*
G01*
G37*
G36*
G01*
X112054000Y-94003000D02*
X112054000Y-93703000D01*
G75*
G02*
X112204000Y-93553000I150000J0D01*
G01*
X113604000Y-93553000D01*
G75*
G02*
X113754000Y-93703000I0J-150000D01*
G01*
X113754000Y-94003000D01*
G75*
G02*
X113604000Y-94153000I-150000J0D01*
G01*
X112204000Y-94153000D01*
G75*
G02*
X112054000Y-94003000I0J150000D01*
G01*
G37*
G36*
G01*
X112054000Y-95273000D02*
X112054000Y-94973000D01*
G75*
G02*
X112204000Y-94823000I150000J0D01*
G01*
X113604000Y-94823000D01*
G75*
G02*
X113754000Y-94973000I0J-150000D01*
G01*
X113754000Y-95273000D01*
G75*
G02*
X113604000Y-95423000I-150000J0D01*
G01*
X112204000Y-95423000D01*
G75*
G02*
X112054000Y-95273000I0J150000D01*
G01*
G37*
G36*
G01*
X112054000Y-96543000D02*
X112054000Y-96243000D01*
G75*
G02*
X112204000Y-96093000I150000J0D01*
G01*
X113604000Y-96093000D01*
G75*
G02*
X113754000Y-96243000I0J-150000D01*
G01*
X113754000Y-96543000D01*
G75*
G02*
X113604000Y-96693000I-150000J0D01*
G01*
X112204000Y-96693000D01*
G75*
G02*
X112054000Y-96543000I0J150000D01*
G01*
G37*
G36*
G01*
X112054000Y-97813000D02*
X112054000Y-97513000D01*
G75*
G02*
X112204000Y-97363000I150000J0D01*
G01*
X113604000Y-97363000D01*
G75*
G02*
X113754000Y-97513000I0J-150000D01*
G01*
X113754000Y-97813000D01*
G75*
G02*
X113604000Y-97963000I-150000J0D01*
G01*
X112204000Y-97963000D01*
G75*
G02*
X112054000Y-97813000I0J150000D01*
G01*
G37*
G36*
G01*
X102654000Y-97813000D02*
X102654000Y-97513000D01*
G75*
G02*
X102804000Y-97363000I150000J0D01*
G01*
X104204000Y-97363000D01*
G75*
G02*
X104354000Y-97513000I0J-150000D01*
G01*
X104354000Y-97813000D01*
G75*
G02*
X104204000Y-97963000I-150000J0D01*
G01*
X102804000Y-97963000D01*
G75*
G02*
X102654000Y-97813000I0J150000D01*
G01*
G37*
G36*
G01*
X102654000Y-96543000D02*
X102654000Y-96243000D01*
G75*
G02*
X102804000Y-96093000I150000J0D01*
G01*
X104204000Y-96093000D01*
G75*
G02*
X104354000Y-96243000I0J-150000D01*
G01*
X104354000Y-96543000D01*
G75*
G02*
X104204000Y-96693000I-150000J0D01*
G01*
X102804000Y-96693000D01*
G75*
G02*
X102654000Y-96543000I0J150000D01*
G01*
G37*
G36*
G01*
X102654000Y-95273000D02*
X102654000Y-94973000D01*
G75*
G02*
X102804000Y-94823000I150000J0D01*
G01*
X104204000Y-94823000D01*
G75*
G02*
X104354000Y-94973000I0J-150000D01*
G01*
X104354000Y-95273000D01*
G75*
G02*
X104204000Y-95423000I-150000J0D01*
G01*
X102804000Y-95423000D01*
G75*
G02*
X102654000Y-95273000I0J150000D01*
G01*
G37*
G36*
G01*
X102654000Y-94003000D02*
X102654000Y-93703000D01*
G75*
G02*
X102804000Y-93553000I150000J0D01*
G01*
X104204000Y-93553000D01*
G75*
G02*
X104354000Y-93703000I0J-150000D01*
G01*
X104354000Y-94003000D01*
G75*
G02*
X104204000Y-94153000I-150000J0D01*
G01*
X102804000Y-94153000D01*
G75*
G02*
X102654000Y-94003000I0J150000D01*
G01*
G37*
G36*
G01*
X102654000Y-92733000D02*
X102654000Y-92433000D01*
G75*
G02*
X102804000Y-92283000I150000J0D01*
G01*
X104204000Y-92283000D01*
G75*
G02*
X104354000Y-92433000I0J-150000D01*
G01*
X104354000Y-92733000D01*
G75*
G02*
X104204000Y-92883000I-150000J0D01*
G01*
X102804000Y-92883000D01*
G75*
G02*
X102654000Y-92733000I0J150000D01*
G01*
G37*
G36*
G01*
X102654000Y-91463000D02*
X102654000Y-91163000D01*
G75*
G02*
X102804000Y-91013000I150000J0D01*
G01*
X104204000Y-91013000D01*
G75*
G02*
X104354000Y-91163000I0J-150000D01*
G01*
X104354000Y-91463000D01*
G75*
G02*
X104204000Y-91613000I-150000J0D01*
G01*
X102804000Y-91613000D01*
G75*
G02*
X102654000Y-91463000I0J150000D01*
G01*
G37*
G36*
G01*
X102654000Y-90193000D02*
X102654000Y-89893000D01*
G75*
G02*
X102804000Y-89743000I150000J0D01*
G01*
X104204000Y-89743000D01*
G75*
G02*
X104354000Y-89893000I0J-150000D01*
G01*
X104354000Y-90193000D01*
G75*
G02*
X104204000Y-90343000I-150000J0D01*
G01*
X102804000Y-90343000D01*
G75*
G02*
X102654000Y-90193000I0J150000D01*
G01*
G37*
G36*
G01*
X102654000Y-88923000D02*
X102654000Y-88623000D01*
G75*
G02*
X102804000Y-88473000I150000J0D01*
G01*
X104204000Y-88473000D01*
G75*
G02*
X104354000Y-88623000I0J-150000D01*
G01*
X104354000Y-88923000D01*
G75*
G02*
X104204000Y-89073000I-150000J0D01*
G01*
X102804000Y-89073000D01*
G75*
G02*
X102654000Y-88923000I0J150000D01*
G01*
G37*
G36*
G01*
X102654000Y-87653000D02*
X102654000Y-87353000D01*
G75*
G02*
X102804000Y-87203000I150000J0D01*
G01*
X104204000Y-87203000D01*
G75*
G02*
X104354000Y-87353000I0J-150000D01*
G01*
X104354000Y-87653000D01*
G75*
G02*
X104204000Y-87803000I-150000J0D01*
G01*
X102804000Y-87803000D01*
G75*
G02*
X102654000Y-87653000I0J150000D01*
G01*
G37*
G36*
G01*
X102654000Y-86383000D02*
X102654000Y-86083000D01*
G75*
G02*
X102804000Y-85933000I150000J0D01*
G01*
X104204000Y-85933000D01*
G75*
G02*
X104354000Y-86083000I0J-150000D01*
G01*
X104354000Y-86383000D01*
G75*
G02*
X104204000Y-86533000I-150000J0D01*
G01*
X102804000Y-86533000D01*
G75*
G02*
X102654000Y-86383000I0J150000D01*
G01*
G37*
G36*
G01*
X102654000Y-85113000D02*
X102654000Y-84813000D01*
G75*
G02*
X102804000Y-84663000I150000J0D01*
G01*
X104204000Y-84663000D01*
G75*
G02*
X104354000Y-84813000I0J-150000D01*
G01*
X104354000Y-85113000D01*
G75*
G02*
X104204000Y-85263000I-150000J0D01*
G01*
X102804000Y-85263000D01*
G75*
G02*
X102654000Y-85113000I0J150000D01*
G01*
G37*
G36*
G01*
X102654000Y-83843000D02*
X102654000Y-83543000D01*
G75*
G02*
X102804000Y-83393000I150000J0D01*
G01*
X104204000Y-83393000D01*
G75*
G02*
X104354000Y-83543000I0J-150000D01*
G01*
X104354000Y-83843000D01*
G75*
G02*
X104204000Y-83993000I-150000J0D01*
G01*
X102804000Y-83993000D01*
G75*
G02*
X102654000Y-83843000I0J150000D01*
G01*
G37*
G36*
G01*
X102654000Y-82573000D02*
X102654000Y-82273000D01*
G75*
G02*
X102804000Y-82123000I150000J0D01*
G01*
X104204000Y-82123000D01*
G75*
G02*
X104354000Y-82273000I0J-150000D01*
G01*
X104354000Y-82573000D01*
G75*
G02*
X104204000Y-82723000I-150000J0D01*
G01*
X102804000Y-82723000D01*
G75*
G02*
X102654000Y-82573000I0J150000D01*
G01*
G37*
G36*
G01*
X102654000Y-81303000D02*
X102654000Y-81003000D01*
G75*
G02*
X102804000Y-80853000I150000J0D01*
G01*
X104204000Y-80853000D01*
G75*
G02*
X104354000Y-81003000I0J-150000D01*
G01*
X104354000Y-81303000D01*
G75*
G02*
X104204000Y-81453000I-150000J0D01*
G01*
X102804000Y-81453000D01*
G75*
G02*
X102654000Y-81303000I0J150000D01*
G01*
G37*
G36*
G01*
X102654000Y-80033000D02*
X102654000Y-79733000D01*
G75*
G02*
X102804000Y-79583000I150000J0D01*
G01*
X104204000Y-79583000D01*
G75*
G02*
X104354000Y-79733000I0J-150000D01*
G01*
X104354000Y-80033000D01*
G75*
G02*
X104204000Y-80183000I-150000J0D01*
G01*
X102804000Y-80183000D01*
G75*
G02*
X102654000Y-80033000I0J150000D01*
G01*
G37*
G36*
G01*
X102654000Y-78763000D02*
X102654000Y-78463000D01*
G75*
G02*
X102804000Y-78313000I150000J0D01*
G01*
X104204000Y-78313000D01*
G75*
G02*
X104354000Y-78463000I0J-150000D01*
G01*
X104354000Y-78763000D01*
G75*
G02*
X104204000Y-78913000I-150000J0D01*
G01*
X102804000Y-78913000D01*
G75*
G02*
X102654000Y-78763000I0J150000D01*
G01*
G37*
G36*
G01*
X102654000Y-77493000D02*
X102654000Y-77193000D01*
G75*
G02*
X102804000Y-77043000I150000J0D01*
G01*
X104204000Y-77043000D01*
G75*
G02*
X104354000Y-77193000I0J-150000D01*
G01*
X104354000Y-77493000D01*
G75*
G02*
X104204000Y-77643000I-150000J0D01*
G01*
X102804000Y-77643000D01*
G75*
G02*
X102654000Y-77493000I0J150000D01*
G01*
G37*
G36*
G01*
X102654000Y-76223000D02*
X102654000Y-75923000D01*
G75*
G02*
X102804000Y-75773000I150000J0D01*
G01*
X104204000Y-75773000D01*
G75*
G02*
X104354000Y-75923000I0J-150000D01*
G01*
X104354000Y-76223000D01*
G75*
G02*
X104204000Y-76373000I-150000J0D01*
G01*
X102804000Y-76373000D01*
G75*
G02*
X102654000Y-76223000I0J150000D01*
G01*
G37*
%TD*%
D15*
%TO.C,U7*%
X106594500Y-123313500D03*
X101044500Y-118463500D03*
X101044500Y-123313500D03*
X106594500Y-118463500D03*
D16*
X106359500Y-130038500D03*
X101279500Y-130038500D03*
%TD*%
%TO.C,U8*%
G36*
G01*
X89004000Y-110412000D02*
X89304000Y-110412000D01*
G75*
G02*
X89454000Y-110562000I0J-150000D01*
G01*
X89454000Y-112012000D01*
G75*
G02*
X89304000Y-112162000I-150000J0D01*
G01*
X89004000Y-112162000D01*
G75*
G02*
X88854000Y-112012000I0J150000D01*
G01*
X88854000Y-110562000D01*
G75*
G02*
X89004000Y-110412000I150000J0D01*
G01*
G37*
G36*
G01*
X87734000Y-110412000D02*
X88034000Y-110412000D01*
G75*
G02*
X88184000Y-110562000I0J-150000D01*
G01*
X88184000Y-112012000D01*
G75*
G02*
X88034000Y-112162000I-150000J0D01*
G01*
X87734000Y-112162000D01*
G75*
G02*
X87584000Y-112012000I0J150000D01*
G01*
X87584000Y-110562000D01*
G75*
G02*
X87734000Y-110412000I150000J0D01*
G01*
G37*
G36*
G01*
X86464000Y-110412000D02*
X86764000Y-110412000D01*
G75*
G02*
X86914000Y-110562000I0J-150000D01*
G01*
X86914000Y-112012000D01*
G75*
G02*
X86764000Y-112162000I-150000J0D01*
G01*
X86464000Y-112162000D01*
G75*
G02*
X86314000Y-112012000I0J150000D01*
G01*
X86314000Y-110562000D01*
G75*
G02*
X86464000Y-110412000I150000J0D01*
G01*
G37*
G36*
G01*
X85194000Y-110412000D02*
X85494000Y-110412000D01*
G75*
G02*
X85644000Y-110562000I0J-150000D01*
G01*
X85644000Y-112012000D01*
G75*
G02*
X85494000Y-112162000I-150000J0D01*
G01*
X85194000Y-112162000D01*
G75*
G02*
X85044000Y-112012000I0J150000D01*
G01*
X85044000Y-110562000D01*
G75*
G02*
X85194000Y-110412000I150000J0D01*
G01*
G37*
G36*
G01*
X83924000Y-110412000D02*
X84224000Y-110412000D01*
G75*
G02*
X84374000Y-110562000I0J-150000D01*
G01*
X84374000Y-112012000D01*
G75*
G02*
X84224000Y-112162000I-150000J0D01*
G01*
X83924000Y-112162000D01*
G75*
G02*
X83774000Y-112012000I0J150000D01*
G01*
X83774000Y-110562000D01*
G75*
G02*
X83924000Y-110412000I150000J0D01*
G01*
G37*
G36*
G01*
X82654000Y-110412000D02*
X82954000Y-110412000D01*
G75*
G02*
X83104000Y-110562000I0J-150000D01*
G01*
X83104000Y-112012000D01*
G75*
G02*
X82954000Y-112162000I-150000J0D01*
G01*
X82654000Y-112162000D01*
G75*
G02*
X82504000Y-112012000I0J150000D01*
G01*
X82504000Y-110562000D01*
G75*
G02*
X82654000Y-110412000I150000J0D01*
G01*
G37*
G36*
G01*
X81384000Y-110412000D02*
X81684000Y-110412000D01*
G75*
G02*
X81834000Y-110562000I0J-150000D01*
G01*
X81834000Y-112012000D01*
G75*
G02*
X81684000Y-112162000I-150000J0D01*
G01*
X81384000Y-112162000D01*
G75*
G02*
X81234000Y-112012000I0J150000D01*
G01*
X81234000Y-110562000D01*
G75*
G02*
X81384000Y-110412000I150000J0D01*
G01*
G37*
G36*
G01*
X80114000Y-110412000D02*
X80414000Y-110412000D01*
G75*
G02*
X80564000Y-110562000I0J-150000D01*
G01*
X80564000Y-112012000D01*
G75*
G02*
X80414000Y-112162000I-150000J0D01*
G01*
X80114000Y-112162000D01*
G75*
G02*
X79964000Y-112012000I0J150000D01*
G01*
X79964000Y-110562000D01*
G75*
G02*
X80114000Y-110412000I150000J0D01*
G01*
G37*
G36*
G01*
X80114000Y-105262000D02*
X80414000Y-105262000D01*
G75*
G02*
X80564000Y-105412000I0J-150000D01*
G01*
X80564000Y-106862000D01*
G75*
G02*
X80414000Y-107012000I-150000J0D01*
G01*
X80114000Y-107012000D01*
G75*
G02*
X79964000Y-106862000I0J150000D01*
G01*
X79964000Y-105412000D01*
G75*
G02*
X80114000Y-105262000I150000J0D01*
G01*
G37*
G36*
G01*
X81384000Y-105262000D02*
X81684000Y-105262000D01*
G75*
G02*
X81834000Y-105412000I0J-150000D01*
G01*
X81834000Y-106862000D01*
G75*
G02*
X81684000Y-107012000I-150000J0D01*
G01*
X81384000Y-107012000D01*
G75*
G02*
X81234000Y-106862000I0J150000D01*
G01*
X81234000Y-105412000D01*
G75*
G02*
X81384000Y-105262000I150000J0D01*
G01*
G37*
G36*
G01*
X82654000Y-105262000D02*
X82954000Y-105262000D01*
G75*
G02*
X83104000Y-105412000I0J-150000D01*
G01*
X83104000Y-106862000D01*
G75*
G02*
X82954000Y-107012000I-150000J0D01*
G01*
X82654000Y-107012000D01*
G75*
G02*
X82504000Y-106862000I0J150000D01*
G01*
X82504000Y-105412000D01*
G75*
G02*
X82654000Y-105262000I150000J0D01*
G01*
G37*
G36*
G01*
X83924000Y-105262000D02*
X84224000Y-105262000D01*
G75*
G02*
X84374000Y-105412000I0J-150000D01*
G01*
X84374000Y-106862000D01*
G75*
G02*
X84224000Y-107012000I-150000J0D01*
G01*
X83924000Y-107012000D01*
G75*
G02*
X83774000Y-106862000I0J150000D01*
G01*
X83774000Y-105412000D01*
G75*
G02*
X83924000Y-105262000I150000J0D01*
G01*
G37*
G36*
G01*
X85194000Y-105262000D02*
X85494000Y-105262000D01*
G75*
G02*
X85644000Y-105412000I0J-150000D01*
G01*
X85644000Y-106862000D01*
G75*
G02*
X85494000Y-107012000I-150000J0D01*
G01*
X85194000Y-107012000D01*
G75*
G02*
X85044000Y-106862000I0J150000D01*
G01*
X85044000Y-105412000D01*
G75*
G02*
X85194000Y-105262000I150000J0D01*
G01*
G37*
G36*
G01*
X86464000Y-105262000D02*
X86764000Y-105262000D01*
G75*
G02*
X86914000Y-105412000I0J-150000D01*
G01*
X86914000Y-106862000D01*
G75*
G02*
X86764000Y-107012000I-150000J0D01*
G01*
X86464000Y-107012000D01*
G75*
G02*
X86314000Y-106862000I0J150000D01*
G01*
X86314000Y-105412000D01*
G75*
G02*
X86464000Y-105262000I150000J0D01*
G01*
G37*
G36*
G01*
X87734000Y-105262000D02*
X88034000Y-105262000D01*
G75*
G02*
X88184000Y-105412000I0J-150000D01*
G01*
X88184000Y-106862000D01*
G75*
G02*
X88034000Y-107012000I-150000J0D01*
G01*
X87734000Y-107012000D01*
G75*
G02*
X87584000Y-106862000I0J150000D01*
G01*
X87584000Y-105412000D01*
G75*
G02*
X87734000Y-105262000I150000J0D01*
G01*
G37*
G36*
G01*
X89004000Y-105262000D02*
X89304000Y-105262000D01*
G75*
G02*
X89454000Y-105412000I0J-150000D01*
G01*
X89454000Y-106862000D01*
G75*
G02*
X89304000Y-107012000I-150000J0D01*
G01*
X89004000Y-107012000D01*
G75*
G02*
X88854000Y-106862000I0J150000D01*
G01*
X88854000Y-105412000D01*
G75*
G02*
X89004000Y-105262000I150000J0D01*
G01*
G37*
%TD*%
%TO.C,C11*%
G36*
G01*
X91788000Y-109913000D02*
X90838000Y-109913000D01*
G75*
G02*
X90588000Y-109663000I0J250000D01*
G01*
X90588000Y-109163000D01*
G75*
G02*
X90838000Y-108913000I250000J0D01*
G01*
X91788000Y-108913000D01*
G75*
G02*
X92038000Y-109163000I0J-250000D01*
G01*
X92038000Y-109663000D01*
G75*
G02*
X91788000Y-109913000I-250000J0D01*
G01*
G37*
G36*
G01*
X91788000Y-111813000D02*
X90838000Y-111813000D01*
G75*
G02*
X90588000Y-111563000I0J250000D01*
G01*
X90588000Y-111063000D01*
G75*
G02*
X90838000Y-110813000I250000J0D01*
G01*
X91788000Y-110813000D01*
G75*
G02*
X92038000Y-111063000I0J-250000D01*
G01*
X92038000Y-111563000D01*
G75*
G02*
X91788000Y-111813000I-250000J0D01*
G01*
G37*
%TD*%
%TO.C,C10*%
G36*
G01*
X88359000Y-102039000D02*
X87409000Y-102039000D01*
G75*
G02*
X87159000Y-101789000I0J250000D01*
G01*
X87159000Y-101289000D01*
G75*
G02*
X87409000Y-101039000I250000J0D01*
G01*
X88359000Y-101039000D01*
G75*
G02*
X88609000Y-101289000I0J-250000D01*
G01*
X88609000Y-101789000D01*
G75*
G02*
X88359000Y-102039000I-250000J0D01*
G01*
G37*
G36*
G01*
X88359000Y-103939000D02*
X87409000Y-103939000D01*
G75*
G02*
X87159000Y-103689000I0J250000D01*
G01*
X87159000Y-103189000D01*
G75*
G02*
X87409000Y-102939000I250000J0D01*
G01*
X88359000Y-102939000D01*
G75*
G02*
X88609000Y-103189000I0J-250000D01*
G01*
X88609000Y-103689000D01*
G75*
G02*
X88359000Y-103939000I-250000J0D01*
G01*
G37*
%TD*%
%TO.C,C9*%
G36*
G01*
X83345000Y-102939000D02*
X84295000Y-102939000D01*
G75*
G02*
X84545000Y-103189000I0J-250000D01*
G01*
X84545000Y-103689000D01*
G75*
G02*
X84295000Y-103939000I-250000J0D01*
G01*
X83345000Y-103939000D01*
G75*
G02*
X83095000Y-103689000I0J250000D01*
G01*
X83095000Y-103189000D01*
G75*
G02*
X83345000Y-102939000I250000J0D01*
G01*
G37*
G36*
G01*
X83345000Y-101039000D02*
X84295000Y-101039000D01*
G75*
G02*
X84545000Y-101289000I0J-250000D01*
G01*
X84545000Y-101789000D01*
G75*
G02*
X84295000Y-102039000I-250000J0D01*
G01*
X83345000Y-102039000D01*
G75*
G02*
X83095000Y-101789000I0J250000D01*
G01*
X83095000Y-101289000D01*
G75*
G02*
X83345000Y-101039000I250000J0D01*
G01*
G37*
%TD*%
%TO.C,C8*%
G36*
G01*
X85377000Y-102939000D02*
X86327000Y-102939000D01*
G75*
G02*
X86577000Y-103189000I0J-250000D01*
G01*
X86577000Y-103689000D01*
G75*
G02*
X86327000Y-103939000I-250000J0D01*
G01*
X85377000Y-103939000D01*
G75*
G02*
X85127000Y-103689000I0J250000D01*
G01*
X85127000Y-103189000D01*
G75*
G02*
X85377000Y-102939000I250000J0D01*
G01*
G37*
G36*
G01*
X85377000Y-101039000D02*
X86327000Y-101039000D01*
G75*
G02*
X86577000Y-101289000I0J-250000D01*
G01*
X86577000Y-101789000D01*
G75*
G02*
X86327000Y-102039000I-250000J0D01*
G01*
X85377000Y-102039000D01*
G75*
G02*
X85127000Y-101789000I0J250000D01*
G01*
X85127000Y-101289000D01*
G75*
G02*
X85377000Y-101039000I250000J0D01*
G01*
G37*
%TD*%
%TO.C,R10*%
G36*
G01*
X151024000Y-110103498D02*
X151024000Y-111003502D01*
G75*
G02*
X150774002Y-111253500I-249998J0D01*
G01*
X150248998Y-111253500D01*
G75*
G02*
X149999000Y-111003502I0J249998D01*
G01*
X149999000Y-110103498D01*
G75*
G02*
X150248998Y-109853500I249998J0D01*
G01*
X150774002Y-109853500D01*
G75*
G02*
X151024000Y-110103498I0J-249998D01*
G01*
G37*
G36*
G01*
X152849000Y-110103498D02*
X152849000Y-111003502D01*
G75*
G02*
X152599002Y-111253500I-249998J0D01*
G01*
X152073998Y-111253500D01*
G75*
G02*
X151824000Y-111003502I0J249998D01*
G01*
X151824000Y-110103498D01*
G75*
G02*
X152073998Y-109853500I249998J0D01*
G01*
X152599002Y-109853500D01*
G75*
G02*
X152849000Y-110103498I0J-249998D01*
G01*
G37*
%TD*%
%TO.C,R7*%
G36*
G01*
X125279998Y-105302000D02*
X126180002Y-105302000D01*
G75*
G02*
X126430000Y-105551998I0J-249998D01*
G01*
X126430000Y-106077002D01*
G75*
G02*
X126180002Y-106327000I-249998J0D01*
G01*
X125279998Y-106327000D01*
G75*
G02*
X125030000Y-106077002I0J249998D01*
G01*
X125030000Y-105551998D01*
G75*
G02*
X125279998Y-105302000I249998J0D01*
G01*
G37*
G36*
G01*
X125279998Y-103477000D02*
X126180002Y-103477000D01*
G75*
G02*
X126430000Y-103726998I0J-249998D01*
G01*
X126430000Y-104252002D01*
G75*
G02*
X126180002Y-104502000I-249998J0D01*
G01*
X125279998Y-104502000D01*
G75*
G02*
X125030000Y-104252002I0J249998D01*
G01*
X125030000Y-103726998D01*
G75*
G02*
X125279998Y-103477000I249998J0D01*
G01*
G37*
%TD*%
%TO.C,R5*%
G36*
G01*
X151530000Y-86683002D02*
X151530000Y-85782998D01*
G75*
G02*
X151779998Y-85533000I249998J0D01*
G01*
X152305002Y-85533000D01*
G75*
G02*
X152555000Y-85782998I0J-249998D01*
G01*
X152555000Y-86683002D01*
G75*
G02*
X152305002Y-86933000I-249998J0D01*
G01*
X151779998Y-86933000D01*
G75*
G02*
X151530000Y-86683002I0J249998D01*
G01*
G37*
G36*
G01*
X149705000Y-86683002D02*
X149705000Y-85782998D01*
G75*
G02*
X149954998Y-85533000I249998J0D01*
G01*
X150480002Y-85533000D01*
G75*
G02*
X150730000Y-85782998I0J-249998D01*
G01*
X150730000Y-86683002D01*
G75*
G02*
X150480002Y-86933000I-249998J0D01*
G01*
X149954998Y-86933000D01*
G75*
G02*
X149705000Y-86683002I0J249998D01*
G01*
G37*
%TD*%
D12*
%TO.C,D2*%
X153952000Y-85852000D03*
X157452000Y-85852000D03*
%TD*%
%TO.C,R4*%
G36*
G01*
X151530000Y-82492002D02*
X151530000Y-81591998D01*
G75*
G02*
X151779998Y-81342000I249998J0D01*
G01*
X152305002Y-81342000D01*
G75*
G02*
X152555000Y-81591998I0J-249998D01*
G01*
X152555000Y-82492002D01*
G75*
G02*
X152305002Y-82742000I-249998J0D01*
G01*
X151779998Y-82742000D01*
G75*
G02*
X151530000Y-82492002I0J249998D01*
G01*
G37*
G36*
G01*
X149705000Y-82492002D02*
X149705000Y-81591998D01*
G75*
G02*
X149954998Y-81342000I249998J0D01*
G01*
X150480002Y-81342000D01*
G75*
G02*
X150730000Y-81591998I0J-249998D01*
G01*
X150730000Y-82492002D01*
G75*
G02*
X150480002Y-82742000I-249998J0D01*
G01*
X149954998Y-82742000D01*
G75*
G02*
X149705000Y-82492002I0J249998D01*
G01*
G37*
%TD*%
%TO.C,R1*%
G36*
G01*
X129343998Y-105302000D02*
X130244002Y-105302000D01*
G75*
G02*
X130494000Y-105551998I0J-249998D01*
G01*
X130494000Y-106077002D01*
G75*
G02*
X130244002Y-106327000I-249998J0D01*
G01*
X129343998Y-106327000D01*
G75*
G02*
X129094000Y-106077002I0J249998D01*
G01*
X129094000Y-105551998D01*
G75*
G02*
X129343998Y-105302000I249998J0D01*
G01*
G37*
G36*
G01*
X129343998Y-103477000D02*
X130244002Y-103477000D01*
G75*
G02*
X130494000Y-103726998I0J-249998D01*
G01*
X130494000Y-104252002D01*
G75*
G02*
X130244002Y-104502000I-249998J0D01*
G01*
X129343998Y-104502000D01*
G75*
G02*
X129094000Y-104252002I0J249998D01*
G01*
X129094000Y-103726998D01*
G75*
G02*
X129343998Y-103477000I249998J0D01*
G01*
G37*
%TD*%
%TO.C,C4*%
G36*
G01*
X134333000Y-104452000D02*
X133383000Y-104452000D01*
G75*
G02*
X133133000Y-104202000I0J250000D01*
G01*
X133133000Y-103702000D01*
G75*
G02*
X133383000Y-103452000I250000J0D01*
G01*
X134333000Y-103452000D01*
G75*
G02*
X134583000Y-103702000I0J-250000D01*
G01*
X134583000Y-104202000D01*
G75*
G02*
X134333000Y-104452000I-250000J0D01*
G01*
G37*
G36*
G01*
X134333000Y-106352000D02*
X133383000Y-106352000D01*
G75*
G02*
X133133000Y-106102000I0J250000D01*
G01*
X133133000Y-105602000D01*
G75*
G02*
X133383000Y-105352000I250000J0D01*
G01*
X134333000Y-105352000D01*
G75*
G02*
X134583000Y-105602000I0J-250000D01*
G01*
X134583000Y-106102000D01*
G75*
G02*
X134333000Y-106352000I-250000J0D01*
G01*
G37*
%TD*%
%TO.C,C3*%
G36*
G01*
X127287000Y-105352000D02*
X128237000Y-105352000D01*
G75*
G02*
X128487000Y-105602000I0J-250000D01*
G01*
X128487000Y-106102000D01*
G75*
G02*
X128237000Y-106352000I-250000J0D01*
G01*
X127287000Y-106352000D01*
G75*
G02*
X127037000Y-106102000I0J250000D01*
G01*
X127037000Y-105602000D01*
G75*
G02*
X127287000Y-105352000I250000J0D01*
G01*
G37*
G36*
G01*
X127287000Y-103452000D02*
X128237000Y-103452000D01*
G75*
G02*
X128487000Y-103702000I0J-250000D01*
G01*
X128487000Y-104202000D01*
G75*
G02*
X128237000Y-104452000I-250000J0D01*
G01*
X127287000Y-104452000D01*
G75*
G02*
X127037000Y-104202000I0J250000D01*
G01*
X127037000Y-103702000D01*
G75*
G02*
X127287000Y-103452000I250000J0D01*
G01*
G37*
%TD*%
%TO.C,R3*%
G36*
G01*
X134220000Y-107499998D02*
X134220000Y-108400002D01*
G75*
G02*
X133970002Y-108650000I-249998J0D01*
G01*
X133444998Y-108650000D01*
G75*
G02*
X133195000Y-108400002I0J249998D01*
G01*
X133195000Y-107499998D01*
G75*
G02*
X133444998Y-107250000I249998J0D01*
G01*
X133970002Y-107250000D01*
G75*
G02*
X134220000Y-107499998I0J-249998D01*
G01*
G37*
G36*
G01*
X136045000Y-107499998D02*
X136045000Y-108400002D01*
G75*
G02*
X135795002Y-108650000I-249998J0D01*
G01*
X135269998Y-108650000D01*
G75*
G02*
X135020000Y-108400002I0J249998D01*
G01*
X135020000Y-107499998D01*
G75*
G02*
X135269998Y-107250000I249998J0D01*
G01*
X135795002Y-107250000D01*
G75*
G02*
X136045000Y-107499998I0J-249998D01*
G01*
G37*
%TD*%
%TO.C,R2*%
G36*
G01*
X131375998Y-105302000D02*
X132276002Y-105302000D01*
G75*
G02*
X132526000Y-105551998I0J-249998D01*
G01*
X132526000Y-106077002D01*
G75*
G02*
X132276002Y-106327000I-249998J0D01*
G01*
X131375998Y-106327000D01*
G75*
G02*
X131126000Y-106077002I0J249998D01*
G01*
X131126000Y-105551998D01*
G75*
G02*
X131375998Y-105302000I249998J0D01*
G01*
G37*
G36*
G01*
X131375998Y-103477000D02*
X132276002Y-103477000D01*
G75*
G02*
X132526000Y-103726998I0J-249998D01*
G01*
X132526000Y-104252002D01*
G75*
G02*
X132276002Y-104502000I-249998J0D01*
G01*
X131375998Y-104502000D01*
G75*
G02*
X131126000Y-104252002I0J249998D01*
G01*
X131126000Y-103726998D01*
G75*
G02*
X131375998Y-103477000I249998J0D01*
G01*
G37*
%TD*%
%TO.C,C2*%
G36*
G01*
X131641000Y-110584000D02*
X131641000Y-109634000D01*
G75*
G02*
X131891000Y-109384000I250000J0D01*
G01*
X132391000Y-109384000D01*
G75*
G02*
X132641000Y-109634000I0J-250000D01*
G01*
X132641000Y-110584000D01*
G75*
G02*
X132391000Y-110834000I-250000J0D01*
G01*
X131891000Y-110834000D01*
G75*
G02*
X131641000Y-110584000I0J250000D01*
G01*
G37*
G36*
G01*
X129741000Y-110584000D02*
X129741000Y-109634000D01*
G75*
G02*
X129991000Y-109384000I250000J0D01*
G01*
X130491000Y-109384000D01*
G75*
G02*
X130741000Y-109634000I0J-250000D01*
G01*
X130741000Y-110584000D01*
G75*
G02*
X130491000Y-110834000I-250000J0D01*
G01*
X129991000Y-110834000D01*
G75*
G02*
X129741000Y-110584000I0J250000D01*
G01*
G37*
%TD*%
%TO.C,C1*%
G36*
G01*
X131641000Y-108425000D02*
X131641000Y-107475000D01*
G75*
G02*
X131891000Y-107225000I250000J0D01*
G01*
X132391000Y-107225000D01*
G75*
G02*
X132641000Y-107475000I0J-250000D01*
G01*
X132641000Y-108425000D01*
G75*
G02*
X132391000Y-108675000I-250000J0D01*
G01*
X131891000Y-108675000D01*
G75*
G02*
X131641000Y-108425000I0J250000D01*
G01*
G37*
G36*
G01*
X129741000Y-108425000D02*
X129741000Y-107475000D01*
G75*
G02*
X129991000Y-107225000I250000J0D01*
G01*
X130491000Y-107225000D01*
G75*
G02*
X130741000Y-107475000I0J-250000D01*
G01*
X130741000Y-108425000D01*
G75*
G02*
X130491000Y-108675000I-250000J0D01*
G01*
X129991000Y-108675000D01*
G75*
G02*
X129741000Y-108425000I0J250000D01*
G01*
G37*
%TD*%
%TO.C,U6*%
G36*
G01*
X97830000Y-76223000D02*
X97830000Y-75923000D01*
G75*
G02*
X97980000Y-75773000I150000J0D01*
G01*
X99380000Y-75773000D01*
G75*
G02*
X99530000Y-75923000I0J-150000D01*
G01*
X99530000Y-76223000D01*
G75*
G02*
X99380000Y-76373000I-150000J0D01*
G01*
X97980000Y-76373000D01*
G75*
G02*
X97830000Y-76223000I0J150000D01*
G01*
G37*
G36*
G01*
X97830000Y-77493000D02*
X97830000Y-77193000D01*
G75*
G02*
X97980000Y-77043000I150000J0D01*
G01*
X99380000Y-77043000D01*
G75*
G02*
X99530000Y-77193000I0J-150000D01*
G01*
X99530000Y-77493000D01*
G75*
G02*
X99380000Y-77643000I-150000J0D01*
G01*
X97980000Y-77643000D01*
G75*
G02*
X97830000Y-77493000I0J150000D01*
G01*
G37*
G36*
G01*
X97830000Y-78763000D02*
X97830000Y-78463000D01*
G75*
G02*
X97980000Y-78313000I150000J0D01*
G01*
X99380000Y-78313000D01*
G75*
G02*
X99530000Y-78463000I0J-150000D01*
G01*
X99530000Y-78763000D01*
G75*
G02*
X99380000Y-78913000I-150000J0D01*
G01*
X97980000Y-78913000D01*
G75*
G02*
X97830000Y-78763000I0J150000D01*
G01*
G37*
G36*
G01*
X97830000Y-80033000D02*
X97830000Y-79733000D01*
G75*
G02*
X97980000Y-79583000I150000J0D01*
G01*
X99380000Y-79583000D01*
G75*
G02*
X99530000Y-79733000I0J-150000D01*
G01*
X99530000Y-80033000D01*
G75*
G02*
X99380000Y-80183000I-150000J0D01*
G01*
X97980000Y-80183000D01*
G75*
G02*
X97830000Y-80033000I0J150000D01*
G01*
G37*
G36*
G01*
X97830000Y-81303000D02*
X97830000Y-81003000D01*
G75*
G02*
X97980000Y-80853000I150000J0D01*
G01*
X99380000Y-80853000D01*
G75*
G02*
X99530000Y-81003000I0J-150000D01*
G01*
X99530000Y-81303000D01*
G75*
G02*
X99380000Y-81453000I-150000J0D01*
G01*
X97980000Y-81453000D01*
G75*
G02*
X97830000Y-81303000I0J150000D01*
G01*
G37*
G36*
G01*
X97830000Y-82573000D02*
X97830000Y-82273000D01*
G75*
G02*
X97980000Y-82123000I150000J0D01*
G01*
X99380000Y-82123000D01*
G75*
G02*
X99530000Y-82273000I0J-150000D01*
G01*
X99530000Y-82573000D01*
G75*
G02*
X99380000Y-82723000I-150000J0D01*
G01*
X97980000Y-82723000D01*
G75*
G02*
X97830000Y-82573000I0J150000D01*
G01*
G37*
G36*
G01*
X97830000Y-83843000D02*
X97830000Y-83543000D01*
G75*
G02*
X97980000Y-83393000I150000J0D01*
G01*
X99380000Y-83393000D01*
G75*
G02*
X99530000Y-83543000I0J-150000D01*
G01*
X99530000Y-83843000D01*
G75*
G02*
X99380000Y-83993000I-150000J0D01*
G01*
X97980000Y-83993000D01*
G75*
G02*
X97830000Y-83843000I0J150000D01*
G01*
G37*
G36*
G01*
X97830000Y-85113000D02*
X97830000Y-84813000D01*
G75*
G02*
X97980000Y-84663000I150000J0D01*
G01*
X99380000Y-84663000D01*
G75*
G02*
X99530000Y-84813000I0J-150000D01*
G01*
X99530000Y-85113000D01*
G75*
G02*
X99380000Y-85263000I-150000J0D01*
G01*
X97980000Y-85263000D01*
G75*
G02*
X97830000Y-85113000I0J150000D01*
G01*
G37*
G36*
G01*
X97830000Y-86383000D02*
X97830000Y-86083000D01*
G75*
G02*
X97980000Y-85933000I150000J0D01*
G01*
X99380000Y-85933000D01*
G75*
G02*
X99530000Y-86083000I0J-150000D01*
G01*
X99530000Y-86383000D01*
G75*
G02*
X99380000Y-86533000I-150000J0D01*
G01*
X97980000Y-86533000D01*
G75*
G02*
X97830000Y-86383000I0J150000D01*
G01*
G37*
G36*
G01*
X97830000Y-87653000D02*
X97830000Y-87353000D01*
G75*
G02*
X97980000Y-87203000I150000J0D01*
G01*
X99380000Y-87203000D01*
G75*
G02*
X99530000Y-87353000I0J-150000D01*
G01*
X99530000Y-87653000D01*
G75*
G02*
X99380000Y-87803000I-150000J0D01*
G01*
X97980000Y-87803000D01*
G75*
G02*
X97830000Y-87653000I0J150000D01*
G01*
G37*
G36*
G01*
X97830000Y-88923000D02*
X97830000Y-88623000D01*
G75*
G02*
X97980000Y-88473000I150000J0D01*
G01*
X99380000Y-88473000D01*
G75*
G02*
X99530000Y-88623000I0J-150000D01*
G01*
X99530000Y-88923000D01*
G75*
G02*
X99380000Y-89073000I-150000J0D01*
G01*
X97980000Y-89073000D01*
G75*
G02*
X97830000Y-88923000I0J150000D01*
G01*
G37*
G36*
G01*
X97830000Y-90193000D02*
X97830000Y-89893000D01*
G75*
G02*
X97980000Y-89743000I150000J0D01*
G01*
X99380000Y-89743000D01*
G75*
G02*
X99530000Y-89893000I0J-150000D01*
G01*
X99530000Y-90193000D01*
G75*
G02*
X99380000Y-90343000I-150000J0D01*
G01*
X97980000Y-90343000D01*
G75*
G02*
X97830000Y-90193000I0J150000D01*
G01*
G37*
G36*
G01*
X97830000Y-91463000D02*
X97830000Y-91163000D01*
G75*
G02*
X97980000Y-91013000I150000J0D01*
G01*
X99380000Y-91013000D01*
G75*
G02*
X99530000Y-91163000I0J-150000D01*
G01*
X99530000Y-91463000D01*
G75*
G02*
X99380000Y-91613000I-150000J0D01*
G01*
X97980000Y-91613000D01*
G75*
G02*
X97830000Y-91463000I0J150000D01*
G01*
G37*
G36*
G01*
X97830000Y-92733000D02*
X97830000Y-92433000D01*
G75*
G02*
X97980000Y-92283000I150000J0D01*
G01*
X99380000Y-92283000D01*
G75*
G02*
X99530000Y-92433000I0J-150000D01*
G01*
X99530000Y-92733000D01*
G75*
G02*
X99380000Y-92883000I-150000J0D01*
G01*
X97980000Y-92883000D01*
G75*
G02*
X97830000Y-92733000I0J150000D01*
G01*
G37*
G36*
G01*
X97830000Y-94003000D02*
X97830000Y-93703000D01*
G75*
G02*
X97980000Y-93553000I150000J0D01*
G01*
X99380000Y-93553000D01*
G75*
G02*
X99530000Y-93703000I0J-150000D01*
G01*
X99530000Y-94003000D01*
G75*
G02*
X99380000Y-94153000I-150000J0D01*
G01*
X97980000Y-94153000D01*
G75*
G02*
X97830000Y-94003000I0J150000D01*
G01*
G37*
G36*
G01*
X97830000Y-95273000D02*
X97830000Y-94973000D01*
G75*
G02*
X97980000Y-94823000I150000J0D01*
G01*
X99380000Y-94823000D01*
G75*
G02*
X99530000Y-94973000I0J-150000D01*
G01*
X99530000Y-95273000D01*
G75*
G02*
X99380000Y-95423000I-150000J0D01*
G01*
X97980000Y-95423000D01*
G75*
G02*
X97830000Y-95273000I0J150000D01*
G01*
G37*
G36*
G01*
X97830000Y-96543000D02*
X97830000Y-96243000D01*
G75*
G02*
X97980000Y-96093000I150000J0D01*
G01*
X99380000Y-96093000D01*
G75*
G02*
X99530000Y-96243000I0J-150000D01*
G01*
X99530000Y-96543000D01*
G75*
G02*
X99380000Y-96693000I-150000J0D01*
G01*
X97980000Y-96693000D01*
G75*
G02*
X97830000Y-96543000I0J150000D01*
G01*
G37*
G36*
G01*
X97830000Y-97813000D02*
X97830000Y-97513000D01*
G75*
G02*
X97980000Y-97363000I150000J0D01*
G01*
X99380000Y-97363000D01*
G75*
G02*
X99530000Y-97513000I0J-150000D01*
G01*
X99530000Y-97813000D01*
G75*
G02*
X99380000Y-97963000I-150000J0D01*
G01*
X97980000Y-97963000D01*
G75*
G02*
X97830000Y-97813000I0J150000D01*
G01*
G37*
G36*
G01*
X88430000Y-97813000D02*
X88430000Y-97513000D01*
G75*
G02*
X88580000Y-97363000I150000J0D01*
G01*
X89980000Y-97363000D01*
G75*
G02*
X90130000Y-97513000I0J-150000D01*
G01*
X90130000Y-97813000D01*
G75*
G02*
X89980000Y-97963000I-150000J0D01*
G01*
X88580000Y-97963000D01*
G75*
G02*
X88430000Y-97813000I0J150000D01*
G01*
G37*
G36*
G01*
X88430000Y-96543000D02*
X88430000Y-96243000D01*
G75*
G02*
X88580000Y-96093000I150000J0D01*
G01*
X89980000Y-96093000D01*
G75*
G02*
X90130000Y-96243000I0J-150000D01*
G01*
X90130000Y-96543000D01*
G75*
G02*
X89980000Y-96693000I-150000J0D01*
G01*
X88580000Y-96693000D01*
G75*
G02*
X88430000Y-96543000I0J150000D01*
G01*
G37*
G36*
G01*
X88430000Y-95273000D02*
X88430000Y-94973000D01*
G75*
G02*
X88580000Y-94823000I150000J0D01*
G01*
X89980000Y-94823000D01*
G75*
G02*
X90130000Y-94973000I0J-150000D01*
G01*
X90130000Y-95273000D01*
G75*
G02*
X89980000Y-95423000I-150000J0D01*
G01*
X88580000Y-95423000D01*
G75*
G02*
X88430000Y-95273000I0J150000D01*
G01*
G37*
G36*
G01*
X88430000Y-94003000D02*
X88430000Y-93703000D01*
G75*
G02*
X88580000Y-93553000I150000J0D01*
G01*
X89980000Y-93553000D01*
G75*
G02*
X90130000Y-93703000I0J-150000D01*
G01*
X90130000Y-94003000D01*
G75*
G02*
X89980000Y-94153000I-150000J0D01*
G01*
X88580000Y-94153000D01*
G75*
G02*
X88430000Y-94003000I0J150000D01*
G01*
G37*
G36*
G01*
X88430000Y-92733000D02*
X88430000Y-92433000D01*
G75*
G02*
X88580000Y-92283000I150000J0D01*
G01*
X89980000Y-92283000D01*
G75*
G02*
X90130000Y-92433000I0J-150000D01*
G01*
X90130000Y-92733000D01*
G75*
G02*
X89980000Y-92883000I-150000J0D01*
G01*
X88580000Y-92883000D01*
G75*
G02*
X88430000Y-92733000I0J150000D01*
G01*
G37*
G36*
G01*
X88430000Y-91463000D02*
X88430000Y-91163000D01*
G75*
G02*
X88580000Y-91013000I150000J0D01*
G01*
X89980000Y-91013000D01*
G75*
G02*
X90130000Y-91163000I0J-150000D01*
G01*
X90130000Y-91463000D01*
G75*
G02*
X89980000Y-91613000I-150000J0D01*
G01*
X88580000Y-91613000D01*
G75*
G02*
X88430000Y-91463000I0J150000D01*
G01*
G37*
G36*
G01*
X88430000Y-90193000D02*
X88430000Y-89893000D01*
G75*
G02*
X88580000Y-89743000I150000J0D01*
G01*
X89980000Y-89743000D01*
G75*
G02*
X90130000Y-89893000I0J-150000D01*
G01*
X90130000Y-90193000D01*
G75*
G02*
X89980000Y-90343000I-150000J0D01*
G01*
X88580000Y-90343000D01*
G75*
G02*
X88430000Y-90193000I0J150000D01*
G01*
G37*
G36*
G01*
X88430000Y-88923000D02*
X88430000Y-88623000D01*
G75*
G02*
X88580000Y-88473000I150000J0D01*
G01*
X89980000Y-88473000D01*
G75*
G02*
X90130000Y-88623000I0J-150000D01*
G01*
X90130000Y-88923000D01*
G75*
G02*
X89980000Y-89073000I-150000J0D01*
G01*
X88580000Y-89073000D01*
G75*
G02*
X88430000Y-88923000I0J150000D01*
G01*
G37*
G36*
G01*
X88430000Y-87653000D02*
X88430000Y-87353000D01*
G75*
G02*
X88580000Y-87203000I150000J0D01*
G01*
X89980000Y-87203000D01*
G75*
G02*
X90130000Y-87353000I0J-150000D01*
G01*
X90130000Y-87653000D01*
G75*
G02*
X89980000Y-87803000I-150000J0D01*
G01*
X88580000Y-87803000D01*
G75*
G02*
X88430000Y-87653000I0J150000D01*
G01*
G37*
G36*
G01*
X88430000Y-86383000D02*
X88430000Y-86083000D01*
G75*
G02*
X88580000Y-85933000I150000J0D01*
G01*
X89980000Y-85933000D01*
G75*
G02*
X90130000Y-86083000I0J-150000D01*
G01*
X90130000Y-86383000D01*
G75*
G02*
X89980000Y-86533000I-150000J0D01*
G01*
X88580000Y-86533000D01*
G75*
G02*
X88430000Y-86383000I0J150000D01*
G01*
G37*
G36*
G01*
X88430000Y-85113000D02*
X88430000Y-84813000D01*
G75*
G02*
X88580000Y-84663000I150000J0D01*
G01*
X89980000Y-84663000D01*
G75*
G02*
X90130000Y-84813000I0J-150000D01*
G01*
X90130000Y-85113000D01*
G75*
G02*
X89980000Y-85263000I-150000J0D01*
G01*
X88580000Y-85263000D01*
G75*
G02*
X88430000Y-85113000I0J150000D01*
G01*
G37*
G36*
G01*
X88430000Y-83843000D02*
X88430000Y-83543000D01*
G75*
G02*
X88580000Y-83393000I150000J0D01*
G01*
X89980000Y-83393000D01*
G75*
G02*
X90130000Y-83543000I0J-150000D01*
G01*
X90130000Y-83843000D01*
G75*
G02*
X89980000Y-83993000I-150000J0D01*
G01*
X88580000Y-83993000D01*
G75*
G02*
X88430000Y-83843000I0J150000D01*
G01*
G37*
G36*
G01*
X88430000Y-82573000D02*
X88430000Y-82273000D01*
G75*
G02*
X88580000Y-82123000I150000J0D01*
G01*
X89980000Y-82123000D01*
G75*
G02*
X90130000Y-82273000I0J-150000D01*
G01*
X90130000Y-82573000D01*
G75*
G02*
X89980000Y-82723000I-150000J0D01*
G01*
X88580000Y-82723000D01*
G75*
G02*
X88430000Y-82573000I0J150000D01*
G01*
G37*
G36*
G01*
X88430000Y-81303000D02*
X88430000Y-81003000D01*
G75*
G02*
X88580000Y-80853000I150000J0D01*
G01*
X89980000Y-80853000D01*
G75*
G02*
X90130000Y-81003000I0J-150000D01*
G01*
X90130000Y-81303000D01*
G75*
G02*
X89980000Y-81453000I-150000J0D01*
G01*
X88580000Y-81453000D01*
G75*
G02*
X88430000Y-81303000I0J150000D01*
G01*
G37*
G36*
G01*
X88430000Y-80033000D02*
X88430000Y-79733000D01*
G75*
G02*
X88580000Y-79583000I150000J0D01*
G01*
X89980000Y-79583000D01*
G75*
G02*
X90130000Y-79733000I0J-150000D01*
G01*
X90130000Y-80033000D01*
G75*
G02*
X89980000Y-80183000I-150000J0D01*
G01*
X88580000Y-80183000D01*
G75*
G02*
X88430000Y-80033000I0J150000D01*
G01*
G37*
G36*
G01*
X88430000Y-78763000D02*
X88430000Y-78463000D01*
G75*
G02*
X88580000Y-78313000I150000J0D01*
G01*
X89980000Y-78313000D01*
G75*
G02*
X90130000Y-78463000I0J-150000D01*
G01*
X90130000Y-78763000D01*
G75*
G02*
X89980000Y-78913000I-150000J0D01*
G01*
X88580000Y-78913000D01*
G75*
G02*
X88430000Y-78763000I0J150000D01*
G01*
G37*
G36*
G01*
X88430000Y-77493000D02*
X88430000Y-77193000D01*
G75*
G02*
X88580000Y-77043000I150000J0D01*
G01*
X89980000Y-77043000D01*
G75*
G02*
X90130000Y-77193000I0J-150000D01*
G01*
X90130000Y-77493000D01*
G75*
G02*
X89980000Y-77643000I-150000J0D01*
G01*
X88580000Y-77643000D01*
G75*
G02*
X88430000Y-77493000I0J150000D01*
G01*
G37*
G36*
G01*
X88430000Y-76223000D02*
X88430000Y-75923000D01*
G75*
G02*
X88580000Y-75773000I150000J0D01*
G01*
X89980000Y-75773000D01*
G75*
G02*
X90130000Y-75923000I0J-150000D01*
G01*
X90130000Y-76223000D01*
G75*
G02*
X89980000Y-76373000I-150000J0D01*
G01*
X88580000Y-76373000D01*
G75*
G02*
X88430000Y-76223000I0J150000D01*
G01*
G37*
%TD*%
%TO.C,U4*%
G36*
G01*
X70204000Y-84755000D02*
X69029000Y-84755000D01*
G75*
G02*
X68879000Y-84605000I0J150000D01*
G01*
X68879000Y-84305000D01*
G75*
G02*
X69029000Y-84155000I150000J0D01*
G01*
X70204000Y-84155000D01*
G75*
G02*
X70354000Y-84305000I0J-150000D01*
G01*
X70354000Y-84605000D01*
G75*
G02*
X70204000Y-84755000I-150000J0D01*
G01*
G37*
G36*
G01*
X70204000Y-83485000D02*
X69029000Y-83485000D01*
G75*
G02*
X68879000Y-83335000I0J150000D01*
G01*
X68879000Y-83035000D01*
G75*
G02*
X69029000Y-82885000I150000J0D01*
G01*
X70204000Y-82885000D01*
G75*
G02*
X70354000Y-83035000I0J-150000D01*
G01*
X70354000Y-83335000D01*
G75*
G02*
X70204000Y-83485000I-150000J0D01*
G01*
G37*
G36*
G01*
X70204000Y-82215000D02*
X69029000Y-82215000D01*
G75*
G02*
X68879000Y-82065000I0J150000D01*
G01*
X68879000Y-81765000D01*
G75*
G02*
X69029000Y-81615000I150000J0D01*
G01*
X70204000Y-81615000D01*
G75*
G02*
X70354000Y-81765000I0J-150000D01*
G01*
X70354000Y-82065000D01*
G75*
G02*
X70204000Y-82215000I-150000J0D01*
G01*
G37*
G36*
G01*
X71524000Y-80900000D02*
X71224000Y-80900000D01*
G75*
G02*
X71074000Y-80750000I0J150000D01*
G01*
X71074000Y-79575000D01*
G75*
G02*
X71224000Y-79425000I150000J0D01*
G01*
X71524000Y-79425000D01*
G75*
G02*
X71674000Y-79575000I0J-150000D01*
G01*
X71674000Y-80750000D01*
G75*
G02*
X71524000Y-80900000I-150000J0D01*
G01*
G37*
G36*
G01*
X72794000Y-80900000D02*
X72494000Y-80900000D01*
G75*
G02*
X72344000Y-80750000I0J150000D01*
G01*
X72344000Y-79575000D01*
G75*
G02*
X72494000Y-79425000I150000J0D01*
G01*
X72794000Y-79425000D01*
G75*
G02*
X72944000Y-79575000I0J-150000D01*
G01*
X72944000Y-80750000D01*
G75*
G02*
X72794000Y-80900000I-150000J0D01*
G01*
G37*
G36*
G01*
X74064000Y-80900000D02*
X73764000Y-80900000D01*
G75*
G02*
X73614000Y-80750000I0J150000D01*
G01*
X73614000Y-79575000D01*
G75*
G02*
X73764000Y-79425000I150000J0D01*
G01*
X74064000Y-79425000D01*
G75*
G02*
X74214000Y-79575000I0J-150000D01*
G01*
X74214000Y-80750000D01*
G75*
G02*
X74064000Y-80900000I-150000J0D01*
G01*
G37*
G36*
G01*
X75334000Y-80900000D02*
X75034000Y-80900000D01*
G75*
G02*
X74884000Y-80750000I0J150000D01*
G01*
X74884000Y-79575000D01*
G75*
G02*
X75034000Y-79425000I150000J0D01*
G01*
X75334000Y-79425000D01*
G75*
G02*
X75484000Y-79575000I0J-150000D01*
G01*
X75484000Y-80750000D01*
G75*
G02*
X75334000Y-80900000I-150000J0D01*
G01*
G37*
G36*
G01*
X76604000Y-80900000D02*
X76304000Y-80900000D01*
G75*
G02*
X76154000Y-80750000I0J150000D01*
G01*
X76154000Y-79575000D01*
G75*
G02*
X76304000Y-79425000I150000J0D01*
G01*
X76604000Y-79425000D01*
G75*
G02*
X76754000Y-79575000I0J-150000D01*
G01*
X76754000Y-80750000D01*
G75*
G02*
X76604000Y-80900000I-150000J0D01*
G01*
G37*
G36*
G01*
X77874000Y-80900000D02*
X77574000Y-80900000D01*
G75*
G02*
X77424000Y-80750000I0J150000D01*
G01*
X77424000Y-79575000D01*
G75*
G02*
X77574000Y-79425000I150000J0D01*
G01*
X77874000Y-79425000D01*
G75*
G02*
X78024000Y-79575000I0J-150000D01*
G01*
X78024000Y-80750000D01*
G75*
G02*
X77874000Y-80900000I-150000J0D01*
G01*
G37*
G36*
G01*
X79144000Y-80900000D02*
X78844000Y-80900000D01*
G75*
G02*
X78694000Y-80750000I0J150000D01*
G01*
X78694000Y-79575000D01*
G75*
G02*
X78844000Y-79425000I150000J0D01*
G01*
X79144000Y-79425000D01*
G75*
G02*
X79294000Y-79575000I0J-150000D01*
G01*
X79294000Y-80750000D01*
G75*
G02*
X79144000Y-80900000I-150000J0D01*
G01*
G37*
G36*
G01*
X80414000Y-80900000D02*
X80114000Y-80900000D01*
G75*
G02*
X79964000Y-80750000I0J150000D01*
G01*
X79964000Y-79575000D01*
G75*
G02*
X80114000Y-79425000I150000J0D01*
G01*
X80414000Y-79425000D01*
G75*
G02*
X80564000Y-79575000I0J-150000D01*
G01*
X80564000Y-80750000D01*
G75*
G02*
X80414000Y-80900000I-150000J0D01*
G01*
G37*
G36*
G01*
X81684000Y-80900000D02*
X81384000Y-80900000D01*
G75*
G02*
X81234000Y-80750000I0J150000D01*
G01*
X81234000Y-79575000D01*
G75*
G02*
X81384000Y-79425000I150000J0D01*
G01*
X81684000Y-79425000D01*
G75*
G02*
X81834000Y-79575000I0J-150000D01*
G01*
X81834000Y-80750000D01*
G75*
G02*
X81684000Y-80900000I-150000J0D01*
G01*
G37*
G36*
G01*
X83879000Y-82215000D02*
X82704000Y-82215000D01*
G75*
G02*
X82554000Y-82065000I0J150000D01*
G01*
X82554000Y-81765000D01*
G75*
G02*
X82704000Y-81615000I150000J0D01*
G01*
X83879000Y-81615000D01*
G75*
G02*
X84029000Y-81765000I0J-150000D01*
G01*
X84029000Y-82065000D01*
G75*
G02*
X83879000Y-82215000I-150000J0D01*
G01*
G37*
G36*
G01*
X83879000Y-83485000D02*
X82704000Y-83485000D01*
G75*
G02*
X82554000Y-83335000I0J150000D01*
G01*
X82554000Y-83035000D01*
G75*
G02*
X82704000Y-82885000I150000J0D01*
G01*
X83879000Y-82885000D01*
G75*
G02*
X84029000Y-83035000I0J-150000D01*
G01*
X84029000Y-83335000D01*
G75*
G02*
X83879000Y-83485000I-150000J0D01*
G01*
G37*
G36*
G01*
X83879000Y-84755000D02*
X82704000Y-84755000D01*
G75*
G02*
X82554000Y-84605000I0J150000D01*
G01*
X82554000Y-84305000D01*
G75*
G02*
X82704000Y-84155000I150000J0D01*
G01*
X83879000Y-84155000D01*
G75*
G02*
X84029000Y-84305000I0J-150000D01*
G01*
X84029000Y-84605000D01*
G75*
G02*
X83879000Y-84755000I-150000J0D01*
G01*
G37*
G36*
G01*
X83879000Y-86025000D02*
X82704000Y-86025000D01*
G75*
G02*
X82554000Y-85875000I0J150000D01*
G01*
X82554000Y-85575000D01*
G75*
G02*
X82704000Y-85425000I150000J0D01*
G01*
X83879000Y-85425000D01*
G75*
G02*
X84029000Y-85575000I0J-150000D01*
G01*
X84029000Y-85875000D01*
G75*
G02*
X83879000Y-86025000I-150000J0D01*
G01*
G37*
G36*
G01*
X83879000Y-87295000D02*
X82704000Y-87295000D01*
G75*
G02*
X82554000Y-87145000I0J150000D01*
G01*
X82554000Y-86845000D01*
G75*
G02*
X82704000Y-86695000I150000J0D01*
G01*
X83879000Y-86695000D01*
G75*
G02*
X84029000Y-86845000I0J-150000D01*
G01*
X84029000Y-87145000D01*
G75*
G02*
X83879000Y-87295000I-150000J0D01*
G01*
G37*
G36*
G01*
X83879000Y-88565000D02*
X82704000Y-88565000D01*
G75*
G02*
X82554000Y-88415000I0J150000D01*
G01*
X82554000Y-88115000D01*
G75*
G02*
X82704000Y-87965000I150000J0D01*
G01*
X83879000Y-87965000D01*
G75*
G02*
X84029000Y-88115000I0J-150000D01*
G01*
X84029000Y-88415000D01*
G75*
G02*
X83879000Y-88565000I-150000J0D01*
G01*
G37*
G36*
G01*
X83879000Y-89835000D02*
X82704000Y-89835000D01*
G75*
G02*
X82554000Y-89685000I0J150000D01*
G01*
X82554000Y-89385000D01*
G75*
G02*
X82704000Y-89235000I150000J0D01*
G01*
X83879000Y-89235000D01*
G75*
G02*
X84029000Y-89385000I0J-150000D01*
G01*
X84029000Y-89685000D01*
G75*
G02*
X83879000Y-89835000I-150000J0D01*
G01*
G37*
G36*
G01*
X81684000Y-92025000D02*
X81384000Y-92025000D01*
G75*
G02*
X81234000Y-91875000I0J150000D01*
G01*
X81234000Y-90700000D01*
G75*
G02*
X81384000Y-90550000I150000J0D01*
G01*
X81684000Y-90550000D01*
G75*
G02*
X81834000Y-90700000I0J-150000D01*
G01*
X81834000Y-91875000D01*
G75*
G02*
X81684000Y-92025000I-150000J0D01*
G01*
G37*
G36*
G01*
X80414000Y-92025000D02*
X80114000Y-92025000D01*
G75*
G02*
X79964000Y-91875000I0J150000D01*
G01*
X79964000Y-90700000D01*
G75*
G02*
X80114000Y-90550000I150000J0D01*
G01*
X80414000Y-90550000D01*
G75*
G02*
X80564000Y-90700000I0J-150000D01*
G01*
X80564000Y-91875000D01*
G75*
G02*
X80414000Y-92025000I-150000J0D01*
G01*
G37*
G36*
G01*
X79144000Y-92025000D02*
X78844000Y-92025000D01*
G75*
G02*
X78694000Y-91875000I0J150000D01*
G01*
X78694000Y-90700000D01*
G75*
G02*
X78844000Y-90550000I150000J0D01*
G01*
X79144000Y-90550000D01*
G75*
G02*
X79294000Y-90700000I0J-150000D01*
G01*
X79294000Y-91875000D01*
G75*
G02*
X79144000Y-92025000I-150000J0D01*
G01*
G37*
G36*
G01*
X77874000Y-92025000D02*
X77574000Y-92025000D01*
G75*
G02*
X77424000Y-91875000I0J150000D01*
G01*
X77424000Y-90700000D01*
G75*
G02*
X77574000Y-90550000I150000J0D01*
G01*
X77874000Y-90550000D01*
G75*
G02*
X78024000Y-90700000I0J-150000D01*
G01*
X78024000Y-91875000D01*
G75*
G02*
X77874000Y-92025000I-150000J0D01*
G01*
G37*
G36*
G01*
X76604000Y-92025000D02*
X76304000Y-92025000D01*
G75*
G02*
X76154000Y-91875000I0J150000D01*
G01*
X76154000Y-90700000D01*
G75*
G02*
X76304000Y-90550000I150000J0D01*
G01*
X76604000Y-90550000D01*
G75*
G02*
X76754000Y-90700000I0J-150000D01*
G01*
X76754000Y-91875000D01*
G75*
G02*
X76604000Y-92025000I-150000J0D01*
G01*
G37*
G36*
G01*
X75334000Y-92025000D02*
X75034000Y-92025000D01*
G75*
G02*
X74884000Y-91875000I0J150000D01*
G01*
X74884000Y-90700000D01*
G75*
G02*
X75034000Y-90550000I150000J0D01*
G01*
X75334000Y-90550000D01*
G75*
G02*
X75484000Y-90700000I0J-150000D01*
G01*
X75484000Y-91875000D01*
G75*
G02*
X75334000Y-92025000I-150000J0D01*
G01*
G37*
G36*
G01*
X74064000Y-92025000D02*
X73764000Y-92025000D01*
G75*
G02*
X73614000Y-91875000I0J150000D01*
G01*
X73614000Y-90700000D01*
G75*
G02*
X73764000Y-90550000I150000J0D01*
G01*
X74064000Y-90550000D01*
G75*
G02*
X74214000Y-90700000I0J-150000D01*
G01*
X74214000Y-91875000D01*
G75*
G02*
X74064000Y-92025000I-150000J0D01*
G01*
G37*
G36*
G01*
X72794000Y-92025000D02*
X72494000Y-92025000D01*
G75*
G02*
X72344000Y-91875000I0J150000D01*
G01*
X72344000Y-90700000D01*
G75*
G02*
X72494000Y-90550000I150000J0D01*
G01*
X72794000Y-90550000D01*
G75*
G02*
X72944000Y-90700000I0J-150000D01*
G01*
X72944000Y-91875000D01*
G75*
G02*
X72794000Y-92025000I-150000J0D01*
G01*
G37*
G36*
G01*
X71524000Y-92025000D02*
X71224000Y-92025000D01*
G75*
G02*
X71074000Y-91875000I0J150000D01*
G01*
X71074000Y-90700000D01*
G75*
G02*
X71224000Y-90550000I150000J0D01*
G01*
X71524000Y-90550000D01*
G75*
G02*
X71674000Y-90700000I0J-150000D01*
G01*
X71674000Y-91875000D01*
G75*
G02*
X71524000Y-92025000I-150000J0D01*
G01*
G37*
G36*
G01*
X70204000Y-89835000D02*
X69029000Y-89835000D01*
G75*
G02*
X68879000Y-89685000I0J150000D01*
G01*
X68879000Y-89385000D01*
G75*
G02*
X69029000Y-89235000I150000J0D01*
G01*
X70204000Y-89235000D01*
G75*
G02*
X70354000Y-89385000I0J-150000D01*
G01*
X70354000Y-89685000D01*
G75*
G02*
X70204000Y-89835000I-150000J0D01*
G01*
G37*
G36*
G01*
X70204000Y-88565000D02*
X69029000Y-88565000D01*
G75*
G02*
X68879000Y-88415000I0J150000D01*
G01*
X68879000Y-88115000D01*
G75*
G02*
X69029000Y-87965000I150000J0D01*
G01*
X70204000Y-87965000D01*
G75*
G02*
X70354000Y-88115000I0J-150000D01*
G01*
X70354000Y-88415000D01*
G75*
G02*
X70204000Y-88565000I-150000J0D01*
G01*
G37*
G36*
G01*
X70204000Y-87295000D02*
X69029000Y-87295000D01*
G75*
G02*
X68879000Y-87145000I0J150000D01*
G01*
X68879000Y-86845000D01*
G75*
G02*
X69029000Y-86695000I150000J0D01*
G01*
X70204000Y-86695000D01*
G75*
G02*
X70354000Y-86845000I0J-150000D01*
G01*
X70354000Y-87145000D01*
G75*
G02*
X70204000Y-87295000I-150000J0D01*
G01*
G37*
G36*
G01*
X70204000Y-86025000D02*
X69029000Y-86025000D01*
G75*
G02*
X68879000Y-85875000I0J150000D01*
G01*
X68879000Y-85575000D01*
G75*
G02*
X69029000Y-85425000I150000J0D01*
G01*
X70204000Y-85425000D01*
G75*
G02*
X70354000Y-85575000I0J-150000D01*
G01*
X70354000Y-85875000D01*
G75*
G02*
X70204000Y-86025000I-150000J0D01*
G01*
G37*
%TD*%
M02*
